Tarea_2/simulation/qsim/M_PasoAPaso.msim.vcd
$comment
	File created using the following command:
		vcd file M_PasoAPaso.msim.vcd -direction
$end
$date
	Sun Feb 28 11:49:36 2021
$end
$version
	ModelSim Version 10.5b
$end
$timescale
	1ps
$end

$scope module m_pasoapaso_vhd_vec_tst $end
$var wire 1 ! A $end
$var wire 1 " B $end
$var wire 1 # C $end
$var wire 1 $ CLK_INPUT $end
$var wire 1 % CLK_OUTPUT $end
$var wire 1 & D $end
$var wire 1 ' Enable $end
$var wire 1 ( Half_Full $end
$var wire 1 ) Reset $end
$var wire 1 * Up_Down $end

$scope module i1 $end
$var wire 1 + gnd $end
$var wire 1 , vcc $end
$var wire 1 - unknown $end
$var wire 1 . devoe $end
$var wire 1 / devclrn $end
$var wire 1 0 devpor $end
$var wire 1 1 ww_devoe $end
$var wire 1 2 ww_devclrn $end
$var wire 1 3 ww_devpor $end
$var wire 1 4 ww_CLK_OUTPUT $end
$var wire 1 5 ww_CLK_INPUT $end
$var wire 1 6 ww_A $end
$var wire 1 7 ww_Reset $end
$var wire 1 8 ww_Enable $end
$var wire 1 9 ww_Up_Down $end
$var wire 1 : ww_Half_Full $end
$var wire 1 ; ww_B $end
$var wire 1 < ww_C $end
$var wire 1 = ww_D $end
$var wire 1 > \~QUARTUS_CREATED_ADC1~_CHSEL_bus\ [4] $end
$var wire 1 ? \~QUARTUS_CREATED_ADC1~_CHSEL_bus\ [3] $end
$var wire 1 @ \~QUARTUS_CREATED_ADC1~_CHSEL_bus\ [2] $end
$var wire 1 A \~QUARTUS_CREATED_ADC1~_CHSEL_bus\ [1] $end
$var wire 1 B \~QUARTUS_CREATED_ADC1~_CHSEL_bus\ [0] $end
$var wire 1 C \~QUARTUS_CREATED_ADC2~_CHSEL_bus\ [4] $end
$var wire 1 D \~QUARTUS_CREATED_ADC2~_CHSEL_bus\ [3] $end
$var wire 1 E \~QUARTUS_CREATED_ADC2~_CHSEL_bus\ [2] $end
$var wire 1 F \~QUARTUS_CREATED_ADC2~_CHSEL_bus\ [1] $end
$var wire 1 G \~QUARTUS_CREATED_ADC2~_CHSEL_bus\ [0] $end
$var wire 1 H \inst|5~clkctrl_INCLK_bus\ [3] $end
$var wire 1 I \inst|5~clkctrl_INCLK_bus\ [2] $end
$var wire 1 J \inst|5~clkctrl_INCLK_bus\ [1] $end
$var wire 1 K \inst|5~clkctrl_INCLK_bus\ [0] $end
$var wire 1 L \inst|16~clkctrl_INCLK_bus\ [3] $end
$var wire 1 M \inst|16~clkctrl_INCLK_bus\ [2] $end
$var wire 1 N \inst|16~clkctrl_INCLK_bus\ [1] $end
$var wire 1 O \inst|16~clkctrl_INCLK_bus\ [0] $end
$var wire 1 P \CLK_INPUT~inputclkctrl_INCLK_bus\ [3] $end
$var wire 1 Q \CLK_INPUT~inputclkctrl_INCLK_bus\ [2] $end
$var wire 1 R \CLK_INPUT~inputclkctrl_INCLK_bus\ [1] $end
$var wire 1 S \CLK_INPUT~inputclkctrl_INCLK_bus\ [0] $end
$var wire 1 T \~QUARTUS_CREATED_GND~I_combout\ $end
$var wire 1 U \~QUARTUS_CREATED_UNVM~~busy\ $end
$var wire 1 V \~QUARTUS_CREATED_ADC1~~eoc\ $end
$var wire 1 W \~QUARTUS_CREATED_ADC2~~eoc\ $end
$var wire 1 X \CLK_OUTPUT~output_o\ $end
$var wire 1 Y \A~output_o\ $end
$var wire 1 Z \B~output_o\ $end
$var wire 1 [ \C~output_o\ $end
$var wire 1 \ \D~output_o\ $end
$var wire 1 ] \CLK_INPUT~input_o\ $end
$var wire 1 ^ \CLK_INPUT~inputclkctrl_outclk\ $end
$var wire 1 _ \inst|2~combout\ $end
$var wire 1 ` \inst|3~feeder_combout\ $end
$var wire 1 a \inst|3~q\ $end
$var wire 1 b \inst|4~0_combout\ $end
$var wire 1 c \inst|4~q\ $end
$var wire 1 d \inst|6~combout\ $end
$var wire 1 e \inst|5~q\ $end
$var wire 1 f \inst|5~clkctrl_outclk\ $end
$var wire 1 g \inst|13~combout\ $end
$var wire 1 h \inst|12~q\ $end
$var wire 1 i \inst|14~0_combout\ $end
$var wire 1 j \inst|14~q\ $end
$var wire 1 k \inst|19~combout\ $end
$var wire 1 l \inst|15~q\ $end
$var wire 1 m \inst|16~0_combout\ $end
$var wire 1 n \inst|16~feeder_combout\ $end
$var wire 1 o \inst|16~q\ $end
$var wire 1 p \Half_Full~input_o\ $end
$var wire 1 q \inst|16~clkctrl_outclk\ $end
$var wire 1 r \Enable~input_o\ $end
$var wire 1 s \Up_Down~input_o\ $end
$var wire 1 t \inst8|process_1~0_combout\ $end
$var wire 1 u \inst8|Selector2~0_combout\ $end
$var wire 1 v \inst8|Selector6~0_combout\ $end
$var wire 1 w \inst8|Selector5~0_combout\ $end
$var wire 1 x \inst8|Selector5~1_combout\ $end
$var wire 1 y \Reset~input_o\ $end
$var wire 1 z \inst8|fstate.Q6~q\ $end
$var wire 1 { \inst8|Selector6~1_combout\ $end
$var wire 1 | \inst8|Selector6~2_combout\ $end
$var wire 1 } \inst8|fstate.Q7~q\ $end
$var wire 1 ~ \inst8|Selector7~0_combout\ $end
$var wire 1 !! \inst8|Selector7~1_combout\ $end
$var wire 1 "! \inst8|fstate.Q8~q\ $end
$var wire 1 #! \inst8|Selector0~1_combout\ $end
$var wire 1 $! \inst8|Selector0~0_combout\ $end
$var wire 1 %! \inst8|Selector0~2_combout\ $end
$var wire 1 &! \inst8|fstate.Q1~q\ $end
$var wire 1 '! \inst8|Selector1~0_combout\ $end
$var wire 1 (! \inst8|Selector1~1_combout\ $end
$var wire 1 )! \inst8|fstate.Q2~q\ $end
$var wire 1 *! \inst8|Selector2~2_combout\ $end
$var wire 1 +! \inst8|Selector2~1_combout\ $end
$var wire 1 ,! \inst8|Selector2~3_combout\ $end
$var wire 1 -! \inst8|fstate.Q3~q\ $end
$var wire 1 .! \inst8|Selector3~0_combout\ $end
$var wire 1 /! \inst8|Selector3~1_combout\ $end
$var wire 1 0! \inst8|fstate.Q4~q\ $end
$var wire 1 1! \inst8|Selector4~1_combout\ $end
$var wire 1 2! \inst8|Selector4~0_combout\ $end
$var wire 1 3! \inst8|Selector4~2_combout\ $end
$var wire 1 4! \inst8|fstate.Q5~q\ $end
$var wire 1 5! \inst8|Selector11~0_combout\ $end
$var wire 1 6! \inst8|Selector9~0_combout\ $end
$var wire 1 7! \inst8|Selector8~0_combout\ $end
$var wire 1 8! \inst8|Selector10~0_combout\ $end
$var wire 1 9! \ALT_INV_CLK_INPUT~inputclkctrl_outclk\ $end
$var wire 1 :! \inst|ALT_INV_5~clkctrl_outclk\ $end
$upscope $end
$upscope $end
$enddefinitions $end
#0
$dumpvars
0!
1"
0#
0$
0%
1&
1'
0(
1)
1*
0+
1,
x-
1.
1/
10
11
12
13
04
05
06
17
18
19
0:
1;
0<
1=
0T
zU
zV
zW
0X
0Y
1Z
0[
1\
0]
0^
1_
1`
0a
0b
0c
0d
0e
0f
1g
0h
0i
0j
0k
0l
0m
0n
0o
0p
0q
1r
1s
0t
1u
0v
0w
0x
1y
0z
0{
0|
0}
0~
0!!
0"!
0#!
0$!
1%!
0&!
0'!
0(!
0)!
0*!
1+!
1,!
0-!
0.!
0/!
00!
01!
02!
03!
04!
05!
16!
07!
18!
19!
1:!
1P
1Q
1R
0S
1H
1I
1J
0K
1L
1M
1N
0O
0>
0?
0@
0A
0B
0C
0D
0E
0F
0G
$end
#10000
1$
15
1]
1S
1^
09!
#20000
0$
05
0]
0S
0^
19!
1a
0_
1b
0`
#30000
1$
15
1]
1S
1^
09!
#40000
0$
05
0]
0S
0^
19!
0a
1c
1_
1`
#50000
1$
15
1]
1S
1^
09!
#60000
0$
05
0]
0S
0^
19!
1a
0_
0b
1d
0`
#70000
1$
15
1]
1S
1^
09!
#80000
0$
05
0]
0S
0^
19!
0a
0c
1e
1K
0d
1f
0:!
#90000
1$
15
1]
1S
1^
09!
#100000
0$
05
0]
0S
0^
19!
0e
0K
1_
1`
0f
1:!
1h
0g
1i
#110000
1$
15
1]
1S
1^
09!
#120000
0$
05
0]
0S
0^
19!
1a
0_
1b
0`
#130000
1$
15
1]
1S
1^
09!
#140000
0$
05
0]
0S
0^
19!
0a
1c
1_
1`
#150000
1$
15
1]
1S
1^
09!
#160000
0$
05
0]
0S
0^
19!
1a
0_
0b
1d
0`
#170000
1$
15
1]
1S
1^
09!
#180000
0$
05
0]
0S
0^
19!
0a
0c
1e
1K
0d
1f
0:!
#190000
1$
15
1]
1S
1^
09!
#200000
0$
05
0]
0S
0^
19!
0e
0K
1_
1`
0f
1:!
0h
1j
1g
#210000
1$
15
1]
1S
1^
09!
#220000
0$
05
0]
0S
0^
19!
1a
0_
1b
0`
#230000
1$
15
1]
1S
1^
09!
#240000
0$
05
0]
0S
0^
19!
0a
1c
1_
1`
#250000
1$
15
1]
1S
1^
09!
#260000
0$
05
0]
0S
0^
19!
1a
0_
0b
1d
0`
#270000
1$
15
1]
1S
1^
09!
#280000
0$
05
0]
0S
0^
19!
0a
0c
1e
1K
0d
1f
0:!
#290000
1$
15
1]
1S
1^
09!
#300000
0$
05
0]
0S
0^
19!
0e
0K
1_
1`
0f
1:!
1h
0g
0i
1k
#310000
1$
15
1]
1S
1^
09!
#320000
0$
05
0]
0S
0^
19!
1a
0_
1b
0`
#330000
1$
15
1]
1S
1^
09!
#340000
0$
05
0]
0S
0^
19!
0a
1c
1_
1`
#350000
1$
15
1]
1S
1^
09!
#360000
0$
05
0]
0S
0^
19!
1a
0_
0b
1d
0`
#370000
1$
15
1]
1S
1^
09!
#380000
0$
05
0]
0S
0^
19!
0a
0c
1e
1K
0d
1f
0:!
#390000
1$
15
1]
1S
1^
09!
#400000
0$
05
0]
0S
0^
19!
0e
0K
1_
1`
0f
1:!
0h
0j
1l
1m
0k
1n
#410000
1$
15
1]
1S
1^
09!
#420000
0$
05
0]
0S
0^
19!
1a
0_
1b
0`
#430000
1$
15
1]
1S
1^
09!
#440000
0$
05
0]
0S
0^
19!
0a
1c
1_
1`
#450000
1$
15
1]
1S
1^
09!
#460000
0$
05
0]
0S
0^
19!
1a
0_
0b
1d
0`
#470000
1$
15
1]
1S
1^
09!
#480000
0$
05
0]
0S
0^
19!
0a
0c
1e
1K
0d
1f
0:!
#490000
1$
15
1]
1S
1^
09!
#500000
0$
05
0]
0S
0^
19!
0e
0K
1_
1`
0f
1:!
0l
1o
1O
1X
1g
14
1%
1q
1&!
1-!
12!
15!
0+!
06!
0Z
1Y
0,!
13!
0;
16
0"
1!
#510000
1$
15
1]
1S
1^
09!
#520000
0$
05
0]
0S
0^
19!
1a
0_
1b
0`
#530000
1$
15
1]
1S
1^
09!
#540000
0$
05
0]
0S
0^
19!
0a
1c
1_
1`
#550000
1$
15
1]
1S
1^
09!
#560000
0$
05
0]
0S
0^
19!
1a
0_
0b
1d
0`
#570000
1$
15
1]
1S
1^
09!
#580000
0$
05
0]
0S
0^
19!
0a
0c
1e
1K
0d
1f
0:!
#590000
1$
15
1]
1S
1^
09!
#600000
0$
05
0]
0S
0^
19!
0e
0K
1_
1`
0f
1:!
1h
0g
1i
#610000
1$
15
1]
1S
1^
09!
#620000
0$
05
0]
0S
0^
19!
1a
0_
1b
0`
#630000
1$
15
1]
1S
1^
09!
#640000
0$
05
0]
0S
0^
19!
0a
1c
1_
1`
#650000
1$
15
1]
1S
1^
09!
#660000
0$
05
0]
0S
0^
19!
1a
0_
0b
1d
0`
#670000
1$
15
1]
1S
1^
09!
#680000
0$
05
0]
0S
0^
19!
0a
0c
1e
1K
0d
1f
0:!
#690000
1$
15
1]
1S
1^
09!
#700000
0$
05
0]
0S
0^
19!
0e
0K
1_
1`
0f
1:!
0h
1j
1g
#710000
1$
15
1]
1S
1^
09!
#720000
0$
05
0]
0S
0^
19!
1a
0_
1b
0`
#730000
1$
15
1]
1S
1^
09!
#740000
0$
05
0]
0S
0^
19!
0a
1c
1_
1`
#750000
1$
15
1]
1S
1^
09!
#760000
0$
05
0]
0S
0^
19!
1a
0_
0b
1d
0`
#770000
1$
15
1]
1S
1^
09!
#780000
0$
05
0]
0S
0^
19!
0a
0c
1e
1K
0d
1f
0:!
#790000
1$
15
1]
1S
1^
09!
#800000
0$
05
0]
0S
0^
19!
0e
0K
1_
1`
0f
1:!
1h
0g
0i
1k
#810000
1$
15
1]
1S
1^
09!
#820000
0$
05
0]
0S
0^
19!
1a
0_
1b
0`
#830000
1$
15
1]
1S
1^
09!
#840000
0$
05
0]
0S
0^
19!
0a
1c
1_
1`
#850000
1$
15
1]
1S
1^
09!
#860000
0$
05
0]
0S
0^
19!
1a
0_
0b
1d
0`
#870000
1$
15
1]
1S
1^
09!
#880000
0$
05
0]
0S
0^
19!
0a
0c
1e
1K
0d
1f
0:!
#890000
1$
15
1]
1S
1^
09!
#900000
0$
05
0]
0S
0^
19!
0e
0K
1_
1`
0f
1:!
0h
0j
1l
0m
0k
0n
#910000
1$
15
1]
1S
1^
09!
#920000
0$
05
0]
0S
0^
19!
1a
0_
1b
0`
#930000
1$
15
1]
1S
1^
09!
#940000
0$
05
0]
0S
0^
19!
0a
1c
1_
1`
#950000
1$
15
1]
1S
1^
09!
#960000
0$
05
0]
0S
0^
19!
1a
0_
0b
1d
0`
#970000
1$
15
1]
1S
1^
09!
#980000
0$
05
0]
0S
0^
19!
0a
0c
1e
1K
0d
1f
0:!
#990000
1$
15
1]
1S
1^
09!
#1000000
0$
05
0]
0S
0^
19!
0e
0K
1_
1`
0f
1:!
0l
0o
0O
0X
1g
04
0%
0q
#1010000
1$
15
1]
1S
1^
09!
#1020000
0$
05
0]
0S
0^
19!
1a
0_
1b
0`
#1030000
1$
15
1]
1S
1^
09!
#1040000
0$
05
0]
0S
0^
19!
0a
1c
1_
1`
#1050000
1$
15
1]
1S
1^
09!
#1060000
0$
05
0]
0S
0^
19!
1a
0_
0b
1d
0`
#1070000
1$
15
1]
1S
1^
09!
#1080000
0$
05
0]
0S
0^
19!
0a
0c
1e
1K
0d
1f
0:!
#1090000
1$
15
1]
1S
1^
09!
#1100000
0$
05
0]
0S
0^
19!
0e
0K
1_
1`
0f
1:!
1h
0g
1i
#1110000
1$
15
1]
1S
1^
09!
#1120000
0$
05
0]
0S
0^
19!
1a
0_
1b
0`
#1130000
1$
15
1]
1S
1^
09!
#1140000
0$
05
0]
0S
0^
19!
0a
1c
1_
1`
#1150000
1$
15
1]
1S
1^
09!
#1160000
0$
05
0]
0S
0^
19!
1a
0_
0b
1d
0`
#1170000
1$
15
1]
1S
1^
09!
#1180000
0$
05
0]
0S
0^
19!
0a
0c
1e
1K
0d
1f
0:!
#1190000
1$
15
1]
1S
1^
09!
#1200000
0$
05
0]
0S
0^
19!
0e
0K
1_
1`
0f
1:!
0h
1j
1g
#1210000
1$
15
1]
1S
1^
09!
#1220000
0$
05
0]
0S
0^
19!
1a
0_
1b
0`
#1230000
1$
15
1]
1S
1^
09!
#1240000
0$
05
0]
0S
0^
19!
0a
1c
1_
1`
#1250000
1$
15
1]
1S
1^
09!
#1260000
0$
05
0]
0S
0^
19!
1a
0_
0b
1d
0`
#1270000
1$
15
1]
1S
1^
09!
#1280000
0$
05
0]
0S
0^
19!
0a
0c
1e
1K
0d
1f
0:!
#1290000
1$
15
1]
1S
1^
09!
#1300000
0$
05
0]
0S
0^
19!
0e
0K
1_
1`
0f
1:!
1h
0g
0i
1k
#1310000
1$
15
1]
1S
1^
09!
#1320000
0$
05
0]
0S
0^
19!
1a
0_
1b
0`
#1330000
1$
15
1]
1S
1^
09!
#1340000
0$
05
0]
0S
0^
19!
0a
1c
1_
1`
#1350000
1$
15
1]
1S
1^
09!
#1360000
0$
05
0]
0S
0^
19!
1a
0_
0b
1d
0`
#1370000
1$
15
1]
1S
1^
09!
#1380000
0$
05
0]
0S
0^
19!
0a
0c
1e
1K
0d
1f
0:!
#1390000
1$
15
1]
1S
1^
09!
#1400000
0$
05
0]
0S
0^
19!
0e
0K
1_
1`
0f
1:!
0h
0j
1l
1m
0k
1n
#1410000
1$
15
1]
1S
1^
09!
#1420000
0$
05
0]
0S
0^
19!
1a
0_
1b
0`
#1430000
1$
15
1]
1S
1^
09!
#1440000
0$
05
0]
0S
0^
19!
0a
1c
1_
1`
#1450000
1$
15
1]
1S
1^
09!
#1460000
0$
05
0]
0S
0^
19!
1a
0_
0b
1d
0`
#1470000
1$
15
1]
1S
1^
09!
#1480000
0$
05
0]
0S
0^
19!
0a
0c
1e
1K
0d
1f
0:!
#1490000
1$
15
1]
1S
1^
09!
#1500000
0$
05
0]
0S
0^
19!
0e
0K
1_
1`
0f
1:!
0l
1o
1O
1X
1g
14
1%
1q
0-!
14!
1v
17!
02!
08!
0\
1[
03!
1|
0=
1<
0&
1#
#1510000
1$
15
1]
1S
1^
09!
#1520000
0$
05
0]
0S
0^
19!
1a
0_
1b
0`
#1530000
1$
15
1]
1S
1^
09!
#1540000
0$
05
0]
0S
0^
19!
0a
1c
1_
1`
#1550000
1$
15
1]
1S
1^
09!
#1560000
0$
05
0]
0S
0^
19!
1a
0_
0b
1d
0`
#1570000
1$
15
1]
1S
1^
09!
#1580000
0$
05
0]
0S
0^
19!
0a
0c
1e
1K
0d
1f
0:!
#1590000
1$
15
1]
1S
1^
09!
#1600000
0$
05
0]
0S
0^
19!
0e
0K
1_
1`
0f
1:!
1h
0g
1i
#1610000
1$
15
1]
1S
1^
09!
#1620000
0$
05
0]
0S
0^
19!
1a
0_
1b
0`
#1630000
1$
15
1]
1S
1^
09!
#1640000
0$
05
0]
0S
0^
19!
0a
1c
1_
1`
#1650000
1$
15
1]
1S
1^
09!
#1660000
0$
05
0]
0S
0^
19!
1a
0_
0b
1d
0`
#1670000
1$
15
1]
1S
1^
09!
#1680000
0$
05
0]
0S
0^
19!
0a
0c
1e
1K
0d
1f
0:!
#1690000
1$
15
1]
1S
1^
09!
#1700000
0$
05
0]
0S
0^
19!
0e
0K
1_
1`
0f
1:!
0h
1j
1g
#1710000
1$
15
1]
1S
1^
09!
#1720000
0$
05
0]
0S
0^
19!
1a
0_
1b
0`
#1730000
1$
15
1]
1S
1^
09!
#1740000
0$
05
0]
0S
0^
19!
0a
1c
1_
1`
#1750000
1$
15
1]
1S
1^
09!
#1760000
0$
05
0]
0S
0^
19!
1a
0_
0b
1d
0`
#1770000
1$
15
1]
1S
1^
09!
#1780000
0$
05
0]
0S
0^
19!
0a
0c
1e
1K
0d
1f
0:!
#1790000
1$
15
1]
1S
1^
09!
#1800000
0$
05
0]
0S
0^
19!
0e
0K
1_
1`
0f
1:!
1h
0g
0i
1k
#1810000
1$
15
1]
1S
1^
09!
#1820000
0$
05
0]
0S
0^
19!
1a
0_
1b
0`
#1830000
1$
15
1]
1S
1^
09!
#1840000
0$
05
0]
0S
0^
19!
0a
1c
1_
1`
#1850000
1$
15
1]
1S
1^
09!
#1860000
0$
05
0]
0S
0^
19!
1a
0_
0b
1d
0`
#1870000
1$
15
1]
1S
1^
09!
#1880000
0$
05
0]
0S
0^
19!
0a
0c
1e
1K
0d
1f
0:!
#1890000
1$
15
1]
1S
1^
09!
#1900000
0$
05
0]
0S
0^
19!
0e
0K
1_
1`
0f
1:!
0h
0j
1l
0m
0k
0n
#1910000
1$
15
1]
1S
1^
09!
#1920000
0$
05
0]
0S
0^
19!
1a
0_
1b
0`
#1930000
1$
15
1]
1S
1^
09!
#1940000
0$
05
0]
0S
0^
19!
0a
1c
1_
1`
#1950000
1$
15
1]
1S
1^
09!
#1960000
0$
05
0]
0S
0^
19!
1a
0_
0b
1d
0`
#1970000
1$
15
1]
1S
1^
09!
#1980000
0$
05
0]
0S
0^
19!
0a
0c
1e
1K
0d
1f
0:!
#1990000
1$
15
1]
1S
1^
09!
#2000000
0$
05
0]
0S
0^
19!
0e
0K
1_
1`
0f
1:!
0l
0o
0O
0X
1g
04
0%
0q
#2010000
1$
15
1]
1S
1^
09!
#2020000
0$
05
0]
0S
0^
19!
1a
0_
1b
0`
#2030000
1$
15
1]
1S
1^
09!
#2040000
0$
05
0]
0S
0^
19!
0a
1c
1_
1`
#2050000
1$
15
1]
1S
1^
09!
#2060000
0$
05
0]
0S
0^
19!
1a
0_
0b
1d
0`
#2070000
1$
15
1]
1S
1^
09!
#2080000
0$
05
0]
0S
0^
19!
0a
0c
1e
1K
0d
1f
0:!
#2090000
1$
15
1]
1S
1^
09!
#2100000
0$
05
0]
0S
0^
19!
0e
0K
1_
1`
0f
1:!
1h
0g
1i
#2110000
1$
15
1]
1S
1^
09!
#2120000
0$
05
0]
0S
0^
19!
1a
0_
1b
0`
#2130000
1$
15
1]
1S
1^
09!
#2140000
0$
05
0]
0S
0^
19!
0a
1c
1_
1`
#2150000
1$
15
1]
1S
1^
09!
#2160000
0$
05
0]
0S
0^
19!
1a
0_
0b
1d
0`
#2170000
1$
15
1]
1S
1^
09!
#2180000
0$
05
0]
0S
0^
19!
0a
0c
1e
1K
0d
1f
0:!
#2190000
1$
15
1]
1S
1^
09!
#2200000
0$
05
0]
0S
0^
19!
0e
0K
1_
1`
0f
1:!
0h
1j
1g
#2210000
1$
15
1]
1S
1^
09!
#2220000
0$
05
0]
0S
0^
19!
1a
0_
1b
0`
#2230000
1$
15
1]
1S
1^
09!
#2240000
0$
05
0]
0S
0^
19!
0a
1c
1_
1`
#2250000
1$
15
1]
1S
1^
09!
#2260000
0$
05
0]
0S
0^
19!
1a
0_
0b
1d
0`
#2270000
1$
15
1]
1S
1^
09!
#2280000
0$
05
0]
0S
0^
19!
0a
0c
1e
1K
0d
1f
0:!
#2290000
1$
15
1]
1S
1^
09!
#2300000
0$
05
0]
0S
0^
19!
0e
0K
1_
1`
0f
1:!
1h
0g
0i
1k
#2310000
1$
15
1]
1S
1^
09!
#2320000
0$
05
0]
0S
0^
19!
1a
0_
1b
0`
#2330000
1$
15
1]
1S
1^
09!
#2340000
0$
05
0]
0S
0^
19!
0a
1c
1_
1`
#2350000
1$
15
1]
1S
1^
09!
#2360000
0$
05
0]
0S
0^
19!
1a
0_
0b
1d
0`
#2370000
1$
15
1]
1S
1^
09!
#2380000
0$
05
0]
0S
0^
19!
0a
0c
1e
1K
0d
1f
0:!
#2390000
1$
15
1]
1S
1^
09!
#2400000
0$
05
0]
0S
0^
19!
0e
0K
1_
1`
0f
1:!
0h
0j
1l
1m
0k
1n
#2410000
1$
15
1]
1S
1^
09!
#2420000
0$
05
0]
0S
0^
19!
1a
0_
1b
0`
#2430000
1$
15
1]
1S
1^
09!
#2440000
0$
05
0]
0S
0^
19!
0a
1c
1_
1`
#2450000
1$
15
1]
1S
1^
09!
#2460000
0$
05
0]
0S
0^
19!
1a
0_
0b
1d
0`
#2470000
1$
15
1]
1S
1^
09!
#2480000
0$
05
0]
0S
0^
19!
0a
0c
1e
1K
0d
1f
0:!
#2490000
1$
15
1]
1S
1^
09!
#2500000
0$
05
0]
0S
0^
19!
0e
0K
1_
1`
0f
1:!
0l
1o
1O
1X
1g
14
1%
1q
1}
04!
0v
05!
1$!
16!
1Z
0Y
0%!
0|
1;
06
1"
0!
#2510000
1$
15
1]
1S
1^
09!
#2520000
0$
05
0]
0S
0^
19!
1a
0_
1b
0`
#2530000
1$
15
1]
1S
1^
09!
#2540000
0$
05
0]
0S
0^
19!
0a
1c
1_
1`
#2550000
1$
15
1]
1S
1^
09!
#2560000
0$
05
0]
0S
0^
19!
1a
0_
0b
1d
0`
#2570000
1$
15
1]
1S
1^
09!
#2580000
0$
05
0]
0S
0^
19!
0a
0c
1e
1K
0d
1f
0:!
#2590000
1$
15
1]
1S
1^
09!
#2600000
0$
05
0]
0S
0^
19!
0e
0K
1_
1`
0f
1:!
1h
0g
1i
#2610000
1$
15
1]
1S
1^
09!
#2620000
0$
05
0]
0S
0^
19!
1a
0_
1b
0`
#2630000
1$
15
1]
1S
1^
09!
#2640000
0$
05
0]
0S
0^
19!
0a
1c
1_
1`
#2650000
1$
15
1]
1S
1^
09!
#2660000
0$
05
0]
0S
0^
19!
1a
0_
0b
1d
0`
#2670000
1$
15
1]
1S
1^
09!
#2680000
0$
05
0]
0S
0^
19!
0a
0c
1e
1K
0d
1f
0:!
#2690000
1$
15
1]
1S
1^
09!
#2700000
0$
05
0]
0S
0^
19!
0e
0K
1_
1`
0f
1:!
0h
1j
1g
#2710000
1$
15
1]
1S
1^
09!
#2720000
0$
05
0]
0S
0^
19!
1a
0_
1b
0`
#2730000
1$
15
1]
1S
1^
09!
#2740000
0$
05
0]
0S
0^
19!
0a
1c
1_
1`
#2750000
1$
15
1]
1S
1^
09!
#2760000
0$
05
0]
0S
0^
19!
1a
0_
0b
1d
0`
#2770000
1$
15
1]
1S
1^
09!
#2780000
0$
05
0]
0S
0^
19!
0a
0c
1e
1K
0d
1f
0:!
#2790000
1$
15
1]
1S
1^
09!
#2800000
0$
05
0]
0S
0^
19!
0e
0K
1_
1`
0f
1:!
1h
0g
0i
1k
#2810000
1$
15
1]
1S
1^
09!
#2820000
0$
05
0]
0S
0^
19!
1a
0_
1b
0`
#2830000
1$
15
1]
1S
1^
09!
#2840000
0$
05
0]
0S
0^
19!
0a
1c
1_
1`
#2850000
1$
15
1]
1S
1^
09!
#2860000
0$
05
0]
0S
0^
19!
1a
0_
0b
1d
0`
#2870000
1$
15
1]
1S
1^
09!
#2880000
0$
05
0]
0S
0^
19!
0a
0c
1e
1K
0d
1f
0:!
#2890000
1$
15
1]
1S
1^
09!
#2900000
0$
05
0]
0S
0^
19!
0e
0K
1_
1`
0f
1:!
0h
0j
1l
0m
0k
0n
#2910000
1$
15
1]
1S
1^
09!
#2920000
0$
05
0]
0S
0^
19!
1a
0_
1b
0`
#2930000
1$
15
1]
1S
1^
09!
#2940000
0$
05
0]
0S
0^
19!
0a
1c
1_
1`
#2950000
1$
15
1]
1S
1^
09!
#2960000
0$
05
0]
0S
0^
19!
1a
0_
0b
1d
0`
#2970000
1$
15
1]
1S
1^
09!
#2980000
0$
05
0]
0S
0^
19!
0a
0c
1e
1K
0d
1f
0:!
#2990000
1$
15
1]
1S
1^
09!
#3000000
0$
05
0]
0S
0^
19!
0e
0K
1_
1`
0f
1:!
0l
0o
0O
0X
1g
04
0%
0q
#3010000
1$
15
1]
1S
1^
09!
#3020000
0$
05
0]
0S
0^
19!
1a
0_
1b
0`
#3030000
1$
15
1]
1S
1^
09!
#3040000
0$
05
0]
0S
0^
19!
0a
1c
1_
1`
#3050000
1$
15
1]
1S
1^
09!
#3060000
0$
05
0]
0S
0^
19!
1a
0_
0b
1d
0`
#3070000
1$
15
1]
1S
1^
09!
#3080000
0$
05
0]
0S
0^
19!
0a
0c
1e
1K
0d
1f
0:!
#3090000
1$
15
1]
1S
1^
09!
#3100000
0$
05
0]
0S
0^
19!
0e
0K
1_
1`
0f
1:!
1h
0g
1i
#3110000
1$
15
1]
1S
1^
09!
#3120000
0$
05
0]
0S
0^
19!
1a
0_
1b
0`
#3130000
1$
15
1]
1S
1^
09!
#3140000
0$
05
0]
0S
0^
19!
0a
1c
1_
1`
#3150000
1$
15
1]
1S
1^
09!
#3160000
0$
05
0]
0S
0^
19!
1a
0_
0b
1d
0`
#3170000
1$
15
1]
1S
1^
09!
#3180000
0$
05
0]
0S
0^
19!
0a
0c
1e
1K
0d
1f
0:!
#3190000
1$
15
1]
1S
1^
09!
#3200000
0$
05
0]
0S
0^
19!
0e
0K
1_
1`
0f
1:!
0h
1j
1g
#3210000
1$
15
1]
1S
1^
09!
#3220000
0$
05
0]
0S
0^
19!
1a
0_
1b
0`
#3230000
1$
15
1]
1S
1^
09!
#3240000
0$
05
0]
0S
0^
19!
0a
1c
1_
1`
#3250000
1$
15
1]
1S
1^
09!
#3260000
0$
05
0]
0S
0^
19!
1a
0_
0b
1d
0`
#3270000
1$
15
1]
1S
1^
09!
#3280000
0$
05
0]
0S
0^
19!
0a
0c
1e
1K
0d
1f
0:!
#3290000
1$
15
1]
1S
1^
09!
#3300000
0$
05
0]
0S
0^
19!
0e
0K
1_
1`
0f
1:!
1h
0g
0i
1k
#3310000
1$
15
1]
1S
1^
09!
#3320000
0$
05
0]
0S
0^
19!
1a
0_
1b
0`
#3330000
1$
15
1]
1S
1^
09!
#3340000
0$
05
0]
0S
0^
19!
0a
1c
1_
1`
#3350000
1$
15
1]
1S
1^
09!
#3360000
0$
05
0]
0S
0^
19!
1a
0_
0b
1d
0`
#3370000
1$
15
1]
1S
1^
09!
#3380000
0$
05
0]
0S
0^
19!
0a
0c
1e
1K
0d
1f
0:!
#3390000
1$
15
1]
1S
1^
09!
#3400000
0$
05
0]
0S
0^
19!
0e
0K
1_
1`
0f
1:!
0h
0j
1l
1m
0k
1n
#3410000
1$
15
1]
1S
1^
09!
#3420000
0$
05
0]
0S
0^
19!
1a
0_
1b
0`
#3430000
1$
15
1]
1S
1^
09!
#3440000
0$
05
0]
0S
0^
19!
0a
1c
1_
1`
#3450000
1$
15
1]
1S
1^
09!
#3460000
0$
05
0]
0S
0^
19!
1a
0_
0b
1d
0`
#3470000
1$
15
1]
1S
1^
09!
#3480000
0$
05
0]
0S
0^
19!
0a
0c
1e
1K
0d
1f
0:!
#3490000
1$
15
1]
1S
1^
09!
#3500000
0$
05
0]
0S
0^
19!
0e
0K
1_
1`
0f
1:!
0l
1o
1O
1X
1g
14
1%
1q
0}
0&!
1+!
18!
0$!
07!
0[
1\
1%!
1,!
0<
1=
0#
1&
#3510000
1$
15
1]
1S
1^
09!
#3520000
0$
05
0]
0S
0^
19!
1a
0_
1b
0`
#3530000
1$
15
1]
1S
1^
09!
#3540000
0$
05
0]
0S
0^
19!
0a
1c
1_
1`
#3550000
1$
15
1]
1S
1^
09!
