Tarea_2/simulation/qsim/M_PasoAPaso.msim.vcd
$comment
	File created using the following command:
		vcd file M_PasoAPaso.msim.vcd -direction
$end
$date
	Mon Mar 08 10:56:52 2021
$end
$version
	ModelSim Version 10.5b
$end
$timescale
	1ps
$end

$scope module m_pasoapaso_vhd_vec_tst $end
$var wire 1 ! A $end
$var wire 1 " B $end
$var wire 1 # C $end
$var wire 1 $ CLK_INPUT $end
$var wire 1 % CLK_OUTPUT $end
$var wire 1 & D $end
$var wire 1 ' Enable $end
$var wire 1 ( Half_Full $end
$var wire 1 ) Reset $end
$var wire 1 * Up_Down $end

$scope module i1 $end
$var wire 1 + gnd $end
$var wire 1 , vcc $end
$var wire 1 - unknown $end
$var wire 1 . devoe $end
$var wire 1 / devclrn $end
$var wire 1 0 devpor $end
$var wire 1 1 ww_devoe $end
$var wire 1 2 ww_devclrn $end
$var wire 1 3 ww_devpor $end
$var wire 1 4 ww_CLK_OUTPUT $end
$var wire 1 5 ww_CLK_INPUT $end
$var wire 1 6 ww_A $end
$var wire 1 7 ww_Reset $end
$var wire 1 8 ww_Enable $end
$var wire 1 9 ww_Up_Down $end
$var wire 1 : ww_Half_Full $end
$var wire 1 ; ww_B $end
$var wire 1 < ww_C $end
$var wire 1 = ww_D $end
$var wire 1 > \~QUARTUS_CREATED_ADC1~_CHSEL_bus\ [4] $end
$var wire 1 ? \~QUARTUS_CREATED_ADC1~_CHSEL_bus\ [3] $end
$var wire 1 @ \~QUARTUS_CREATED_ADC1~_CHSEL_bus\ [2] $end
$var wire 1 A \~QUARTUS_CREATED_ADC1~_CHSEL_bus\ [1] $end
$var wire 1 B \~QUARTUS_CREATED_ADC1~_CHSEL_bus\ [0] $end
$var wire 1 C \~QUARTUS_CREATED_ADC2~_CHSEL_bus\ [4] $end
$var wire 1 D \~QUARTUS_CREATED_ADC2~_CHSEL_bus\ [3] $end
$var wire 1 E \~QUARTUS_CREATED_ADC2~_CHSEL_bus\ [2] $end
$var wire 1 F \~QUARTUS_CREATED_ADC2~_CHSEL_bus\ [1] $end
$var wire 1 G \~QUARTUS_CREATED_ADC2~_CHSEL_bus\ [0] $end
$var wire 1 H \inst|5~clkctrl_INCLK_bus\ [3] $end
$var wire 1 I \inst|5~clkctrl_INCLK_bus\ [2] $end
$var wire 1 J \inst|5~clkctrl_INCLK_bus\ [1] $end
$var wire 1 K \inst|5~clkctrl_INCLK_bus\ [0] $end
$var wire 1 L \inst4|16~clkctrl_INCLK_bus\ [3] $end
$var wire 1 M \inst4|16~clkctrl_INCLK_bus\ [2] $end
$var wire 1 N \inst4|16~clkctrl_INCLK_bus\ [1] $end
$var wire 1 O \inst4|16~clkctrl_INCLK_bus\ [0] $end
$var wire 1 P \inst3|5~clkctrl_INCLK_bus\ [3] $end
$var wire 1 Q \inst3|5~clkctrl_INCLK_bus\ [2] $end
$var wire 1 R \inst3|5~clkctrl_INCLK_bus\ [1] $end
$var wire 1 S \inst3|5~clkctrl_INCLK_bus\ [0] $end
$var wire 1 T \inst5|16~clkctrl_INCLK_bus\ [3] $end
$var wire 1 U \inst5|16~clkctrl_INCLK_bus\ [2] $end
$var wire 1 V \inst5|16~clkctrl_INCLK_bus\ [1] $end
$var wire 1 W \inst5|16~clkctrl_INCLK_bus\ [0] $end
$var wire 1 X \inst4|5~clkctrl_INCLK_bus\ [3] $end
$var wire 1 Y \inst4|5~clkctrl_INCLK_bus\ [2] $end
$var wire 1 Z \inst4|5~clkctrl_INCLK_bus\ [1] $end
$var wire 1 [ \inst4|5~clkctrl_INCLK_bus\ [0] $end
$var wire 1 \ \inst|16~clkctrl_INCLK_bus\ [3] $end
$var wire 1 ] \inst|16~clkctrl_INCLK_bus\ [2] $end
$var wire 1 ^ \inst|16~clkctrl_INCLK_bus\ [1] $end
$var wire 1 _ \inst|16~clkctrl_INCLK_bus\ [0] $end
$var wire 1 ` \inst3|16~clkctrl_INCLK_bus\ [3] $end
$var wire 1 a \inst3|16~clkctrl_INCLK_bus\ [2] $end
$var wire 1 b \inst3|16~clkctrl_INCLK_bus\ [1] $end
$var wire 1 c \inst3|16~clkctrl_INCLK_bus\ [0] $end
$var wire 1 d \CLK_INPUT~inputclkctrl_INCLK_bus\ [3] $end
$var wire 1 e \CLK_INPUT~inputclkctrl_INCLK_bus\ [2] $end
$var wire 1 f \CLK_INPUT~inputclkctrl_INCLK_bus\ [1] $end
$var wire 1 g \CLK_INPUT~inputclkctrl_INCLK_bus\ [0] $end
$var wire 1 h \~QUARTUS_CREATED_GND~I_combout\ $end
$var wire 1 i \~QUARTUS_CREATED_UNVM~~busy\ $end
$var wire 1 j \~QUARTUS_CREATED_ADC1~~eoc\ $end
$var wire 1 k \~QUARTUS_CREATED_ADC2~~eoc\ $end
$var wire 1 l \CLK_OUTPUT~output_o\ $end
$var wire 1 m \A~output_o\ $end
$var wire 1 n \B~output_o\ $end
$var wire 1 o \C~output_o\ $end
$var wire 1 p \D~output_o\ $end
$var wire 1 q \CLK_INPUT~input_o\ $end
$var wire 1 r \CLK_INPUT~inputclkctrl_outclk\ $end
$var wire 1 s \inst|2~combout\ $end
$var wire 1 t \inst|3~feeder_combout\ $end
$var wire 1 u \inst|3~q\ $end
$var wire 1 v \inst|4~0_combout\ $end
$var wire 1 w \inst|4~q\ $end
$var wire 1 x \inst|6~combout\ $end
$var wire 1 y \inst|5~q\ $end
$var wire 1 z \inst|5~clkctrl_outclk\ $end
$var wire 1 { \inst|13~combout\ $end
$var wire 1 | \inst|12~q\ $end
$var wire 1 } \inst|14~0_combout\ $end
$var wire 1 ~ \inst|14~q\ $end
$var wire 1 !! \inst|19~combout\ $end
$var wire 1 "! \inst|15~q\ $end
$var wire 1 #! \inst|16~0_combout\ $end
$var wire 1 $! \inst|16~feeder_combout\ $end
$var wire 1 %! \inst|16~q\ $end
$var wire 1 &! \inst|16~clkctrl_outclk\ $end
$var wire 1 '! \inst3|2~combout\ $end
$var wire 1 (! \inst3|3~feeder_combout\ $end
$var wire 1 )! \inst3|3~q\ $end
$var wire 1 *! \inst3|4~0_combout\ $end
$var wire 1 +! \inst3|4~q\ $end
$var wire 1 ,! \inst3|6~combout\ $end
$var wire 1 -! \inst3|5~q\ $end
$var wire 1 .! \inst3|5~clkctrl_outclk\ $end
$var wire 1 /! \inst3|13~combout\ $end
$var wire 1 0! \inst3|12~q\ $end
$var wire 1 1! \inst3|14~0_combout\ $end
$var wire 1 2! \inst3|14~q\ $end
$var wire 1 3! \inst3|19~combout\ $end
$var wire 1 4! \inst3|15~q\ $end
$var wire 1 5! \inst3|16~0_combout\ $end
$var wire 1 6! \inst3|16~feeder_combout\ $end
$var wire 1 7! \inst3|16~q\ $end
$var wire 1 8! \inst3|16~clkctrl_outclk\ $end
$var wire 1 9! \inst4|2~combout\ $end
$var wire 1 :! \inst4|3~feeder_combout\ $end
$var wire 1 ;! \inst4|3~q\ $end
$var wire 1 <! \inst4|4~0_combout\ $end
$var wire 1 =! \inst4|4~q\ $end
$var wire 1 >! \inst4|6~combout\ $end
$var wire 1 ?! \inst4|5~q\ $end
$var wire 1 @! \inst4|5~clkctrl_outclk\ $end
$var wire 1 A! \inst4|13~combout\ $end
$var wire 1 B! \inst4|12~q\ $end
$var wire 1 C! \inst4|14~0_combout\ $end
$var wire 1 D! \inst4|14~q\ $end
$var wire 1 E! \inst4|19~combout\ $end
$var wire 1 F! \inst4|15~q\ $end
$var wire 1 G! \inst4|16~0_combout\ $end
$var wire 1 H! \inst4|16~feeder_combout\ $end
$var wire 1 I! \inst4|16~q\ $end
$var wire 1 J! \inst4|16~clkctrl_outclk\ $end
$var wire 1 K! \inst5|13~combout\ $end
$var wire 1 L! \inst5|12~q\ $end
$var wire 1 M! \inst5|14~0_combout\ $end
$var wire 1 N! \inst5|14~q\ $end
$var wire 1 O! \inst5|19~combout\ $end
$var wire 1 P! \inst5|15~q\ $end
$var wire 1 Q! \inst5|16~0_combout\ $end
$var wire 1 R! \inst5|16~feeder_combout\ $end
$var wire 1 S! \inst5|16~q\ $end
$var wire 1 T! \Half_Full~input_o\ $end
$var wire 1 U! \inst5|16~clkctrl_outclk\ $end
$var wire 1 V! \Enable~input_o\ $end
$var wire 1 W! \inst1|process_1~0_combout\ $end
$var wire 1 X! \Up_Down~input_o\ $end
$var wire 1 Y! \inst1|Selector3~0_combout\ $end
$var wire 1 Z! \inst1|Selector3~1_combout\ $end
$var wire 1 [! \Reset~input_o\ $end
$var wire 1 \! \inst1|fstate.Q4~q\ $end
$var wire 1 ]! \inst1|Selector2~2_combout\ $end
$var wire 1 ^! \inst1|Selector2~0_combout\ $end
$var wire 1 _! \inst1|Selector2~1_combout\ $end
$var wire 1 `! \inst1|Selector2~3_combout\ $end
$var wire 1 a! \inst1|fstate.Q3~q\ $end
$var wire 1 b! \inst1|Selector1~0_combout\ $end
$var wire 1 c! \inst1|Selector1~1_combout\ $end
$var wire 1 d! \inst1|fstate.Q2~q\ $end
$var wire 1 e! \inst1|Selector0~1_combout\ $end
$var wire 1 f! \inst1|Selector0~0_combout\ $end
$var wire 1 g! \inst1|Selector0~2_combout\ $end
$var wire 1 h! \inst1|fstate.Q1~q\ $end
$var wire 1 i! \inst1|Selector7~0_combout\ $end
$var wire 1 j! \inst1|Selector7~1_combout\ $end
$var wire 1 k! \inst1|fstate.Q8~q\ $end
$var wire 1 l! \inst1|Selector6~1_combout\ $end
$var wire 1 m! \inst1|Selector6~0_combout\ $end
$var wire 1 n! \inst1|Selector6~2_combout\ $end
$var wire 1 o! \inst1|fstate.Q7~q\ $end
$var wire 1 p! \inst1|Selector5~0_combout\ $end
$var wire 1 q! \inst1|Selector5~1_combout\ $end
$var wire 1 r! \inst1|fstate.Q6~q\ $end
$var wire 1 s! \inst1|Selector4~1_combout\ $end
$var wire 1 t! \inst1|Selector4~0_combout\ $end
$var wire 1 u! \inst1|Selector4~2_combout\ $end
$var wire 1 v! \inst1|fstate.Q5~q\ $end
$var wire 1 w! \inst1|Selector11~0_combout\ $end
$var wire 1 x! \inst1|Selector9~0_combout\ $end
$var wire 1 y! \inst1|Selector8~0_combout\ $end
$var wire 1 z! \inst1|Selector10~0_combout\ $end
$var wire 1 {! \ALT_INV_CLK_INPUT~inputclkctrl_outclk\ $end
$var wire 1 |! \inst3|ALT_INV_16~clkctrl_outclk\ $end
$var wire 1 }! \inst|ALT_INV_16~clkctrl_outclk\ $end
$var wire 1 ~! \inst4|ALT_INV_5~clkctrl_outclk\ $end
$var wire 1 !" \inst3|ALT_INV_5~clkctrl_outclk\ $end
$var wire 1 "" \inst4|ALT_INV_16~clkctrl_outclk\ $end
$var wire 1 #" \inst|ALT_INV_5~clkctrl_outclk\ $end
$upscope $end
$upscope $end
$enddefinitions $end
#0
$dumpvars
0!
1"
0#
0$
0%
1&
1'
0(
1)
0*
0+
1,
x-
1.
1/
10
11
12
13
04
05
06
17
18
09
0:
1;
0<
1=
0h
zi
zj
zk
0l
0m
1n
0o
1p
0q
0r
1s
1t
0u
0v
0w
0x
0y
0z
1{
0|
0}
0~
0!!
0"!
0#!
0$!
0%!
0&!
1'!
1(!
0)!
0*!
0+!
0,!
0-!
0.!
1/!
00!
01!
02!
03!
04!
05!
06!
07!
08!
19!
1:!
0;!
0<!
0=!
0>!
0?!
0@!
1A!
0B!
0C!
0D!
0E!
0F!
0G!
0H!
0I!
0J!
1K!
0L!
0M!
0N!
0O!
0P!
0Q!
0R!
0S!
0T!
0U!
1V!
0W!
0X!
0Y!
0Z!
1[!
0\!
0]!
1^!
0_!
0`!
0a!
0b!
0c!
0d!
0e!
0f!
1g!
0h!
0i!
0j!
0k!
0l!
1m!
1n!
0o!
0p!
0q!
0r!
0s!
0t!
0u!
0v!
0w!
1x!
0y!
1z!
1{!
1|!
1}!
1~!
1!"
1""
1#"
1d
1e
1f
0g
1H
1I
1J
0K
1\
1]
1^
0_
1P
1Q
1R
0S
1`
1a
1b
0c
1X
1Y
1Z
0[
1L
1M
1N
0O
1T
1U
1V
0W
0>
0?
0@
0A
0B
0C
0D
0E
0F
0G
$end
#1000
1$
15
1q
1g
1r
0{!
#2000
0$
05
0q
0g
0r
1{!
1u
0s
1v
0t
#3000
1$
15
1q
1g
1r
0{!
#4000
0$
05
0q
0g
0r
1{!
0u
1w
1s
1t
#5000
1$
15
1q
1g
1r
0{!
#6000
0$
05
0q
0g
0r
1{!
1u
0s
0v
1x
0t
#7000
1$
15
1q
1g
1r
0{!
#8000
0$
05
0q
0g
0r
1{!
0u
0w
1y
1K
0x
1z
0#"
#9000
1$
15
1q
1g
1r
0{!
#10000
0$
05
0q
0g
0r
1{!
0y
0K
1s
1t
0z
1#"
1|
0{
1}
#11000
1$
15
1q
1g
1r
0{!
#12000
0$
05
0q
0g
0r
1{!
1u
0s
1v
0t
#13000
1$
15
1q
1g
1r
0{!
#14000
0$
05
0q
0g
0r
1{!
0u
1w
1s
1t
#15000
1$
15
1q
1g
1r
0{!
#16000
0$
05
0q
0g
0r
1{!
1u
0s
0v
1x
0t
#17000
1$
15
1q
1g
1r
0{!
#18000
0$
05
0q
0g
0r
1{!
0u
0w
1y
1K
0x
1z
0#"
#19000
1$
15
1q
1g
1r
0{!
#20000
0$
05
0q
0g
0r
1{!
0y
0K
1s
1t
0z
1#"
0|
1~
1{
#21000
1$
15
1q
1g
1r
0{!
#22000
0$
05
0q
0g
0r
1{!
1u
0s
1v
0t
#23000
1$
15
1q
1g
1r
0{!
#24000
0$
05
0q
0g
0r
1{!
0u
1w
1s
1t
#25000
1$
15
1q
1g
1r
0{!
#26000
0$
05
0q
0g
0r
1{!
1u
0s
0v
1x
0t
#27000
1$
15
1q
1g
1r
0{!
#28000
0$
05
0q
0g
0r
1{!
0u
0w
1y
1K
0x
1z
0#"
#29000
1$
15
1q
1g
1r
0{!
#30000
0$
05
0q
0g
0r
1{!
0y
0K
1s
1t
0z
1#"
1|
0{
0}
1!!
#31000
1$
15
1q
1g
1r
0{!
#32000
0$
05
0q
0g
0r
1{!
1u
0s
1v
0t
#33000
1$
15
1q
1g
1r
0{!
#34000
0$
05
0q
0g
0r
1{!
0u
1w
1s
1t
#35000
1$
15
1q
1g
1r
0{!
#36000
0$
05
0q
0g
0r
1{!
1u
0s
0v
1x
0t
#37000
1$
15
1q
1g
1r
0{!
#38000
0$
05
0q
0g
0r
1{!
0u
0w
1y
1K
0x
1z
0#"
#39000
1$
15
1q
1g
1r
0{!
#40000
0$
05
0q
0g
0r
1{!
0y
0K
1s
1t
0z
1#"
0|
0~
1"!
1#!
0!!
1$!
#41000
1$
15
1q
1g
1r
0{!
#42000
0$
05
0q
0g
0r
1{!
1u
0s
1v
0t
#43000
1$
15
1q
1g
1r
0{!
#44000
0$
05
0q
0g
0r
1{!
0u
1w
1s
1t
#45000
1$
15
1q
1g
1r
0{!
#46000
0$
05
0q
0g
0r
1{!
1u
0s
0v
1x
0t
#47000
1$
15
1q
1g
1r
0{!
#48000
0$
05
0q
0g
0r
1{!
0u
0w
1y
1K
0x
1z
0#"
#49000
1$
15
1q
1g
1r
0{!
#50000
0$
05
0q
0g
0r
1{!
0y
0K
1s
1t
0z
1#"
0"!
1%!
1_
1{
1&!
0}!
#51000
1$
15
1q
1g
1r
0{!
#52000
0$
05
0q
0g
0r
1{!
1u
0s
1v
0t
#53000
1$
15
1q
1g
1r
0{!
#54000
0$
05
0q
0g
0r
1{!
0u
1w
1s
1t
#55000
1$
15
1q
1g
1r
0{!
#56000
0$
05
0q
0g
0r
1{!
1u
0s
0v
1x
0t
#57000
1$
15
1q
1g
1r
0{!
#58000
0$
05
0q
0g
0r
1{!
0u
0w
1y
1K
0x
1z
0#"
#59000
1$
15
1q
1g
1r
0{!
#60000
0$
05
0q
0g
0r
1{!
0y
0K
1s
1t
0z
1#"
1|
0{
1}
#61000
1$
15
1q
1g
1r
0{!
#62000
0$
05
0q
0g
0r
1{!
1u
0s
1v
0t
#63000
1$
15
1q
1g
1r
0{!
#64000
0$
05
0q
0g
0r
1{!
0u
1w
1s
1t
#65000
1$
15
1q
1g
1r
0{!
#66000
0$
05
0q
0g
0r
1{!
1u
0s
0v
1x
0t
#67000
1$
15
1q
1g
1r
0{!
#68000
0$
05
0q
0g
0r
1{!
0u
0w
1y
1K
0x
1z
0#"
#69000
1$
15
1q
1g
1r
0{!
#70000
0$
05
0q
0g
0r
1{!
0y
0K
1s
1t
0z
1#"
0|
1~
1{
#71000
1$
15
1q
1g
1r
0{!
#72000
0$
05
0q
0g
0r
1{!
1u
0s
1v
0t
#73000
1$
15
1q
1g
1r
0{!
#74000
0$
05
0q
0g
0r
1{!
0u
1w
1s
1t
#75000
1$
15
1q
1g
1r
0{!
#76000
0$
05
0q
0g
0r
1{!
1u
0s
0v
1x
0t
#77000
1$
15
1q
1g
1r
0{!
#78000
0$
05
0q
0g
0r
1{!
0u
0w
1y
1K
0x
1z
0#"
#79000
1$
15
1q
1g
1r
0{!
#80000
0$
05
0q
0g
0r
1{!
0y
0K
1s
1t
0z
1#"
1|
0{
0}
1!!
#81000
1$
15
1q
1g
1r
0{!
#82000
0$
05
0q
0g
0r
1{!
1u
0s
1v
0t
#83000
1$
15
1q
1g
1r
0{!
#84000
0$
05
0q
0g
0r
1{!
0u
1w
1s
1t
#85000
1$
15
1q
1g
1r
0{!
#86000
0$
05
0q
0g
0r
1{!
1u
0s
0v
1x
0t
#87000
1$
15
1q
1g
1r
0{!
#88000
0$
05
0q
0g
0r
1{!
0u
0w
1y
1K
0x
1z
0#"
#89000
1$
15
1q
1g
1r
0{!
#90000
0$
05
0q
0g
0r
1{!
0y
0K
1s
1t
0z
1#"
0|
0~
1"!
0#!
0!!
0$!
#91000
1$
15
1q
1g
1r
0{!
#92000
0$
05
0q
0g
0r
1{!
1u
0s
1v
0t
#93000
1$
15
1q
1g
1r
0{!
#94000
0$
05
0q
0g
0r
1{!
0u
1w
1s
1t
#95000
1$
15
1q
1g
1r
0{!
#96000
0$
05
0q
0g
0r
1{!
1u
0s
0v
1x
0t
#97000
1$
15
1q
1g
1r
0{!
#98000
0$
05
0q
0g
0r
1{!
0u
0w
1y
1K
0x
1z
0#"
#99000
1$
15
1q
1g
1r
0{!
#100000
0$
05
0q
0g
0r
1{!
0y
0K
1s
1t
0z
1#"
0"!
0%!
0_
1{
0&!
1}!
1)!
0'!
1*!
0(!
#101000
1$
15
1q
1g
1r
0{!
#102000
0$
05
0q
0g
0r
1{!
1u
0s
1v
0t
#103000
1$
15
1q
1g
1r
0{!
#104000
0$
05
0q
0g
0r
1{!
0u
1w
1s
1t
#105000
1$
15
1q
1g
1r
0{!
#106000
0$
05
0q
0g
0r
1{!
1u
0s
0v
1x
0t
#107000
1$
15
1q
1g
1r
0{!
#108000
0$
05
0q
0g
0r
1{!
0u
0w
1y
1K
0x
1z
0#"
#109000
1$
15
1q
1g
1r
0{!
#110000
0$
05
0q
0g
0r
1{!
0y
0K
1s
1t
0z
1#"
1|
0{
1}
#111000
1$
15
1q
1g
1r
0{!
#112000
0$
05
0q
0g
0r
1{!
1u
0s
1v
0t
#113000
1$
15
1q
1g
1r
0{!
#114000
0$
05
0q
0g
0r
1{!
0u
1w
1s
1t
#115000
1$
15
1q
1g
1r
0{!
#116000
0$
05
0q
0g
0r
1{!
1u
0s
0v
1x
0t
#117000
1$
15
1q
1g
1r
0{!
#118000
0$
05
0q
0g
0r
1{!
0u
0w
1y
1K
0x
1z
0#"
#119000
1$
15
1q
1g
1r
0{!
#120000
0$
05
0q
0g
0r
1{!
0y
0K
1s
1t
0z
1#"
0|
1~
1{
#121000
1$
15
1q
1g
1r
0{!
#122000
0$
05
0q
0g
0r
1{!
1u
0s
1v
0t
#123000
1$
15
1q
1g
1r
0{!
#124000
0$
05
0q
0g
0r
1{!
0u
1w
1s
1t
#125000
1$
15
1q
1g
1r
0{!
#126000
0$
05
0q
0g
0r
1{!
1u
0s
0v
1x
0t
#127000
1$
15
1q
1g
1r
0{!
#128000
0$
05
0q
0g
0r
1{!
0u
0w
1y
1K
0x
1z
0#"
#129000
1$
15
1q
1g
1r
0{!
#130000
0$
05
0q
0g
0r
1{!
0y
0K
1s
1t
0z
1#"
1|
0{
0}
1!!
#131000
1$
15
1q
1g
1r
0{!
#132000
0$
05
0q
0g
0r
1{!
1u
0s
1v
0t
#133000
1$
15
1q
1g
1r
0{!
#134000
0$
05
0q
0g
0r
1{!
0u
1w
1s
1t
#135000
1$
15
1q
1g
1r
0{!
#136000
0$
05
0q
0g
0r
1{!
1u
0s
0v
1x
0t
#137000
1$
15
1q
1g
1r
0{!
#138000
0$
05
0q
0g
0r
1{!
0u
0w
1y
1K
0x
1z
0#"
#139000
1$
15
1q
1g
1r
0{!
#140000
0$
05
0q
0g
0r
1{!
0y
0K
1s
1t
0z
1#"
0|
0~
1"!
1#!
0!!
1$!
#141000
1$
15
1q
1g
1r
0{!
#142000
0$
05
0q
0g
0r
1{!
1u
0s
1v
0t
#143000
1$
15
1q
1g
1r
0{!
#144000
0$
05
0q
0g
0r
1{!
0u
1w
1s
1t
#145000
1$
15
1q
1g
1r
0{!
#146000
0$
05
0q
0g
0r
1{!
1u
0s
0v
1x
0t
#147000
1$
15
1q
1g
1r
0{!
#148000
0$
05
0q
0g
0r
1{!
0u
0w
1y
1K
0x
1z
0#"
#149000
1$
15
1q
1g
1r
0{!
#150000
0$
05
0q
0g
0r
1{!
0y
0K
1s
1t
0z
1#"
0"!
1%!
1_
1{
1&!
0}!
#151000
1$
15
1q
1g
1r
0{!
#152000
0$
05
0q
0g
0r
1{!
1u
0s
1v
0t
#153000
1$
15
1q
1g
1r
0{!
#154000
0$
05
0q
0g
0r
1{!
0u
1w
1s
1t
#155000
1$
15
1q
1g
1r
0{!
#156000
0$
05
0q
0g
0r
1{!
1u
0s
0v
1x
0t
#157000
1$
15
1q
1g
1r
0{!
#158000
0$
05
0q
0g
0r
1{!
0u
0w
1y
1K
0x
1z
0#"
#159000
1$
15
1q
1g
1r
0{!
#160000
0$
05
0q
0g
0r
1{!
0y
0K
1s
1t
0z
1#"
1|
0{
1}
#161000
1$
15
1q
1g
1r
0{!
#162000
0$
05
0q
0g
0r
1{!
1u
0s
1v
0t
#163000
1$
15
1q
1g
1r
0{!
#164000
0$
05
0q
0g
0r
1{!
0u
1w
1s
1t
#165000
1$
15
1q
1g
1r
0{!
#166000
0$
05
0q
0g
0r
1{!
1u
0s
0v
1x
0t
#167000
1$
15
1q
1g
1r
0{!
#168000
0$
05
0q
0g
0r
1{!
0u
0w
1y
1K
0x
1z
0#"
#169000
1$
15
1q
1g
1r
0{!
#170000
0$
05
0q
0g
0r
1{!
0y
0K
1s
1t
0z
1#"
0|
1~
1{
#171000
1$
15
1q
1g
1r
0{!
#172000
0$
05
0q
0g
0r
1{!
1u
0s
1v
0t
#173000
1$
15
1q
1g
1r
0{!
#174000
0$
05
0q
0g
0r
1{!
0u
1w
1s
1t
#175000
1$
15
1q
1g
1r
0{!
#176000
0$
05
0q
0g
0r
1{!
1u
0s
0v
1x
0t
#177000
1$
15
1q
1g
1r
0{!
#178000
0$
05
0q
0g
0r
1{!
0u
0w
1y
1K
0x
1z
0#"
#179000
1$
15
1q
1g
1r
0{!
#180000
0$
05
0q
0g
0r
1{!
0y
0K
1s
1t
0z
1#"
1|
0{
0}
1!!
#181000
1$
15
1q
1g
1r
0{!
#182000
0$
05
0q
0g
0r
1{!
1u
0s
1v
0t
#183000
1$
15
1q
1g
1r
0{!
#184000
0$
05
0q
0g
0r
1{!
0u
1w
1s
1t
#185000
1$
15
1q
1g
1r
0{!
#186000
0$
05
0q
0g
0r
1{!
1u
0s
0v
1x
0t
#187000
1$
15
1q
1g
1r
0{!
#188000
0$
05
0q
0g
0r
1{!
0u
0w
1y
1K
0x
1z
0#"
#189000
1$
15
1q
1g
1r
0{!
#190000
0$
05
0q
0g
0r
1{!
0y
0K
1s
1t
0z
1#"
0|
0~
1"!
0#!
0!!
0$!
#191000
1$
15
1q
1g
1r
0{!
#192000
0$
05
0q
0g
0r
1{!
1u
0s
1v
0t
#193000
1$
15
1q
1g
1r
0{!
#194000
0$
05
0q
0g
0r
1{!
0u
1w
1s
1t
#195000
1$
15
1q
1g
1r
0{!
#196000
0$
05
0q
0g
0r
1{!
1u
0s
0v
1x
0t
#197000
1$
15
1q
1g
1r
0{!
#198000
0$
05
0q
0g
0r
1{!
0u
0w
1y
1K
0x
1z
0#"
#199000
1$
15
1q
1g
1r
0{!
#200000
0$
05
0q
0g
0r
1{!
0y
0K
1s
1t
0z
1#"
0"!
0%!
0_
1{
0&!
1}!
0)!
1+!
1'!
1(!
#201000
1$
15
1q
1g
1r
0{!
#202000
0$
05
0q
0g
0r
1{!
1u
0s
1v
0t
#203000
1$
15
1q
1g
1r
0{!
#204000
0$
05
0q
0g
0r
1{!
0u
1w
1s
1t
#205000
1$
15
1q
1g
1r
0{!
#206000
0$
05
0q
0g
0r
1{!
1u
0s
0v
1x
0t
#207000
1$
15
1q
1g
1r
0{!
#208000
0$
05
0q
0g
0r
1{!
0u
0w
1y
1K
0x
1z
0#"
#209000
1$
15
1q
1g
1r
0{!
#210000
0$
05
0q
0g
0r
1{!
0y
0K
1s
1t
0z
1#"
1|
0{
1}
#211000
1$
15
1q
1g
1r
0{!
#212000
0$
05
0q
0g
0r
1{!
1u
0s
1v
0t
#213000
1$
15
1q
1g
1r
0{!
#214000
0$
05
0q
0g
0r
1{!
0u
1w
1s
1t
#215000
1$
15
1q
1g
1r
0{!
#216000
0$
05
0q
0g
0r
1{!
1u
0s
0v
1x
0t
#217000
1$
15
1q
1g
1r
0{!
#218000
0$
05
0q
0g
0r
1{!
0u
0w
1y
1K
0x
1z
0#"
#219000
1$
15
1q
1g
1r
0{!
#220000
0$
05
0q
0g
0r
1{!
0y
0K
1s
1t
0z
1#"
0|
1~
1{
#221000
1$
15
1q
1g
1r
0{!
#222000
0$
05
0q
0g
0r
1{!
1u
0s
1v
0t
#223000
1$
15
1q
1g
1r
0{!
#224000
0$
05
0q
0g
0r
1{!
0u
1w
1s
1t
#225000
1$
15
1q
1g
1r
0{!
#226000
0$
05
0q
0g
0r
1{!
1u
0s
0v
1x
0t
#227000
1$
15
1q
1g
1r
0{!
#228000
0$
05
0q
0g
0r
1{!
0u
0w
1y
1K
0x
1z
0#"
#229000
1$
15
1q
1g
1r
0{!
#230000
0$
05
0q
0g
0r
1{!
0y
0K
1s
1t
0z
1#"
1|
0{
0}
1!!
#231000
1$
15
1q
1g
1r
0{!
#232000
0$
05
0q
0g
0r
1{!
1u
0s
1v
0t
#233000
1$
15
1q
1g
1r
0{!
#234000
0$
05
0q
0g
0r
1{!
0u
1w
1s
1t
#235000
1$
15
1q
1g
1r
0{!
#236000
0$
05
0q
0g
0r
1{!
1u
0s
0v
1x
0t
#237000
1$
15
1q
1g
1r
0{!
#238000
0$
05
0q
0g
0r
1{!
0u
0w
1y
1K
0x
1z
0#"
#239000
1$
15
1q
1g
1r
0{!
#240000
0$
05
0q
0g
0r
1{!
0y
0K
1s
1t
0z
1#"
0|
0~
1"!
1#!
0!!
1$!
#241000
1$
15
1q
1g
1r
0{!
#242000
0$
05
0q
0g
0r
1{!
1u
0s
1v
0t
#243000
1$
15
1q
1g
1r
0{!
#244000
0$
05
0q
0g
0r
1{!
0u
1w
1s
1t
#245000
1$
15
1q
1g
1r
0{!
#246000
0$
05
0q
0g
0r
1{!
1u
0s
0v
1x
0t
#247000
1$
15
1q
1g
1r
0{!
#248000
0$
05
0q
0g
0r
1{!
0u
0w
1y
1K
0x
1z
0#"
#249000
1$
15
1q
1g
1r
0{!
#250000
0$
05
0q
0g
0r
1{!
0y
0K
1s
1t
0z
1#"
0"!
1%!
1_
1{
1&!
0}!
#251000
1$
15
1q
1g
1r
0{!
#252000
0$
05
0q
0g
0r
1{!
1u
0s
1v
0t
#253000
1$
15
1q
1g
1r
0{!
#254000
0$
05
0q
0g
0r
1{!
0u
1w
1s
1t
#255000
1$
15
1q
1g
1r
0{!
#256000
0$
05
0q
0g
0r
1{!
1u
0s
0v
1x
0t
#257000
1$
15
1q
1g
1r
0{!
#258000
0$
05
0q
0g
0r
1{!
0u
0w
1y
1K
0x
1z
0#"
#259000
1$
15
1q
1g
1r
0{!
#260000
0$
05
0q
0g
0r
1{!
0y
0K
1s
1t
0z
1#"
1|
0{
1}
#261000
1$
15
1q
1g
1r
0{!
#262000
0$
05
0q
0g
0r
1{!
1u
0s
1v
0t
#263000
1$
15
1q
1g
1r
0{!
#264000
0$
05
0q
0g
0r
1{!
0u
1w
1s
1t
#265000
1$
15
1q
1g
1r
0{!
#266000
0$
05
0q
0g
0r
1{!
1u
0s
0v
1x
0t
#267000
1$
15
1q
1g
1r
0{!
#268000
0$
05
0q
0g
0r
1{!
0u
0w
1y
1K
0x
1z
0#"
#269000
1$
15
1q
1g
1r
0{!
#270000
0$
05
0q
0g
0r
1{!
0y
0K
1s
1t
0z
1#"
0|
1~
1{
#271000
1$
15
1q
1g
1r
0{!
#272000
0$
05
0q
0g
0r
1{!
1u
0s
1v
0t
#273000
1$
15
1q
1g
1r
0{!
#274000
0$
05
0q
0g
0r
1{!
0u
1w
1s
1t
#275000
1$
15
1q
1g
1r
0{!
#276000
0$
05
0q
0g
0r
1{!
1u
0s
0v
1x
0t
#277000
1$
15
1q
1g
1r
0{!
#278000
0$
05
0q
0g
0r
1{!
0u
0w
1y
1K
0x
1z
0#"
#279000
1$
15
1q
1g
1r
0{!
#280000
0$
05
0q
0g
0r
1{!
0y
0K
1s
1t
0z
1#"
1|
0{
0}
1!!
#281000
1$
15
1q
1g
1r
0{!
#282000
0$
05
0q
0g
0r
1{!
1u
0s
1v
0t
