Practica_2/simulation/qsim/Practica_2.msim.vcd
$comment
	File created using the following command:
		vcd file Practica_2.msim.vcd -direction
$end
$date
	Mon Mar 08 13:15:14 2021
$end
$version
	ModelSim Version 10.5b
$end
$timescale
	1ps
$end

$scope module practica_2_vhd_vec_tst $end
$var wire 1 ! CLK $end
$var wire 1 " cout $end
$var wire 1 # DATAIN [7] $end
$var wire 1 $ DATAIN [6] $end
$var wire 1 % DATAIN [5] $end
$var wire 1 & DATAIN [4] $end
$var wire 1 ' DATAIN [3] $end
$var wire 1 ( DATAIN [2] $end
$var wire 1 ) DATAIN [1] $end
$var wire 1 * DATAIN [0] $end
$var wire 1 + LED_OUT $end
$var wire 1 , PWM_OUT $end

$scope module i1 $end
$var wire 1 - gnd $end
$var wire 1 . vcc $end
$var wire 1 / unknown $end
$var wire 1 0 devoe $end
$var wire 1 1 devclrn $end
$var wire 1 2 devpor $end
$var wire 1 3 ww_devoe $end
$var wire 1 4 ww_devclrn $end
$var wire 1 5 ww_devpor $end
$var wire 1 6 ww_cout $end
$var wire 1 7 ww_CLK $end
$var wire 1 8 ww_PWM_OUT $end
$var wire 1 9 ww_DATAIN [7] $end
$var wire 1 : ww_DATAIN [6] $end
$var wire 1 ; ww_DATAIN [5] $end
$var wire 1 < ww_DATAIN [4] $end
$var wire 1 = ww_DATAIN [3] $end
$var wire 1 > ww_DATAIN [2] $end
$var wire 1 ? ww_DATAIN [1] $end
$var wire 1 @ ww_DATAIN [0] $end
$var wire 1 A ww_LED_OUT $end
$var wire 1 B \~QUARTUS_CREATED_ADC1~_CHSEL_bus\ [4] $end
$var wire 1 C \~QUARTUS_CREATED_ADC1~_CHSEL_bus\ [3] $end
$var wire 1 D \~QUARTUS_CREATED_ADC1~_CHSEL_bus\ [2] $end
$var wire 1 E \~QUARTUS_CREATED_ADC1~_CHSEL_bus\ [1] $end
$var wire 1 F \~QUARTUS_CREATED_ADC1~_CHSEL_bus\ [0] $end
$var wire 1 G \~QUARTUS_CREATED_ADC2~_CHSEL_bus\ [4] $end
$var wire 1 H \~QUARTUS_CREATED_ADC2~_CHSEL_bus\ [3] $end
$var wire 1 I \~QUARTUS_CREATED_ADC2~_CHSEL_bus\ [2] $end
$var wire 1 J \~QUARTUS_CREATED_ADC2~_CHSEL_bus\ [1] $end
$var wire 1 K \~QUARTUS_CREATED_ADC2~_CHSEL_bus\ [0] $end
$var wire 1 L \inst2|auto_generated|op_1~16clkctrl_INCLK_bus\ [3] $end
$var wire 1 M \inst2|auto_generated|op_1~16clkctrl_INCLK_bus\ [2] $end
$var wire 1 N \inst2|auto_generated|op_1~16clkctrl_INCLK_bus\ [1] $end
$var wire 1 O \inst2|auto_generated|op_1~16clkctrl_INCLK_bus\ [0] $end
$var wire 1 P \CLK~inputclkctrl_INCLK_bus\ [3] $end
$var wire 1 Q \CLK~inputclkctrl_INCLK_bus\ [2] $end
$var wire 1 R \CLK~inputclkctrl_INCLK_bus\ [1] $end
$var wire 1 S \CLK~inputclkctrl_INCLK_bus\ [0] $end
$var wire 1 T \~QUARTUS_CREATED_UNVM~~busy\ $end
$var wire 1 U \~QUARTUS_CREATED_ADC1~~eoc\ $end
$var wire 1 V \~QUARTUS_CREATED_ADC2~~eoc\ $end
$var wire 1 W \cout~output_o\ $end
$var wire 1 X \PWM_OUT~output_o\ $end
$var wire 1 Y \LED_OUT~output_o\ $end
$var wire 1 Z \CLK~input_o\ $end
$var wire 1 [ \CLK~inputclkctrl_outclk\ $end
$var wire 1 \ \inst3|auto_generated|counter_comb_bita0~combout\ $end
$var wire 1 ] \~GND~combout\ $end
$var wire 1 ^ \inst3|auto_generated|counter_comb_bita0~COUT\ $end
$var wire 1 _ \inst3|auto_generated|counter_comb_bita1~combout\ $end
$var wire 1 ` \inst3|auto_generated|counter_comb_bita1~COUT\ $end
$var wire 1 a \inst3|auto_generated|counter_comb_bita2~combout\ $end
$var wire 1 b \inst3|auto_generated|counter_comb_bita2~COUT\ $end
$var wire 1 c \inst3|auto_generated|counter_comb_bita3~combout\ $end
$var wire 1 d \inst3|auto_generated|counter_comb_bita3~COUT\ $end
$var wire 1 e \inst3|auto_generated|counter_comb_bita4~combout\ $end
$var wire 1 f \inst3|auto_generated|counter_comb_bita4~COUT\ $end
$var wire 1 g \inst3|auto_generated|counter_comb_bita5~combout\ $end
$var wire 1 h \inst3|auto_generated|counter_comb_bita5~COUT\ $end
$var wire 1 i \inst3|auto_generated|counter_comb_bita6~combout\ $end
$var wire 1 j \inst3|auto_generated|counter_comb_bita6~COUT\ $end
$var wire 1 k \inst3|auto_generated|counter_comb_bita7~combout\ $end
$var wire 1 l \inst3|auto_generated|counter_comb_bita7~COUT\ $end
$var wire 1 m \inst3|auto_generated|counter_comb_bita7~0_combout\ $end
$var wire 1 n \DATAIN[7]~input_o\ $end
$var wire 1 o \inst1|dffs[7]~feeder_combout\ $end
$var wire 1 p \DATAIN[6]~input_o\ $end
$var wire 1 q \inst1|dffs[6]~feeder_combout\ $end
$var wire 1 r \DATAIN[5]~input_o\ $end
$var wire 1 s \inst1|dffs[5]~feeder_combout\ $end
$var wire 1 t \DATAIN[4]~input_o\ $end
$var wire 1 u \inst1|dffs[4]~feeder_combout\ $end
$var wire 1 v \DATAIN[3]~input_o\ $end
$var wire 1 w \inst1|dffs[3]~feeder_combout\ $end
$var wire 1 x \DATAIN[2]~input_o\ $end
$var wire 1 y \inst1|dffs[2]~feeder_combout\ $end
$var wire 1 z \DATAIN[1]~input_o\ $end
$var wire 1 { \inst1|dffs[1]~feeder_combout\ $end
$var wire 1 | \DATAIN[0]~input_o\ $end
$var wire 1 } \inst1|dffs[0]~feeder_combout\ $end
$var wire 1 ~ \inst2|auto_generated|op_1~1_cout\ $end
$var wire 1 !! \inst2|auto_generated|op_1~3_cout\ $end
$var wire 1 "! \inst2|auto_generated|op_1~5_cout\ $end
$var wire 1 #! \inst2|auto_generated|op_1~7_cout\ $end
$var wire 1 $! \inst2|auto_generated|op_1~9_cout\ $end
$var wire 1 %! \inst2|auto_generated|op_1~11_cout\ $end
$var wire 1 &! \inst2|auto_generated|op_1~13_cout\ $end
$var wire 1 '! \inst2|auto_generated|op_1~15_cout\ $end
$var wire 1 (! \inst2|auto_generated|op_1~16_combout\ $end
$var wire 1 )! \inst2|auto_generated|op_1~16clkctrl_outclk\ $end
$var wire 1 *! \inst3|auto_generated|counter_reg_bit\ [7] $end
$var wire 1 +! \inst3|auto_generated|counter_reg_bit\ [6] $end
$var wire 1 ,! \inst3|auto_generated|counter_reg_bit\ [5] $end
$var wire 1 -! \inst3|auto_generated|counter_reg_bit\ [4] $end
$var wire 1 .! \inst3|auto_generated|counter_reg_bit\ [3] $end
$var wire 1 /! \inst3|auto_generated|counter_reg_bit\ [2] $end
$var wire 1 0! \inst3|auto_generated|counter_reg_bit\ [1] $end
$var wire 1 1! \inst3|auto_generated|counter_reg_bit\ [0] $end
$var wire 1 2! \inst1|dffs\ [7] $end
$var wire 1 3! \inst1|dffs\ [6] $end
$var wire 1 4! \inst1|dffs\ [5] $end
$var wire 1 5! \inst1|dffs\ [4] $end
$var wire 1 6! \inst1|dffs\ [3] $end
$var wire 1 7! \inst1|dffs\ [2] $end
$var wire 1 8! \inst1|dffs\ [1] $end
$var wire 1 9! \inst1|dffs\ [0] $end
$upscope $end
$upscope $end
$enddefinitions $end
#0
$dumpvars
0!
0"
0+
0,
0-
1.
x/
10
11
12
13
14
15
06
07
08
0A
zT
zU
zV
0W
0X
0Y
0Z
0[
1\
0]
0^
0_
1`
0a
0b
0c
1d
0e
0f
0g
1h
0i
0j
0k
1l
0m
0n
0o
1p
1q
1r
1s
1t
1u
1v
1w
1x
1y
1z
1{
1|
1}
0~
1!!
0"!
1#!
0$!
1%!
0&!
1'!
0(!
0)!
0#
1$
1%
1&
1'
1(
1)
1*
09
1:
1;
1<
1=
1>
1?
1@
0*!
0+!
0,!
0-!
0.!
0/!
00!
01!
02!
03!
04!
05!
06!
07!
08!
09!
1P
1Q
1R
0S
1L
1M
1N
0O
0B
0C
0D
0E
0F
0G
0H
0I
0J
0K
$end
#5000
1!
17
1Z
1S
1[
11!
0\
1^
1_
#10000
0!
07
0Z
0S
0[
#15000
1!
17
1Z
1S
1[
01!
10!
0_
0`
1\
0^
1_
1`
1a
0a
#20000
0!
07
0Z
0S
0[
#25000
1!
17
1Z
1S
1[
11!
0\
1^
0_
0`
1a
#30000
0!
07
0Z
0S
0[
#35000
1!
17
1Z
1S
1[
01!
00!
1/!
0a
1b
1_
1`
1\
0^
0_
1a
0b
1c
0c
#40000
0!
07
0Z
0S
0[
#45000
1!
17
1Z
1S
1[
11!
0\
1^
1_
#50000
0!
07
0Z
0S
0[
#55000
1!
17
1Z
1S
1[
01!
10!
0_
0`
1\
0^
1_
1`
0a
1b
1c
1a
0b
0c
#60000
0!
07
0Z
0S
0[
#65000
1!
17
1Z
1S
1[
11!
0\
1^
0_
0`
0a
1b
1c
#70000
0!
07
0Z
0S
0[
#75000
1!
17
1Z
1S
1[
01!
00!
0/!
1.!
0c
0d
1a
0b
1_
1`
1\
0^
0_
0a
1c
1d
1e
0e
#80000
0!
07
0Z
0S
0[
#85000
1!
17
1Z
1S
1[
11!
0\
1^
1_
#90000
0!
07
0Z
0S
0[
#95000
1!
17
1Z
1S
1[
01!
10!
0_
0`
1\
0^
1_
1`
1a
0a
#100000
0!
07
0Z
0S
0[
#105000
1!
17
1Z
1S
1[
11!
0\
1^
0_
0`
1a
#110000
0!
07
0Z
0S
0[
#115000
1!
17
1Z
1S
1[
01!
00!
1/!
0a
1b
1_
1`
1\
0^
0_
1a
0b
0c
0d
1e
1c
1d
0e
#120000
0!
07
0Z
0S
0[
#125000
1!
17
1Z
1S
1[
11!
0\
1^
1_
#130000
0!
07
0Z
0S
0[
#135000
1!
17
1Z
1S
1[
01!
10!
0_
0`
1\
0^
1_
1`
0a
1b
0c
0d
1a
0b
1c
1d
1e
0e
#140000
0!
07
0Z
0S
0[
#145000
1!
17
1Z
1S
1[
11!
0\
1^
0_
0`
0a
1b
0c
0d
1e
#150000
0!
07
0Z
0S
0[
#155000
1!
17
1Z
1S
1[
01!
00!
0/!
0.!
1-!
0e
1f
1c
1d
1a
0b
1_
1`
1\
0^
0_
0a
0c
1e
0f
1g
0g
#160000
0!
07
0Z
0S
0[
#165000
1!
17
1Z
1S
1[
11!
0\
1^
1_
#170000
0!
07
0Z
0S
0[
#175000
1!
17
1Z
1S
1[
01!
10!
0_
0`
1\
0^
1_
1`
1a
0a
#180000
0!
07
0Z
0S
0[
#185000
1!
17
1Z
1S
1[
11!
0\
1^
0_
0`
1a
#190000
0!
07
0Z
0S
0[
#195000
1!
17
1Z
1S
1[
01!
00!
1/!
0a
1b
1_
1`
1\
0^
0_
1a
0b
1c
0c
#200000
0!
07
0Z
0S
0[
#205000
1!
17
1Z
1S
1[
11!
0\
1^
1_
#210000
0!
07
0Z
0S
0[
#215000
1!
17
1Z
1S
1[
01!
10!
0_
0`
1\
0^
1_
1`
0a
1b
1c
1a
0b
0c
#220000
0!
07
0Z
0S
0[
#225000
1!
17
1Z
1S
1[
11!
0\
1^
0_
0`
0a
1b
1c
#230000
0!
07
0Z
0S
0[
#235000
1!
17
1Z
1S
1[
01!
00!
0/!
1.!
0c
0d
1a
0b
1_
1`
1\
0^
0_
0a
1c
1d
0e
1f
1g
1e
0f
0g
#240000
0!
07
0Z
0S
0[
#245000
1!
17
1Z
1S
1[
11!
0\
1^
1_
#250000
0!
07
0Z
0S
0[
#255000
1!
17
1Z
1S
1[
01!
10!
0_
0`
1\
0^
1_
1`
1a
0a
#260000
0!
07
0Z
0S
0[
#265000
1!
17
1Z
1S
1[
11!
0\
1^
0_
0`
1a
#270000
0!
07
0Z
0S
0[
#275000
1!
17
1Z
1S
1[
01!
00!
1/!
0a
1b
1_
1`
1\
0^
0_
1a
0b
0c
0d
0e
1f
1c
1d
1e
0f
1g
0g
#280000
0!
07
0Z
0S
0[
#285000
1!
17
1Z
1S
1[
11!
0\
1^
1_
#290000
0!
07
0Z
0S
0[
#295000
1!
17
1Z
1S
1[
01!
10!
0_
0`
1\
0^
1_
1`
0a
1b
0c
0d
1a
0b
1c
1d
0e
1f
1g
1e
0f
0g
#300000
0!
07
0Z
0S
0[
#305000
1!
17
1Z
1S
1[
11!
0\
1^
0_
0`
0a
1b
0c
0d
0e
1f
1g
#310000
0!
07
0Z
0S
0[
#315000
1!
17
1Z
1S
1[
01!
00!
0/!
0.!
0-!
1,!
0g
0h
1e
0f
1c
1d
1a
0b
1_
1`
1\
0^
0_
0a
0c
0e
1g
1h
1i
0i
#320000
0!
07
0Z
0S
0[
#325000
1!
17
1Z
1S
1[
11!
0\
1^
1_
#330000
0!
07
0Z
0S
0[
#335000
1!
17
1Z
1S
1[
01!
10!
0_
0`
1\
0^
1_
1`
1a
0a
#340000
0!
07
0Z
0S
0[
#345000
1!
17
1Z
1S
1[
11!
0\
1^
0_
0`
1a
#350000
0!
07
0Z
0S
0[
#355000
1!
17
1Z
1S
1[
01!
00!
1/!
0a
1b
1_
1`
1\
0^
0_
1a
0b
1c
0c
#360000
0!
07
0Z
0S
0[
#365000
1!
17
1Z
1S
1[
11!
0\
1^
1_
#370000
0!
07
0Z
0S
0[
#375000
1!
17
1Z
1S
1[
01!
10!
0_
0`
1\
0^
1_
1`
0a
1b
1c
1a
0b
0c
#380000
0!
07
0Z
0S
0[
#385000
1!
17
1Z
1S
1[
11!
0\
1^
0_
0`
0a
1b
1c
#390000
0!
07
0Z
0S
0[
#395000
1!
17
1Z
1S
1[
01!
00!
0/!
1.!
0c
0d
1a
0b
1_
1`
1\
0^
0_
0a
1c
1d
1e
0e
#400000
0!
07
0Z
0S
0[
#405000
1!
17
1Z
1S
1[
11!
0\
1^
1_
#410000
0!
07
0Z
0S
0[
#415000
1!
17
1Z
1S
1[
01!
10!
0_
0`
1\
0^
1_
1`
1a
0a
#420000
0!
07
0Z
0S
0[
#425000
1!
17
1Z
1S
1[
11!
0\
1^
0_
0`
1a
#430000
0!
07
0Z
0S
0[
#435000
1!
17
1Z
1S
1[
01!
00!
1/!
0a
1b
1_
1`
1\
0^
0_
1a
0b
0c
0d
1e
1c
1d
0e
#440000
0!
07
0Z
0S
0[
#445000
1!
17
1Z
1S
1[
11!
0\
1^
1_
#450000
0!
07
0Z
0S
0[
#455000
1!
17
1Z
1S
1[
01!
10!
0_
0`
1\
0^
1_
1`
0a
1b
0c
0d
1a
0b
1c
1d
1e
0e
#460000
0!
07
0Z
0S
0[
#465000
1!
17
1Z
1S
1[
11!
0\
1^
0_
0`
0a
1b
0c
0d
1e
#470000
0!
07
0Z
0S
0[
#475000
1!
17
1Z
1S
1[
01!
00!
0/!
0.!
1-!
0e
1f
1c
1d
1a
0b
1_
1`
1\
0^
0_
0a
0c
1e
0f
0g
0h
1i
1g
1h
0i
#480000
0!
07
0Z
0S
0[
#485000
1!
17
1Z
1S
1[
11!
0\
1^
1_
#490000
0!
07
0Z
0S
0[
#495000
1!
17
1Z
1S
1[
01!
10!
0_
0`
1\
0^
1_
1`
1a
0a
#500000
0!
07
0Z
0S
0[
#505000
1!
17
1Z
1S
1[
11!
0\
1^
0_
0`
1a
#510000
0!
07
0Z
0S
0[
#515000
1!
17
1Z
1S
1[
01!
00!
1/!
0a
1b
1_
1`
1\
0^
0_
1a
0b
1c
0c
#520000
0!
07
0Z
0S
0[
#525000
1!
17
1Z
1S
1[
11!
0\
1^
1_
#530000
0!
07
0Z
0S
0[
#535000
1!
17
1Z
1S
1[
01!
10!
0_
0`
1\
0^
1_
1`
0a
1b
1c
1a
0b
0c
#540000
0!
07
0Z
0S
0[
#545000
1!
17
1Z
1S
1[
11!
0\
1^
0_
0`
0a
1b
1c
#550000
0!
07
0Z
0S
0[
#555000
1!
17
1Z
1S
1[
01!
00!
0/!
1.!
0c
0d
1a
0b
1_
1`
1\
0^
0_
0a
1c
1d
0e
1f
0g
0h
1e
0f
1g
1h
1i
0i
#560000
0!
07
0Z
0S
0[
#565000
1!
17
1Z
1S
1[
11!
0\
1^
1_
#570000
0!
07
0Z
0S
0[
#575000
1!
17
1Z
1S
1[
01!
10!
0_
0`
1\
0^
1_
1`
1a
0a
#580000
0!
07
0Z
0S
0[
#585000
1!
17
1Z
1S
1[
11!
0\
1^
0_
0`
1a
#590000
0!
07
0Z
0S
0[
#595000
1!
17
1Z
1S
1[
01!
00!
1/!
0a
1b
1_
1`
1\
0^
0_
1a
0b
0c
0d
0e
1f
1c
1d
1e
0f
0g
0h
1i
1g
1h
0i
#600000
0!
07
0Z
0S
0[
#605000
1!
17
1Z
1S
1[
11!
0\
1^
1_
#610000
0!
07
0Z
0S
0[
#615000
1!
17
1Z
1S
1[
01!
10!
0_
0`
1\
0^
1_
1`
0a
1b
0c
0d
1a
0b
1c
1d
0e
1f
0g
0h
1e
0f
1g
1h
1i
0i
#620000
0!
07
0Z
0S
0[
#625000
1!
17
1Z
1S
1[
11!
0\
1^
0_
0`
0a
1b
0c
0d
0e
1f
0g
0h
1i
#630000
0!
07
0Z
0S
0[
#635000
1!
17
1Z
1S
1[
01!
00!
0/!
0.!
0-!
0,!
1+!
0i
1j
1g
1h
1e
0f
1c
1d
1a
0b
1_
1`
1\
0^
0_
0a
0c
0e
0g
1i
0j
1k
0k
#640000
0!
07
0Z
0S
0[
#645000
1!
17
1Z
1S
1[
11!
0\
1^
1_
#650000
0!
07
0Z
0S
0[
#655000
1!
17
1Z
1S
1[
01!
10!
0_
0`
1\
0^
1_
1`
1a
0a
#660000
0!
07
0Z
0S
0[
#665000
1!
17
1Z
1S
1[
11!
0\
1^
0_
0`
1a
#670000
0!
07
0Z
0S
0[
#675000
1!
17
1Z
1S
1[
01!
00!
1/!
0a
1b
1_
1`
1\
0^
0_
1a
0b
1c
0c
#680000
0!
07
0Z
0S
0[
#685000
1!
17
1Z
1S
1[
11!
0\
1^
1_
#690000
0!
07
0Z
0S
0[
#695000
1!
17
1Z
1S
1[
01!
10!
0_
0`
1\
0^
1_
1`
0a
1b
1c
1a
0b
0c
#700000
0!
07
0Z
0S
0[
#705000
1!
17
1Z
1S
1[
11!
0\
1^
0_
0`
0a
1b
1c
#710000
0!
07
0Z
0S
0[
#715000
1!
17
1Z
1S
1[
01!
00!
0/!
1.!
0c
0d
1a
0b
1_
1`
1\
0^
0_
0a
1c
1d
1e
0e
#720000
0!
07
0Z
0S
0[
#725000
1!
17
1Z
1S
1[
11!
0\
1^
1_
#730000
0!
07
0Z
0S
0[
#735000
1!
17
1Z
1S
1[
01!
10!
0_
0`
1\
0^
1_
1`
1a
0a
#740000
0!
07
0Z
0S
0[
#745000
1!
17
1Z
1S
1[
11!
0\
1^
0_
0`
1a
#750000
0!
07
0Z
0S
0[
#755000
1!
17
1Z
1S
1[
01!
00!
1/!
0a
1b
1_
1`
1\
0^
0_
1a
0b
0c
0d
1e
1c
1d
0e
#760000
0!
07
0Z
0S
0[
#765000
1!
17
1Z
1S
1[
11!
0\
1^
1_
#770000
0!
07
0Z
0S
0[
#775000
1!
17
1Z
1S
1[
01!
10!
0_
0`
1\
0^
1_
1`
0a
1b
0c
0d
1a
0b
1c
1d
1e
0e
#780000
0!
07
0Z
0S
0[
#785000
1!
17
1Z
1S
1[
11!
0\
1^
0_
0`
0a
1b
0c
0d
1e
#790000
0!
07
0Z
0S
0[
#795000
1!
17
1Z
1S
1[
01!
00!
0/!
0.!
1-!
0e
1f
1c
1d
1a
0b
1_
1`
1\
0^
0_
0a
0c
1e
0f
1g
0g
#800000
0!
07
0Z
0S
0[
#805000
1!
17
1Z
1S
1[
11!
0\
1^
1_
#810000
0!
07
0Z
0S
0[
#815000
1!
17
1Z
1S
1[
01!
10!
0_
0`
1\
0^
1_
1`
1a
0a
#820000
0!
07
0Z
0S
0[
#825000
1!
17
1Z
1S
1[
11!
0\
1^
0_
0`
1a
#830000
0!
07
0Z
0S
0[
#835000
1!
17
1Z
1S
1[
01!
00!
1/!
0a
1b
1_
1`
1\
0^
0_
1a
0b
1c
0c
#840000
0!
07
0Z
0S
0[
#845000
1!
17
1Z
1S
1[
11!
0\
1^
1_
#850000
0!
07
0Z
0S
0[
#855000
1!
17
1Z
1S
1[
01!
10!
0_
0`
1\
0^
1_
1`
0a
1b
1c
1a
0b
0c
#860000
0!
07
0Z
0S
0[
#865000
1!
17
1Z
1S
1[
11!
0\
1^
0_
0`
0a
1b
1c
#870000
0!
07
0Z
0S
0[
#875000
1!
17
1Z
1S
1[
01!
00!
0/!
1.!
0c
0d
1a
0b
1_
1`
1\
0^
0_
0a
1c
1d
0e
1f
1g
1e
0f
0g
#880000
0!
07
0Z
0S
0[
#885000
1!
17
1Z
1S
1[
11!
0\
1^
1_
#890000
0!
07
0Z
0S
0[
#895000
1!
17
1Z
1S
1[
01!
10!
0_
0`
1\
0^
1_
1`
1a
0a
#900000
0!
07
0Z
0S
0[
#905000
1!
17
1Z
1S
1[
11!
0\
1^
0_
0`
1a
#910000
0!
07
0Z
0S
0[
#915000
1!
17
1Z
1S
1[
01!
00!
1/!
0a
1b
1_
1`
1\
0^
0_
1a
0b
0c
0d
0e
1f
1c
1d
1e
0f
1g
0g
#920000
0!
07
0Z
0S
0[
#925000
1!
17
1Z
1S
1[
11!
0\
1^
1_
#930000
0!
07
0Z
0S
0[
#935000
1!
17
1Z
1S
1[
01!
10!
0_
0`
1\
0^
1_
1`
0a
1b
0c
0d
1a
0b
1c
1d
0e
1f
1g
1e
0f
0g
#940000
0!
07
0Z
0S
0[
#945000
1!
17
1Z
1S
1[
11!
0\
1^
0_
0`
0a
1b
0c
0d
0e
1f
1g
#950000
0!
07
0Z
0S
0[
#955000
1!
17
1Z
1S
1[
01!
00!
0/!
0.!
0-!
1,!
0g
0h
1e
0f
1c
1d
1a
0b
1_
1`
1\
0^
0_
0a
0c
0e
1g
1h
0i
1j
1k
1i
0j
0k
#960000
0!
07
0Z
0S
0[
#965000
1!
17
1Z
1S
1[
11!
0\
1^
1_
#970000
0!
07
0Z
0S
0[
#975000
1!
17
1Z
1S
1[
01!
10!
0_
0`
1\
0^
1_
1`
1a
0a
#980000
0!
07
0Z
0S
0[
#985000
1!
17
1Z
1S
1[
11!
0\
1^
0_
0`
1a
#990000
0!
07
0Z
0S
0[
#995000
1!
17
1Z
1S
1[
01!
00!
1/!
0a
1b
1_
1`
1\
0^
0_
1a
0b
1c
0c
#1000000
0!
07
0Z
0S
0[
#1005000
1!
17
1Z
1S
1[
11!
0\
1^
1_
#1010000
0!
07
0Z
0S
0[
#1015000
1!
17
1Z
1S
1[
01!
10!
0_
0`
1\
0^
1_
1`
0a
1b
1c
1a
0b
0c
#1020000
0!
07
0Z
0S
0[
#1025000
1!
17
1Z
1S
1[
11!
0\
1^
0_
0`
0a
1b
1c
#1030000
0!
07
0Z
0S
0[
#1035000
1!
17
1Z
1S
1[
01!
00!
0/!
1.!
0c
0d
1a
0b
1_
1`
1\
0^
0_
0a
1c
1d
1e
0e
#1040000
0!
07
0Z
0S
0[
#1045000
1!
17
1Z
1S
1[
11!
0\
1^
1_
#1050000
0!
07
0Z
0S
0[
#1055000
1!
17
1Z
1S
1[
01!
10!
0_
0`
1\
0^
1_
1`
1a
0a
#1060000
0!
07
0Z
0S
0[
#1065000
1!
17
1Z
1S
1[
11!
0\
1^
0_
0`
1a
#1070000
0!
07
0Z
0S
0[
#1075000
1!
17
1Z
1S
1[
01!
00!
1/!
0a
1b
1_
1`
1\
0^
0_
1a
0b
0c
0d
1e
1c
1d
0e
#1080000
0!
07
0Z
0S
0[
#1085000
1!
17
1Z
1S
1[
11!
0\
1^
1_
#1090000
0!
07
0Z
0S
0[
#1095000
1!
17
1Z
1S
1[
01!
10!
0_
0`
1\
0^
1_
1`
0a
1b
0c
0d
1a
0b
1c
1d
1e
0e
#1100000
0!
07
0Z
0S
0[
#1105000
1!
17
1Z
1S
1[
11!
0\
1^
0_
0`
0a
1b
0c
0d
1e
#1110000
0!
07
0Z
0S
0[
#1115000
1!
17
1Z
1S
1[
01!
00!
0/!
0.!
1-!
0e
1f
1c
1d
1a
0b
1_
1`
1\
0^
0_
0a
0c
1e
0f
0g
0h
0i
1j
1g
1h
1i
0j
1k
0k
#1120000
0!
07
0Z
0S
0[
#1125000
1!
17
1Z
1S
1[
11!
0\
1^
1_
#1130000
0!
07
0Z
0S
0[
#1135000
1!
17
1Z
1S
1[
01!
10!
0_
0`
1\
0^
1_
1`
1a
0a
#1140000
0!
07
0Z
0S
0[
#1145000
1!
17
1Z
1S
1[
11!
0\
1^
0_
0`
1a
#1150000
0!
07
0Z
0S
0[
#1155000
1!
17
1Z
1S
1[
01!
00!
1/!
0a
1b
1_
1`
1\
0^
0_
1a
0b
1c
0c
#1160000
0!
07
0Z
0S
0[
#1165000
1!
17
1Z
1S
1[
11!
0\
1^
1_
#1170000
0!
07
0Z
0S
0[
#1175000
1!
17
1Z
1S
1[
01!
10!
0_
0`
1\
0^
1_
1`
0a
1b
1c
1a
0b
0c
#1180000
0!
07
0Z
0S
0[
#1185000
1!
17
1Z
1S
1[
11!
0\
1^
0_
0`
0a
1b
1c
#1190000
0!
07
0Z
0S
0[
#1195000
1!
17
1Z
1S
1[
01!
00!
0/!
1.!
0c
0d
1a
0b
1_
1`
1\
0^
0_
0a
1c
1d
0e
1f
0g
0h
1e
0f
1g
1h
0i
1j
1k
1i
0j
0k
#1200000
0!
07
0Z
0S
0[
#1205000
1!
17
1Z
1S
1[
11!
0\
1^
1_
#1210000
0!
07
0Z
0S
0[
#1215000
1!
17
1Z
1S
1[
01!
10!
0_
0`
1\
0^
1_
1`
1a
0a
#1220000
0!
07
0Z
0S
0[
#1225000
1!
17
1Z
1S
1[
11!
0\
1^
0_
0`
1a
#1230000
0!
07
0Z
0S
0[
#1235000
1!
17
1Z
1S
1[
01!
00!
1/!
0a
1b
1_
1`
1\
0^
0_
1a
0b
0c
0d
0e
1f
1c
1d
1e
0f
0g
0h
0i
1j
1g
1h
1i
0j
1k
0k
#1240000
0!
07
0Z
0S
0[
#1245000
1!
17
1Z
1S
1[
11!
0\
1^
1_
#1250000
0!
07
0Z
0S
0[
#1255000
1!
17
1Z
1S
1[
01!
10!
0_
0`
1\
0^
1_
1`
0a
1b
0c
0d
1a
0b
1c
1d
0e
1f
0g
0h
1e
0f
1g
1h
0i
1j
1k
1i
0j
0k
#1260000
0!
07
0Z
0S
0[
#1265000
1!
17
1Z
1S
1[
11!
0\
1^
0_
0`
0a
1b
0c
0d
0e
1f
0g
0h
0i
1j
1k
#1270000
0!
07
0Z
0S
0[
#1275000
1!
17
1Z
1S
1[
01!
00!
0/!
0.!
0-!
0,!
0+!
1*!
0k
0l
1i
0j
1g
1h
1e
0f
1c
1d
1a
0b
1_
1`
1\
0^
0_
0a
0c
0e
0g
0i
1k
1l
1m
1W
0m
16
0W
1"
06
0"
#1280000
0!
07
0Z
0S
0[
#1285000
1!
17
1Z
1S
1[
11!
0\
1^
1_
#1290000
0!
07
0Z
0S
0[
#1295000
1!
17
1Z
1S
1[
01!
10!
0_
0`
1\
0^
1_
1`
1a
0a
#1300000
0!
07
0Z
0S
0[
#1305000
1!
17
1Z
1S
1[
11!
0\
1^
0_
0`
1a
#1310000
0!
07
0Z
0S
0[
#1315000
1!
17
1Z
1S
1[
01!
00!
1/!
0a
1b
1_
1`
1\
0^
0_
1a
0b
1c
0c
#1320000
0!
07
0Z
0S
0[
#1325000
1!
17
1Z
1S
1[
11!
0\
1^
1_
#1330000
0!
07
0Z
0S
0[
#1335000
1!
17
1Z
1S
1[
01!
10!
0_
0`
1\
0^
1_
1`
0a
1b
1c
1a
0b
0c
#1340000
0!
07
0Z
0S
0[
#1345000
1!
17
1Z
1S
1[
11!
0\
1^
0_
0`
0a
1b
1c
#1350000
0!
07
0Z
0S
0[
#1355000
1!
17
1Z
1S
1[
01!
00!
0/!
1.!
0c
0d
1a
0b
1_
1`
1\
0^
0_
0a
1c
1d
1e
0e
#1360000
0!
07
0Z
0S
0[
#1365000
1!
17
1Z
1S
1[
11!
0\
1^
1_
#1370000
0!
07
0Z
0S
0[
#1375000
1!
17
1Z
1S
1[
01!
10!
0_
0`
1\
0^
1_
1`
1a
0a
#1380000
0!
07
0Z
0S
0[
#1385000
1!
17
1Z
1S
1[
11!
0\
1^
0_
0`
1a
#1390000
0!
07
0Z
0S
0[
#1395000
1!
17
1Z
1S
1[
01!
00!
1/!
0a
1b
1_
1`
1\
0^
0_
1a
0b
0c
0d
1e
1c
1d
0e
#1400000
0!
07
0Z
0S
0[
#1405000
1!
17
1Z
1S
1[
11!
0\
1^
1_
#1410000
0!
07
0Z
0S
0[
#1415000
1!
17
1Z
1S
1[
01!
10!
0_
0`
1\
0^
1_
1`
0a
1b
0c
0d
1a
0b
1c
1d
1e
0e
#1420000
0!
07
0Z
0S
0[
#1425000
1!
17
1Z
1S
1[
11!
0\
1^
0_
0`
0a
1b
0c
0d
1e
#1430000
0!
07
0Z
0S
0[
#1435000
1!
17
1Z
1S
1[
01!
00!
0/!
0.!
1-!
0e
1f
1c
1d
1a
0b
1_
1`
1\
0^
0_
0a
0c
1e
0f
1g
0g
#1440000
0!
07
0Z
0S
0[
#1445000
1!
17
1Z
1S
1[
11!
0\
1^
1_
#1450000
0!
07
0Z
0S
0[
#1455000
1!
17
1Z
1S
1[
01!
10!
0_
0`
1\
0^
1_
1`
1a
0a
#1460000
0!
07
0Z
0S
0[
#1465000
1!
17
1Z
1S
1[
11!
0\
1^
0_
0`
1a
#1470000
0!
07
0Z
0S
0[
