Practica_4/simulation/qsim/Practica_4.msim.vcd
$comment
	File created using the following command:
		vcd file Practica_4.msim.vcd -direction
$end
$date
	Thu Feb 25 10:57:25 2021
$end
$version
	ModelSim Version 10.5b
$end
$timescale
	1ps
$end

$scope module practica_4_vhd_vec_tst $end
$var wire 1 ! a $end
$var wire 1 " a_1 $end
$var wire 1 # ALARM $end
$var wire 1 $ b $end
$var wire 1 % b_1 $end
$var wire 1 & c $end
$var wire 1 ' c1 $end
$var wire 1 ( CLK $end
$var wire 1 ) d $end
$var wire 1 * d1 $end
$var wire 1 + e $end
$var wire 1 , e1 $end
$var wire 1 - f $end
$var wire 1 . f1 $end
$var wire 1 / g $end
$var wire 1 0 g1 $end
$var wire 1 1 MONO $end
$var wire 1 2 OPERATE $end
$var wire 1 3 PULSES $end
$var wire 1 4 RESET $end
$var wire 1 5 S [8] $end
$var wire 1 6 S [7] $end
$var wire 1 7 S [6] $end
$var wire 1 8 S [5] $end
$var wire 1 9 S [4] $end
$var wire 1 : S [3] $end
$var wire 1 ; S [2] $end
$var wire 1 < S [1] $end
$var wire 1 = S [0] $end

$scope module i1 $end
$var wire 1 > gnd $end
$var wire 1 ? vcc $end
$var wire 1 @ unknown $end
$var wire 1 A devoe $end
$var wire 1 B devclrn $end
$var wire 1 C devpor $end
$var wire 1 D ww_devoe $end
$var wire 1 E ww_devclrn $end
$var wire 1 F ww_devpor $end
$var wire 1 G ww_OPERATE $end
$var wire 1 H ww_CLK $end
$var wire 1 I ww_RESET $end
$var wire 1 J ww_MONO $end
$var wire 1 K ww_S [8] $end
$var wire 1 L ww_S [7] $end
$var wire 1 M ww_S [6] $end
$var wire 1 N ww_S [5] $end
$var wire 1 O ww_S [4] $end
$var wire 1 P ww_S [3] $end
$var wire 1 Q ww_S [2] $end
$var wire 1 R ww_S [1] $end
$var wire 1 S ww_S [0] $end
$var wire 1 T ww_PULSES $end
$var wire 1 U ww_ALARM $end
$var wire 1 V ww_a $end
$var wire 1 W ww_b $end
$var wire 1 X ww_c $end
$var wire 1 Y ww_d $end
$var wire 1 Z ww_e $end
$var wire 1 [ ww_f $end
$var wire 1 \ ww_g $end
$var wire 1 ] ww_c1 $end
$var wire 1 ^ ww_d1 $end
$var wire 1 _ ww_e1 $end
$var wire 1 ` ww_f1 $end
$var wire 1 a ww_g1 $end
$var wire 1 b ww_a_1 $end
$var wire 1 c ww_b_1 $end
$var wire 1 d \~QUARTUS_CREATED_ADC1~_CHSEL_bus\ [4] $end
$var wire 1 e \~QUARTUS_CREATED_ADC1~_CHSEL_bus\ [3] $end
$var wire 1 f \~QUARTUS_CREATED_ADC1~_CHSEL_bus\ [2] $end
$var wire 1 g \~QUARTUS_CREATED_ADC1~_CHSEL_bus\ [1] $end
$var wire 1 h \~QUARTUS_CREATED_ADC1~_CHSEL_bus\ [0] $end
$var wire 1 i \~QUARTUS_CREATED_ADC2~_CHSEL_bus\ [4] $end
$var wire 1 j \~QUARTUS_CREATED_ADC2~_CHSEL_bus\ [3] $end
$var wire 1 k \~QUARTUS_CREATED_ADC2~_CHSEL_bus\ [2] $end
$var wire 1 l \~QUARTUS_CREATED_ADC2~_CHSEL_bus\ [1] $end
$var wire 1 m \~QUARTUS_CREATED_ADC2~_CHSEL_bus\ [0] $end
$var wire 1 n \inst22~clkctrl_INCLK_bus\ [3] $end
$var wire 1 o \inst22~clkctrl_INCLK_bus\ [2] $end
$var wire 1 p \inst22~clkctrl_INCLK_bus\ [1] $end
$var wire 1 q \inst22~clkctrl_INCLK_bus\ [0] $end
$var wire 1 r \CLK~inputclkctrl_INCLK_bus\ [3] $end
$var wire 1 s \CLK~inputclkctrl_INCLK_bus\ [2] $end
$var wire 1 t \CLK~inputclkctrl_INCLK_bus\ [1] $end
$var wire 1 u \CLK~inputclkctrl_INCLK_bus\ [0] $end
$var wire 1 v \RESET~inputclkctrl_INCLK_bus\ [3] $end
$var wire 1 w \RESET~inputclkctrl_INCLK_bus\ [2] $end
$var wire 1 x \RESET~inputclkctrl_INCLK_bus\ [1] $end
$var wire 1 y \RESET~inputclkctrl_INCLK_bus\ [0] $end
$var wire 1 z \~QUARTUS_CREATED_GND~I_combout\ $end
$var wire 1 { \~QUARTUS_CREATED_UNVM~~busy\ $end
$var wire 1 | \~QUARTUS_CREATED_ADC1~~eoc\ $end
$var wire 1 } \~QUARTUS_CREATED_ADC2~~eoc\ $end
$var wire 1 ~ \OPERATE~output_o\ $end
$var wire 1 !! \ALARM~output_o\ $end
$var wire 1 "! \a~output_o\ $end
$var wire 1 #! \b~output_o\ $end
$var wire 1 $! \c~output_o\ $end
$var wire 1 %! \d~output_o\ $end
$var wire 1 &! \e~output_o\ $end
$var wire 1 '! \f~output_o\ $end
$var wire 1 (! \g~output_o\ $end
$var wire 1 )! \c1~output_o\ $end
$var wire 1 *! \d1~output_o\ $end
$var wire 1 +! \e1~output_o\ $end
$var wire 1 ,! \f1~output_o\ $end
$var wire 1 -! \g1~output_o\ $end
$var wire 1 .! \a_1~output_o\ $end
$var wire 1 /! \b_1~output_o\ $end
$var wire 1 0! \CLK~input_o\ $end
$var wire 1 1! \CLK~inputclkctrl_outclk\ $end
$var wire 1 2! \inst18|inst~feeder_combout\ $end
$var wire 1 3! \RESET~input_o\ $end
$var wire 1 4! \RESET~inputclkctrl_outclk\ $end
$var wire 1 5! \inst18|inst~q\ $end
$var wire 1 6! \inst18|inst1~feeder_combout\ $end
$var wire 1 7! \inst18|inst1~q\ $end
$var wire 1 8! \S[6]~input_o\ $end
$var wire 1 9! \S[7]~input_o\ $end
$var wire 1 :! \S[8]~input_o\ $end
$var wire 1 ;! \inst12|5~0_combout\ $end
$var wire 1 <! \S[5]~input_o\ $end
$var wire 1 =! \S[4]~input_o\ $end
$var wire 1 >! \S[2]~input_o\ $end
$var wire 1 ?! \S[1]~input_o\ $end
$var wire 1 @! \S[3]~input_o\ $end
$var wire 1 A! \inst|8~0_combout\ $end
$var wire 1 B! \inst|8~1_combout\ $end
$var wire 1 C! \PULSES~input_o\ $end
$var wire 1 D! \inst17|inst~feeder_combout\ $end
$var wire 1 E! \inst17|inst~q\ $end
$var wire 1 F! \inst17|inst1~feeder_combout\ $end
$var wire 1 G! \inst17|inst1~q\ $end
$var wire 1 H! \inst19~q\ $end
$var wire 1 I! \inst22~combout\ $end
$var wire 1 J! \inst22~clkctrl_outclk\ $end
$var wire 1 K! \inst1|sub|16~0_combout\ $end
$var wire 1 L! \inst1|sub|16~q\ $end
$var wire 1 M! \inst13|84~1_combout\ $end
$var wire 1 N! \inst1|sub|17~q\ $end
$var wire 1 O! \inst|9~2_combout\ $end
$var wire 1 P! \inst1|sub|18~0_combout\ $end
$var wire 1 Q! \inst1|sub|18~q\ $end
$var wire 1 R! \inst1|sub|19~0_combout\ $end
$var wire 1 S! \inst1|sub|19~q\ $end
$var wire 1 T! \inst2|sub|109~0_combout\ $end
$var wire 1 U! \inst|7~4_combout\ $end
$var wire 1 V! \S[0]~input_o\ $end
$var wire 1 W! \inst|7~2_combout\ $end
$var wire 1 X! \inst|7~3_combout\ $end
$var wire 1 Y! \inst2|sub|109~1_combout\ $end
$var wire 1 Z! \inst2|sub|109~2_combout\ $end
$var wire 1 [! \inst20~q\ $end
$var wire 1 \! \MONO~input_o\ $end
$var wire 1 ]! \inst25|inst~feeder_combout\ $end
$var wire 1 ^! \inst25|inst~q\ $end
$var wire 1 _! \inst25|inst1~q\ $end
$var wire 1 `! \inst11|reg_fstate.Q2~0_combout\ $end
$var wire 1 a! \inst11|fstate.Q2~q\ $end
$var wire 1 b! \inst11|OPERATE~0_combout\ $end
$var wire 1 c! \inst11|reg_fstate.Q0~0_combout\ $end
$var wire 1 d! \inst11|reg_fstate.Q0~1_combout\ $end
$var wire 1 e! \inst11|fstate.Q0~q\ $end
$var wire 1 f! \inst11|reg_fstate.Q1~0_combout\ $end
$var wire 1 g! \inst11|reg_fstate.Q1~1_combout\ $end
$var wire 1 h! \inst11|fstate.Q1~q\ $end
$var wire 1 i! \inst11|ALARM~0_combout\ $end
$var wire 1 j! \inst|7~5_combout\ $end
$var wire 1 k! \inst|9~3_combout\ $end
$var wire 1 l! \inst12|81~combout\ $end
$var wire 1 m! \inst12|82~3_combout\ $end
$var wire 1 n! \inst12|82~9_combout\ $end
$var wire 1 o! \inst12|5~1_combout\ $end
$var wire 1 p! \inst12|84~0_combout\ $end
$var wire 1 q! \inst12|85~combout\ $end
$var wire 1 r! \inst12|86~0_combout\ $end
$var wire 1 s! \inst12|87~combout\ $end
$var wire 1 t! \inst13|83~combout\ $end
$var wire 1 u! \inst13|84~0_combout\ $end
$var wire 1 v! \inst13|85~combout\ $end
$var wire 1 w! \inst13|86~0_combout\ $end
$var wire 1 x! \inst13|87~combout\ $end
$var wire 1 y! \inst13|81~0_combout\ $end
$var wire 1 z! \inst13|82~0_combout\ $end
$var wire 1 {! \inst11|ALT_INV_OPERATE~0_combout\ $end
$var wire 1 |! \inst18|ALT_INV_inst1~q\ $end
$upscope $end
$upscope $end
$enddefinitions $end
#0
$dumpvars
1!
0"
0#
0$
0%
0&
0'
0(
1)
0*
1+
0,
0-
0.
0/
10
11
02
03
14
0>
1?
x@
1A
1B
1C
1D
1E
1F
0G
0H
1I
1J
0T
0U
1V
0W
0X
1Y
1Z
0[
0\
0]
0^
0_
0`
1a
0b
0c
0z
z{
z|
z}
0~
0!!
1"!
0#!
0$!
1%!
1&!
0'!
0(!
0)!
0*!
0+!
0,!
1-!
0.!
0/!
00!
01!
12!
13!
14!
05!
06!
07!
18!
19!
1:!
1;!
1<!
1=!
1>!
1?!
0@!
0A!
0B!
0C!
0D!
0E!
0F!
0G!
0H!
0I!
0J!
1K!
0L!
0M!
0N!
1O!
0P!
0Q!
0R!
0S!
1T!
0U!
1V!
0W!
0X!
0Y!
0Z!
0[!
1\!
1]!
0^!
0_!
1`!
0a!
1b!
0c!
1d!
0e!
0f!
0g!
0h!
0i!
0j!
1k!
1l!
0m!
0n!
0o!
1p!
1q!
0r!
0s!
0t!
0u!
0v!
0w!
1x!
0y!
0z!
0{!
1|!
15
16
17
18
19
0:
1;
1<
1=
1K
1L
1M
1N
1O
0P
1Q
1R
1S
1r
1s
1t
0u
1v
1w
1x
1y
1n
1o
1p
0q
0d
0e
0f
0g
0h
0i
0j
0k
0l
0m
$end
#5000
1(
1H
10!
1u
11!
15!
1^!
1a!
1e!
0b!
16!
1{!
1~
1G
12
#10000
0(
0H
00!
0u
01!
#15000
1(
1H
10!
1u
11!
17!
1_!
0|!
0`!
1b!
0d!
0^!
0_!
0{!
0~
0G
02
#20000
0(
0H
00!
0u
01!
#25000
1(
1H
10!
1u
11!
0a!
0e!
#30000
0(
0H
00!
0u
01!
#35000
1(
1H
10!
1u
11!
#40000
0(
0H
00!
0u
01!
#45000
1(
1H
10!
1u
11!
#50000
0(
0H
00!
0u
01!
#55000
1(
1H
10!
1u
11!
#60000
0(
0H
00!
0u
01!
#65000
1(
1H
10!
1u
11!
#70000
0(
0H
00!
0u
01!
#75000
1(
1H
10!
1u
11!
#80000
0(
0H
00!
0u
01!
#85000
1(
1H
10!
1u
11!
#90000
0(
0H
00!
0u
01!
#95000
1(
1H
10!
1u
11!
#100000
0(
0H
00!
0u
01!
#105000
1(
1H
10!
1u
11!
#110000
0(
0H
00!
0u
01!
#115000
1(
1H
10!
1u
11!
#120000
0(
0H
00!
0u
01!
#125000
1(
1H
10!
1u
11!
#130000
0(
0H
00!
0u
01!
#135000
1(
1H
10!
1u
11!
#140000
0(
0H
00!
0u
01!
#145000
1(
1H
10!
1u
11!
#150000
0(
0H
00!
0u
01!
#155000
1(
1H
10!
1u
11!
#160000
0(
0H
00!
0u
01!
#165000
1(
1H
10!
1u
11!
#170000
0(
0H
00!
0u
01!
#175000
1(
1H
10!
1u
11!
#180000
0(
0H
00!
0u
01!
#185000
1(
1H
10!
1u
11!
#190000
0(
0H
00!
0u
01!
#195000
1(
1H
10!
1u
11!
#200000
0(
0H
00!
0u
01!
#205000
1(
1H
10!
1u
11!
#210000
0(
0H
00!
0u
01!
#215000
1(
1H
10!
1u
11!
#220000
0(
0H
00!
0u
01!
#225000
1(
1H
10!
1u
11!
#230000
0(
0H
00!
0u
01!
#235000
1(
1H
10!
1u
11!
#240000
0(
0H
00!
0u
01!
#245000
1(
1H
10!
1u
11!
#250000
0(
0H
00!
0u
01!
#255000
1(
1H
10!
1u
11!
#260000
0(
0H
00!
0u
01!
#265000
1(
1H
10!
1u
11!
#270000
0(
0H
00!
0u
01!
#275000
1(
1H
10!
1u
11!
#280000
0(
0H
00!
0u
01!
#285000
1(
1H
10!
1u
11!
#290000
0(
0H
00!
0u
01!
#295000
1(
1H
10!
1u
11!
#300000
0(
0H
00!
0u
01!
#305000
1(
1H
10!
1u
11!
#310000
0(
0H
00!
0u
01!
#315000
1(
1H
10!
1u
11!
#320000
0(
0H
00!
0u
01!
#325000
1(
1H
10!
1u
11!
#330000
0(
0H
00!
0u
01!
#335000
1(
1H
10!
1u
11!
#340000
0(
0H
00!
0u
01!
#345000
1(
1H
10!
1u
11!
#350000
0(
0H
00!
0u
01!
#355000
1(
1H
10!
1u
11!
#360000
0(
0H
00!
0u
01!
#365000
1(
1H
10!
1u
11!
#370000
0(
0H
00!
0u
01!
#375000
1(
1H
10!
1u
11!
#380000
0(
0H
00!
0u
01!
#385000
1(
1H
10!
1u
11!
#390000
0(
0H
00!
0u
01!
#395000
1(
1H
10!
1u
11!
#400000
0(
0H
00!
0u
01!
#405000
1(
1H
10!
1u
11!
#410000
0(
0H
00!
0u
01!
#415000
1(
1H
10!
1u
11!
#420000
0(
0H
00!
0u
01!
#425000
1(
1H
10!
1u
11!
#430000
0(
0H
00!
0u
01!
#435000
1(
1H
10!
1u
11!
#440000
0(
0H
00!
0u
01!
#445000
1(
1H
10!
1u
11!
#450000
0(
0H
00!
0u
01!
#455000
1(
1H
10!
1u
11!
#460000
0(
0H
00!
0u
01!
#465000
1(
1H
10!
1u
11!
#470000
0(
0H
00!
0u
01!
#475000
1(
1H
10!
1u
11!
#480000
0(
0H
00!
0u
01!
#485000
1(
1H
10!
1u
11!
#490000
0(
0H
00!
0u
01!
#495000
1(
1H
10!
1u
11!
#500000
0(
0H
00!
0u
01!
#505000
1(
1H
10!
1u
11!
#510000
0(
0H
00!
0u
01!
#515000
1(
1H
10!
1u
11!
#520000
0(
0H
00!
0u
01!
#525000
1(
1H
10!
1u
11!
#530000
0(
0H
00!
0u
01!
#535000
1(
1H
10!
1u
11!
#540000
0(
0H
00!
0u
01!
#545000
1(
1H
10!
1u
11!
#550000
0(
0H
00!
0u
01!
#555000
1(
1H
10!
1u
11!
#560000
0(
0H
00!
0u
01!
#565000
1(
1H
10!
1u
11!
#570000
0(
0H
00!
0u
01!
#575000
1(
1H
10!
1u
11!
#580000
0(
0H
00!
0u
01!
#585000
1(
1H
10!
1u
11!
#590000
0(
0H
00!
0u
01!
#595000
1(
1H
10!
1u
11!
#600000
0(
0H
00!
0u
01!
#605000
1(
1H
10!
1u
11!
#610000
0(
0H
00!
0u
01!
#615000
1(
1H
10!
1u
11!
#620000
0(
0H
00!
0u
01!
#625000
1(
1H
10!
1u
11!
#630000
0(
0H
00!
0u
01!
#635000
1(
1H
10!
1u
11!
#640000
0(
0H
00!
0u
01!
#645000
1(
1H
10!
1u
11!
#650000
0(
0H
00!
0u
01!
#655000
1(
1H
10!
1u
11!
#660000
0(
0H
00!
0u
01!
#665000
1(
1H
10!
1u
11!
#670000
0(
0H
00!
0u
01!
#675000
1(
1H
10!
1u
11!
#680000
0(
0H
00!
0u
01!
#685000
1(
1H
10!
1u
11!
#690000
0(
0H
00!
0u
01!
#695000
1(
1H
10!
1u
11!
#700000
0(
0H
00!
0u
01!
#705000
1(
1H
10!
1u
11!
#710000
0(
0H
00!
0u
01!
#715000
1(
1H
10!
1u
11!
#720000
0(
0H
00!
0u
01!
#725000
1(
1H
10!
1u
11!
#730000
0(
0H
00!
0u
01!
#735000
1(
1H
10!
1u
11!
#740000
0(
0H
00!
0u
01!
#745000
1(
1H
10!
1u
11!
#750000
0(
0H
00!
0u
01!
#755000
1(
1H
10!
1u
11!
#760000
0(
0H
00!
0u
01!
#765000
1(
1H
10!
1u
11!
#770000
0(
0H
00!
0u
01!
#775000
1(
1H
10!
1u
11!
#780000
0(
0H
00!
0u
01!
#785000
1(
1H
10!
1u
11!
#790000
0(
0H
00!
0u
01!
#795000
1(
1H
10!
1u
11!
#800000
0(
0H
00!
0u
01!
#805000
1(
1H
10!
1u
11!
#810000
0(
0H
00!
0u
01!
#815000
1(
1H
10!
1u
11!
#820000
0(
0H
00!
0u
01!
#825000
1(
1H
10!
1u
11!
#830000
0(
0H
00!
0u
01!
#835000
1(
1H
10!
1u
11!
#840000
0(
0H
00!
0u
01!
#845000
1(
1H
10!
1u
11!
#850000
0(
0H
00!
0u
01!
#855000
1(
1H
10!
1u
11!
#860000
0(
0H
00!
0u
01!
#865000
1(
1H
10!
1u
11!
#870000
0(
0H
00!
0u
01!
#875000
1(
1H
10!
1u
11!
#880000
0(
0H
00!
0u
01!
#885000
1(
1H
10!
1u
11!
#890000
0(
0H
00!
0u
01!
#895000
1(
1H
10!
1u
11!
#900000
0(
0H
00!
0u
01!
#905000
1(
1H
10!
1u
11!
#910000
0(
0H
00!
0u
01!
#915000
1(
1H
10!
1u
11!
#920000
0(
0H
00!
0u
01!
#925000
1(
1H
10!
1u
11!
#930000
0(
0H
00!
0u
01!
#935000
1(
1H
10!
1u
11!
#940000
0(
0H
00!
0u
01!
#945000
1(
1H
10!
1u
11!
#950000
0(
0H
00!
0u
01!
#955000
1(
1H
10!
1u
11!
#960000
0(
0H
00!
0u
01!
#965000
1(
1H
10!
1u
11!
#970000
0(
0H
00!
0u
01!
#975000
1(
1H
10!
1u
11!
#980000
0(
0H
00!
0u
01!
#985000
1(
1H
10!
1u
11!
#990000
0(
0H
00!
0u
01!
#995000
1(
1H
10!
1u
11!
#1000000
0(
0H
00!
0u
01!
#1005000
1(
1H
10!
1u
11!
#1010000
0(
0H
00!
0u
01!
#1015000
1(
1H
10!
1u
11!
#1020000
0(
0H
00!
0u
01!
#1025000
1(
1H
10!
1u
11!
#1030000
0(
0H
00!
0u
01!
#1035000
1(
1H
10!
1u
11!
#1040000
0(
0H
00!
0u
01!
#1045000
1(
1H
10!
1u
11!
#1050000
0(
0H
00!
0u
01!
#1055000
1(
1H
10!
1u
11!
#1060000
0(
0H
00!
0u
01!
#1065000
1(
1H
10!
1u
11!
#1070000
0(
0H
00!
0u
01!
#1075000
1(
1H
10!
1u
11!
#1080000
0(
0H
00!
0u
01!
#1085000
1(
1H
10!
1u
11!
#1090000
0(
0H
00!
0u
01!
#1095000
1(
1H
10!
1u
11!
#1100000
0(
0H
00!
0u
01!
#1105000
1(
1H
10!
1u
11!
#1110000
0(
0H
00!
0u
01!
#1115000
1(
1H
10!
1u
11!
#1120000
0(
0H
00!
0u
01!
#1125000
1(
1H
10!
1u
11!
#1130000
0(
0H
00!
0u
01!
#1135000
1(
1H
10!
1u
11!
#1140000
0(
0H
00!
0u
01!
#1145000
1(
1H
10!
1u
11!
#1150000
0(
0H
00!
0u
01!
#1155000
1(
1H
10!
1u
11!
#1160000
0(
0H
00!
0u
01!
#1165000
1(
1H
10!
1u
11!
#1170000
0(
0H
00!
0u
01!
#1175000
1(
1H
10!
1u
11!
#1180000
0(
0H
00!
0u
01!
#1185000
1(
1H
10!
1u
11!
#1190000
0(
0H
00!
0u
01!
#1195000
1(
1H
10!
1u
11!
#1200000
0(
0H
00!
0u
01!
#1205000
1(
1H
10!
1u
11!
#1210000
0(
0H
00!
0u
01!
#1215000
1(
1H
10!
1u
11!
#1220000
0(
0H
00!
0u
01!
#1225000
1(
1H
10!
1u
11!
#1230000
0(
0H
00!
0u
01!
#1235000
1(
1H
10!
1u
11!
#1240000
0(
0H
00!
0u
01!
#1245000
1(
1H
10!
1u
11!
#1250000
0(
0H
00!
0u
01!
#1255000
1(
1H
10!
1u
11!
#1260000
0(
0H
00!
0u
01!
#1265000
1(
1H
10!
1u
11!
#1270000
0(
0H
00!
0u
01!
#1275000
1(
1H
10!
1u
11!
#1280000
0(
0H
00!
0u
01!
#1285000
1(
1H
10!
1u
11!
#1290000
0(
0H
00!
0u
01!
#1295000
1(
1H
10!
1u
11!
#1300000
0(
0H
00!
0u
01!
#1305000
1(
1H
10!
1u
11!
#1310000
0(
0H
00!
0u
01!
#1315000
1(
1H
10!
1u
11!
#1320000
0(
0H
00!
0u
01!
#1325000
1(
1H
10!
1u
11!
#1330000
0(
0H
00!
0u
01!
#1335000
1(
1H
10!
1u
11!
#1340000
0(
0H
00!
0u
01!
#1345000
1(
1H
10!
1u
11!
#1350000
0(
0H
00!
0u
01!
#1355000
1(
1H
10!
1u
11!
#1360000
0(
0H
00!
0u
01!
#1365000
1(
1H
10!
1u
11!
#1370000
0(
0H
00!
0u
01!
#1375000
1(
1H
10!
1u
11!
#1380000
0(
0H
00!
0u
01!
#1385000
1(
1H
10!
1u
11!
#1390000
0(
0H
00!
0u
01!
#1395000
1(
1H
10!
1u
11!
#1400000
0(
0H
00!
0u
01!
#1405000
1(
1H
10!
1u
11!
#1410000
0(
0H
00!
0u
01!
#1415000
1(
1H
10!
1u
11!
#1420000
0(
0H
00!
0u
01!
#1425000
1(
1H
10!
1u
11!
#1430000
0(
0H
00!
0u
01!
#1435000
1(
1H
10!
1u
11!
#1440000
0(
0H
00!
0u
01!
#1445000
1(
1H
10!
1u
11!
#1450000
0(
0H
00!
0u
01!
#1455000
1(
1H
10!
1u
11!
#1460000
0(
0H
00!
0u
01!
#1465000
1(
1H
10!
1u
11!
#1470000
0(
0H
00!
0u
01!
#1475000
1(
1H
10!
1u
11!
#1480000
0(
0H
00!
0u
01!
#1485000
1(
1H
10!
1u
11!
#1490000
0(
0H
00!
0u
01!
#1495000
1(
1H
10!
1u
11!
#1500000
0(
0H
00!
0u
01!
#1505000
1(
1H
10!
1u
11!
#1510000
0(
0H
00!
0u
01!
#1515000
1(
1H
10!
1u
11!
#1520000
0(
0H
00!
0u
01!
#1525000
1(
1H
10!
1u
11!
#1530000
0(
0H
00!
0u
01!
#1535000
1(
1H
10!
1u
11!
#1540000
0(
0H
00!
0u
01!
#1545000
1(
1H
10!
1u
11!
#1550000
0(
0H
00!
0u
01!
#1555000
1(
1H
10!
1u
11!
#1560000
0(
0H
00!
0u
01!
#1565000
1(
1H
10!
1u
11!
#1570000
0(
0H
00!
0u
01!
#1575000
1(
1H
10!
1u
11!
#1580000
0(
0H
00!
0u
01!
#1585000
1(
1H
10!
1u
11!
#1590000
0(
0H
00!
0u
01!
#1595000
1(
1H
10!
1u
11!
#1600000
0(
0H
00!
0u
01!
#1605000
1(
1H
10!
1u
11!
#1610000
0(
0H
00!
0u
01!
#1615000
1(
1H
10!
1u
11!
#1620000
0(
0H
00!
0u
01!
#1625000
1(
1H
10!
1u
11!
#1630000
0(
0H
00!
0u
01!
#1635000
1(
1H
10!
1u
11!
#1640000
0(
0H
00!
0u
01!
#1645000
1(
1H
10!
1u
11!
#1650000
0(
0H
00!
0u
01!
#1655000
1(
1H
10!
1u
11!
#1660000
0(
0H
00!
0u
01!
#1665000
1(
1H
10!
1u
11!
#1670000
0(
0H
00!
0u
01!
#1675000
1(
1H
10!
1u
11!
#1680000
0(
0H
00!
0u
01!
#1685000
1(
1H
10!
1u
11!
#1690000
0(
0H
00!
0u
01!
#1695000
1(
1H
10!
1u
11!
#1700000
0(
0H
00!
0u
01!
#1705000
1(
1H
10!
1u
11!
#1710000
0(
0H
00!
0u
01!
#1715000
1(
1H
10!
1u
11!
#1720000
0(
0H
00!
0u
01!
#1725000
1(
1H
10!
1u
11!
#1730000
0(
0H
00!
0u
01!
#1735000
1(
1H
10!
1u
11!
#1740000
0(
0H
00!
0u
01!
#1745000
1(
1H
10!
1u
11!
#1750000
0(
0H
00!
0u
01!
#1755000
1(
1H
10!
1u
11!
#1760000
0(
0H
00!
0u
01!
#1765000
1(
1H
10!
1u
11!
#1770000
0(
0H
00!
0u
01!
#1775000
1(
1H
10!
1u
11!
#1780000
0(
0H
00!
0u
01!
#1785000
1(
1H
10!
1u
11!
#1790000
0(
0H
00!
0u
01!
#1795000
1(
1H
10!
1u
11!
#1800000
0(
0H
00!
0u
01!
#1805000
1(
1H
10!
1u
11!
#1810000
0(
0H
00!
0u
01!
#1815000
1(
1H
10!
1u
11!
#1820000
0(
0H
00!
0u
01!
#1825000
1(
1H
10!
1u
11!
#1830000
0(
0H
00!
0u
01!
#1835000
1(
1H
10!
1u
11!
#1840000
0(
0H
00!
0u
01!
#1845000
1(
1H
10!
1u
11!
#1850000
0(
0H
00!
0u
01!
#1855000
1(
1H
10!
1u
11!
#1860000
0(
0H
00!
0u
01!
#1865000
1(
1H
10!
1u
11!
#1870000
0(
0H
00!
0u
01!
#1875000
1(
1H
10!
1u
11!
#1880000
0(
0H
00!
0u
01!
#1885000
1(
1H
10!
1u
11!
#1890000
0(
0H
00!
0u
01!
#1895000
1(
1H
10!
1u
11!
#1900000
0(
0H
00!
0u
01!
#1905000
1(
1H
10!
1u
11!
#1910000
0(
0H
00!
0u
01!
#1915000
1(
1H
10!
1u
11!
#1920000
0(
0H
00!
0u
01!
#1925000
1(
1H
10!
1u
11!
#1930000
0(
0H
00!
0u
01!
#1935000
1(
1H
10!
1u
11!
#1940000
0(
0H
00!
0u
01!
#1945000
1(
1H
10!
1u
11!
#1950000
0(
0H
00!
0u
01!
#1955000
1(
1H
10!
1u
11!
#1960000
0(
0H
00!
0u
01!
#1965000
1(
1H
10!
1u
11!
#1970000
0(
0H
00!
0u
01!
#1975000
1(
1H
10!
1u
11!
#1980000
0(
0H
00!
0u
01!
#1985000
1(
1H
10!
1u
11!
#1990000
0(
0H
00!
0u
01!
#1995000
1(
1H
10!
1u
11!
#2000000
0(
04
0H
0I
03!
00!
0y
0u
01!
04!
05!
07!
1|!
1`!
1d!
06!
#2005000
1(
1H
10!
1u
11!
1^!
1a!
1e!
0b!
1{!
1~
1G
12
#2010000
0(
0H
00!
0u
01!
#2015000
1(
1H
10!
1u
11!
1_!
#2020000
0(
0H
00!
0u
01!
#2025000
1(
1H
10!
1u
11!
#2030000
0(
0H
00!
0u
01!
#2035000
1(
1H
10!
1u
11!
#2040000
0(
0H
00!
0u
01!
#2045000
1(
1H
10!
1u
11!
#2050000
0(
0H
00!
0u
01!
#2055000
1(
1H
10!
1u
11!
#2060000
0(
0H
00!
0u
01!
#2065000
1(
1H
10!
1u
11!
#2070000
0(
0H
00!
0u
01!
#2075000
1(
1H
10!
1u
11!
#2080000
0(
0H
00!
0u
01!
#2085000
1(
1H
10!
1u
11!
#2090000
0(
0H
00!
0u
01!
#2095000
1(
1H
10!
1u
11!
#2100000
0(
0H
00!
0u
01!
#2105000
1(
1H
10!
1u
11!
#2110000
0(
0H
00!
0u
01!
#2115000
1(
1H
10!
1u
11!
#2120000
0(
0H
00!
0u
01!
#2125000
1(
1H
10!
1u
11!
#2130000
0(
0H
00!
0u
01!
#2135000
1(
1H
10!
1u
11!
#2140000
0(
0H
00!
0u
01!
#2145000
1(
1H
10!
1u
11!
#2150000
0(
0H
00!
0u
01!
#2155000
1(
1H
10!
1u
11!
#2160000
0(
0H
00!
0u
01!
#2165000
1(
1H
10!
1u
11!
#2170000
0(
0H
00!
0u
01!
#2175000
1(
1H
10!
1u
11!
#2180000
0(
0H
00!
0u
01!
#2185000
1(
1H
10!
1u
11!
#2190000
0(
0H
00!
0u
01!
#2195000
1(
1H
10!
1u
11!
#2200000
0(
0H
00!
0u
01!
#2205000
1(
1H
10!
1u
11!
#2210000
0(
0H
00!
0u
01!
#2215000
1(
1H
10!
1u
11!
#2220000
0(
0H
00!
0u
01!
#2225000
1(
1H
10!
1u
11!
#2230000
0(
0H
00!
0u
01!
#2235000
1(
1H
10!
1u
11!
#2240000
0(
0H
00!
0u
01!
#2245000
1(
1H
10!
1u
11!
#2250000
0(
0H
00!
0u
01!
#2255000
1(
1H
10!
1u
11!
#2260000
0(
0H
00!
0u
01!
#2265000
1(
1H
10!
1u
11!
#2270000
0(
0H
00!
0u
01!
#2275000
1(
1H
10!
1u
11!
#2280000
0(
0H
00!
0u
01!
#2285000
1(
1H
10!
1u
11!
#2290000
0(
0H
00!
0u
01!
#2295000
1(
1H
10!
1u
11!
#2300000
0(
0H
00!
0u
01!
#2305000
1(
1H
10!
1u
11!
#2310000
0(
0H
00!
0u
01!
#2315000
1(
1H
10!
1u
11!
#2320000
0(
0H
00!
0u
01!
#2325000
1(
1H
10!
1u
11!
#2330000
0(
0H
00!
0u
01!
#2335000
1(
1H
10!
1u
11!
#2340000
0(
0H
00!
0u
01!
#2345000
1(
1H
10!
1u
11!
#2350000
0(
0H
00!
0u
01!
#2355000
1(
1H
10!
1u
11!
#2360000
0(
0H
00!
0u
01!
#2365000
1(
1H
10!
1u
11!
#2370000
0(
0H
00!
0u
01!
#2375000
1(
1H
10!
1u
11!
#2380000
0(
0H
00!
0u
01!
#2385000
1(
1H
10!
1u
11!
#2390000
0(
0H
00!
0u
01!
#2395000
1(
1H
10!
1u
11!
#2400000
0(
0H
00!
0u
01!
#2405000
1(
1H
10!
1u
11!
#2410000
0(
0H
00!
0u
01!
#2415000
1(
1H
10!
1u
11!
#2420000
0(
0H
00!
0u
01!
#2425000
1(
1H
10!
1u
11!
#2430000
0(
0H
00!
0u
01!
#2435000
1(
1H
10!
1u
11!
#2440000
0(
0H
00!
0u
01!
#2445000
1(
1H
10!
1u
11!
#2450000
0(
0H
00!
0u
01!
#2455000
1(
1H
10!
1u
11!
