Tarea_5 _TB/simulation/qsim/Crono.msim.vcd
$comment
	File created using the following command:
		vcd file Crono.msim.vcd -direction
$end
$date
	Mon Mar 22 18:36:11 2021
$end
$version
	ModelSim Version 10.5b
$end
$timescale
	1ps
$end

$scope module crono_vhd_vec_tst $end
$var wire 1 ! clk_i $end
$var wire 1 " enab $end
$var wire 1 # HEX0 [6] $end
$var wire 1 $ HEX0 [5] $end
$var wire 1 % HEX0 [4] $end
$var wire 1 & HEX0 [3] $end
$var wire 1 ' HEX0 [2] $end
$var wire 1 ( HEX0 [1] $end
$var wire 1 ) HEX0 [0] $end
$var wire 1 * rest $end

$scope module i1 $end
$var wire 1 + gnd $end
$var wire 1 , vcc $end
$var wire 1 - unknown $end
$var wire 1 . devoe $end
$var wire 1 / devclrn $end
$var wire 1 0 devpor $end
$var wire 1 1 ww_devoe $end
$var wire 1 2 ww_devclrn $end
$var wire 1 3 ww_devpor $end
$var wire 1 4 ww_rest $end
$var wire 1 5 ww_enab $end
$var wire 1 6 ww_clk_i $end
$var wire 1 7 ww_HEX0 [6] $end
$var wire 1 8 ww_HEX0 [5] $end
$var wire 1 9 ww_HEX0 [4] $end
$var wire 1 : ww_HEX0 [3] $end
$var wire 1 ; ww_HEX0 [2] $end
$var wire 1 < ww_HEX0 [1] $end
$var wire 1 = ww_HEX0 [0] $end
$var wire 1 > \~QUARTUS_CREATED_ADC1~_CHSEL_bus\ [4] $end
$var wire 1 ? \~QUARTUS_CREATED_ADC1~_CHSEL_bus\ [3] $end
$var wire 1 @ \~QUARTUS_CREATED_ADC1~_CHSEL_bus\ [2] $end
$var wire 1 A \~QUARTUS_CREATED_ADC1~_CHSEL_bus\ [1] $end
$var wire 1 B \~QUARTUS_CREATED_ADC1~_CHSEL_bus\ [0] $end
$var wire 1 C \~QUARTUS_CREATED_ADC2~_CHSEL_bus\ [4] $end
$var wire 1 D \~QUARTUS_CREATED_ADC2~_CHSEL_bus\ [3] $end
$var wire 1 E \~QUARTUS_CREATED_ADC2~_CHSEL_bus\ [2] $end
$var wire 1 F \~QUARTUS_CREATED_ADC2~_CHSEL_bus\ [1] $end
$var wire 1 G \~QUARTUS_CREATED_ADC2~_CHSEL_bus\ [0] $end
$var wire 1 H \DIV|clk_sig~clkctrl_INCLK_bus\ [3] $end
$var wire 1 I \DIV|clk_sig~clkctrl_INCLK_bus\ [2] $end
$var wire 1 J \DIV|clk_sig~clkctrl_INCLK_bus\ [1] $end
$var wire 1 K \DIV|clk_sig~clkctrl_INCLK_bus\ [0] $end
$var wire 1 L \clk_i~inputclkctrl_INCLK_bus\ [3] $end
$var wire 1 M \clk_i~inputclkctrl_INCLK_bus\ [2] $end
$var wire 1 N \clk_i~inputclkctrl_INCLK_bus\ [1] $end
$var wire 1 O \clk_i~inputclkctrl_INCLK_bus\ [0] $end
$var wire 1 P \~QUARTUS_CREATED_GND~I_combout\ $end
$var wire 1 Q \~QUARTUS_CREATED_UNVM~~busy\ $end
$var wire 1 R \~QUARTUS_CREATED_ADC1~~eoc\ $end
$var wire 1 S \~QUARTUS_CREATED_ADC2~~eoc\ $end
$var wire 1 T \HEX0[0]~output_o\ $end
$var wire 1 U \HEX0[1]~output_o\ $end
$var wire 1 V \HEX0[2]~output_o\ $end
$var wire 1 W \HEX0[3]~output_o\ $end
$var wire 1 X \HEX0[4]~output_o\ $end
$var wire 1 Y \HEX0[5]~output_o\ $end
$var wire 1 Z \HEX0[6]~output_o\ $end
$var wire 1 [ \clk_i~input_o\ $end
$var wire 1 \ \clk_i~inputclkctrl_outclk\ $end
$var wire 1 ] \DIV|Add0~0_combout\ $end
$var wire 1 ^ \DIV|contador~4_combout\ $end
$var wire 1 _ \DIV|Add0~1\ $end
$var wire 1 ` \DIV|Add0~2_combout\ $end
$var wire 1 a \DIV|Add0~3\ $end
$var wire 1 b \DIV|Add0~4_combout\ $end
$var wire 1 c \DIV|Add0~5\ $end
$var wire 1 d \DIV|Add0~6_combout\ $end
$var wire 1 e \DIV|Add0~7\ $end
$var wire 1 f \DIV|Add0~8_combout\ $end
$var wire 1 g \DIV|Add0~9\ $end
$var wire 1 h \DIV|Add0~10_combout\ $end
$var wire 1 i \DIV|contador~3_combout\ $end
$var wire 1 j \DIV|Add0~11\ $end
$var wire 1 k \DIV|Add0~12_combout\ $end
$var wire 1 l \DIV|Add0~13\ $end
$var wire 1 m \DIV|Add0~14_combout\ $end
$var wire 1 n \DIV|Equal0~2_combout\ $end
$var wire 1 o \DIV|Equal0~1_combout\ $end
$var wire 1 p \DIV|Add0~15\ $end
$var wire 1 q \DIV|Add0~16_combout\ $end
$var wire 1 r \DIV|contador~5_combout\ $end
$var wire 1 s \DIV|Add0~17\ $end
$var wire 1 t \DIV|Add0~18_combout\ $end
$var wire 1 u \DIV|Add0~19\ $end
$var wire 1 v \DIV|Add0~20_combout\ $end
$var wire 1 w \DIV|Add0~21\ $end
$var wire 1 x \DIV|Add0~22_combout\ $end
$var wire 1 y \DIV|Add0~23\ $end
$var wire 1 z \DIV|Add0~24_combout\ $end
$var wire 1 { \DIV|Add0~25\ $end
$var wire 1 | \DIV|Add0~26_combout\ $end
$var wire 1 } \DIV|contador~6_combout\ $end
$var wire 1 ~ \DIV|Add0~27\ $end
$var wire 1 !! \DIV|Add0~28_combout\ $end
$var wire 1 "! \DIV|Add0~29\ $end
$var wire 1 #! \DIV|Add0~30_combout\ $end
$var wire 1 $! \DIV|contador~7_combout\ $end
$var wire 1 %! \DIV|Equal0~4_combout\ $end
$var wire 1 &! \DIV|Equal0~3_combout\ $end
$var wire 1 '! \DIV|Equal0~5_combout\ $end
$var wire 1 (! \DIV|Add0~31\ $end
$var wire 1 )! \DIV|Add0~32_combout\ $end
$var wire 1 *! \DIV|contador~0_combout\ $end
$var wire 1 +! \DIV|Add0~33\ $end
$var wire 1 ,! \DIV|Add0~34_combout\ $end
$var wire 1 -! \DIV|contador~1_combout\ $end
$var wire 1 .! \DIV|Add0~35\ $end
$var wire 1 /! \DIV|Add0~36_combout\ $end
$var wire 1 0! \DIV|contador~2_combout\ $end
$var wire 1 1! \DIV|Equal0~0_combout\ $end
$var wire 1 2! \DIV|clk_sig~0_combout\ $end
$var wire 1 3! \DIV|clk_sig~feeder_combout\ $end
$var wire 1 4! \DIV|clk_sig~q\ $end
$var wire 1 5! \DIV|clk_sig~clkctrl_outclk\ $end
$var wire 1 6! \enab~input_o\ $end
$var wire 1 7! \MOD10_1|Qt[0]~0_combout\ $end
$var wire 1 8! \rest~input_o\ $end
$var wire 1 9! \MOD10_1|Qt[1]~1_combout\ $end
$var wire 1 :! \MOD10_1|Qt[2]~2_combout\ $end
$var wire 1 ;! \MOD10_1|Qt[3]~3_combout\ $end
$var wire 1 <! \MOD10_1|Qt[3]~4_combout\ $end
$var wire 1 =! \SEG7_1|Mux6~0_combout\ $end
$var wire 1 >! \SEG7_1|Mux5~0_combout\ $end
$var wire 1 ?! \SEG7_1|Mux4~0_combout\ $end
$var wire 1 @! \SEG7_1|Mux3~0_combout\ $end
$var wire 1 A! \SEG7_1|Mux2~0_combout\ $end
$var wire 1 B! \SEG7_1|Mux1~0_combout\ $end
$var wire 1 C! \SEG7_1|Mux0~0_combout\ $end
$var wire 1 D! \MOD10_1|Qt\ [3] $end
$var wire 1 E! \MOD10_1|Qt\ [2] $end
$var wire 1 F! \MOD10_1|Qt\ [1] $end
$var wire 1 G! \MOD10_1|Qt\ [0] $end
$var wire 1 H! \DIV|contador\ [18] $end
$var wire 1 I! \DIV|contador\ [17] $end
$var wire 1 J! \DIV|contador\ [16] $end
$var wire 1 K! \DIV|contador\ [15] $end
$var wire 1 L! \DIV|contador\ [14] $end
$var wire 1 M! \DIV|contador\ [13] $end
$var wire 1 N! \DIV|contador\ [12] $end
$var wire 1 O! \DIV|contador\ [11] $end
$var wire 1 P! \DIV|contador\ [10] $end
$var wire 1 Q! \DIV|contador\ [9] $end
$var wire 1 R! \DIV|contador\ [8] $end
$var wire 1 S! \DIV|contador\ [7] $end
$var wire 1 T! \DIV|contador\ [6] $end
$var wire 1 U! \DIV|contador\ [5] $end
$var wire 1 V! \DIV|contador\ [4] $end
$var wire 1 W! \DIV|contador\ [3] $end
$var wire 1 X! \DIV|contador\ [2] $end
$var wire 1 Y! \DIV|contador\ [1] $end
$var wire 1 Z! \DIV|contador\ [0] $end
$var wire 1 [! \SEG7_1|ALT_INV_Mux0~0_combout\ $end
$upscope $end
$upscope $end
$enddefinitions $end
#0
$dumpvars
0!
1"
1*
0+
1,
x-
1.
1/
10
11
12
13
14
15
06
0P
zQ
zR
zS
0T
0U
0V
0W
0X
0Y
1Z
0[
0\
1]
1^
0_
0`
1a
0b
0c
0d
1e
0f
0g
0h
0i
1j
0k
0l
0m
1n
0o
1p
0q
0r
0s
0t
1u
0v
0w
0x
1y
0z
0{
0|
0}
1~
0!!
0"!
0#!
0$!
0%!
0&!
0'!
1(!
0)!
0*!
0+!
0,!
0-!
1.!
0/!
00!
01!
02!
03!
04!
05!
16!
17!
18!
09!
0:!
0;!
0<!
0=!
0>!
0?!
0@!
0A!
0B!
0C!
1[!
17
08
09
0:
0;
0<
0=
0D!
0E!
0F!
0G!
0H!
0I!
0J!
0K!
0L!
0M!
0N!
0O!
0P!
0Q!
0R!
0S!
0T!
0U!
0V!
0W!
0X!
0Y!
0Z!
1L
1M
1N
0O
1H
1I
1J
0K
0>
0?
0@
0A
0B
0C
0D
0E
0F
0G
1#
0$
0%
0&
0'
0(
0)
$end
#500000
1!
16
1[
1O
1\
1Z!
0]
1_
0n
1`
0^
#1000000
0!
06
0[
0O
0\
#1500000
1!
16
1[
1O
1\
0Z!
1Y!
0`
0a
1]
0_
1`
1a
1^
1b
0b
#2000000
0!
06
0[
0O
0\
#2500000
1!
16
1[
1O
1\
1Z!
0]
1_
0`
0a
0^
1b
#3000000
0!
06
0[
0O
0\
#3500000
1!
16
1[
1O
1\
0Z!
0Y!
1X!
0b
1c
1`
1a
1]
0_
0`
1^
1b
0c
1d
0d
#4000000
0!
06
0[
0O
0\
#4500000
1!
16
1[
1O
1\
1Z!
0]
1_
1`
0^
#5000000
0!
06
0[
0O
0\
#5500000
1!
16
1[
1O
1\
0Z!
1Y!
0`
0a
1]
0_
1`
1a
1^
0b
1c
1d
1b
0c
0d
#6000000
0!
06
0[
0O
0\
#6500000
1!
16
1[
1O
1\
1Z!
0]
1_
0`
0a
0^
0b
1c
1d
#7000000
0!
06
0[
0O
0\
#7500000
1!
16
1[
1O
1\
0Z!
0Y!
0X!
1W!
0d
0e
1b
0c
1`
1a
1]
0_
1n
0`
1^
0b
1d
1e
1f
0f
#8000000
0!
06
0[
0O
0\
#8500000
1!
16
1[
1O
1\
1Z!
0]
1_
0n
1`
0^
#9000000
0!
06
0[
0O
0\
#9500000
1!
16
1[
1O
1\
0Z!
1Y!
0`
0a
1]
0_
1`
1a
1^
1b
0b
#10000000
0!
06
0[
0O
0\
#10500000
1!
16
1[
1O
1\
1Z!
0]
1_
0`
0a
0^
1b
#11000000
0!
06
0[
0O
0\
#11500000
1!
16
1[
1O
1\
0Z!
0Y!
1X!
0b
1c
1`
1a
1]
0_
0`
1^
1b
0c
0d
0e
1f
1d
1e
0f
#12000000
0!
06
0[
0O
0\
#12500000
1!
16
1[
1O
1\
1Z!
0]
1_
1`
0^
#13000000
0!
06
0[
0O
0\
#13500000
1!
16
1[
1O
1\
0Z!
1Y!
0`
0a
1]
0_
1`
1a
1^
0b
1c
0d
0e
1b
0c
1d
1e
1f
0f
#14000000
0!
06
0[
0O
0\
#14500000
1!
16
1[
1O
1\
1Z!
0]
1_
0`
0a
0^
0b
1c
0d
0e
1f
#15000000
0!
06
0[
0O
0\
#15500000
1!
16
1[
1O
1\
0Z!
0Y!
0X!
0W!
1V!
0f
1g
1d
1e
1b
0c
1`
1a
1]
0_
1n
0`
1^
0b
0d
1f
0g
1h
1i
0h
0i
#16000000
0!
06
0[
0O
0\
#16500000
1!
16
1[
1O
1\
1Z!
0]
1_
0n
1`
0^
#17000000
0!
06
0[
0O
0\
#17500000
1!
16
1[
1O
1\
0Z!
1Y!
0`
0a
1]
0_
1`
1a
1^
1b
0b
#18000000
0!
06
0[
0O
0\
#18500000
1!
16
1[
1O
1\
1Z!
0]
1_
0`
0a
0^
1b
#19000000
0!
06
0[
0O
0\
#19500000
1!
16
1[
1O
1\
0Z!
0Y!
1X!
0b
1c
1`
1a
1]
0_
0`
1^
1b
0c
1d
0d
#20000000
0!
06
0[
0O
0\
#20500000
1!
16
1[
1O
1\
1Z!
0]
1_
1`
0^
#21000000
0!
06
0[
0O
0\
#21500000
1!
16
1[
1O
1\
0Z!
1Y!
0`
0a
1]
0_
1`
1a
1^
0b
1c
1d
1b
0c
0d
#22000000
0!
06
0[
0O
0\
#22500000
1!
16
1[
1O
1\
1Z!
0]
1_
0`
0a
0^
0b
1c
1d
#23000000
0!
06
0[
0O
0\
#23500000
1!
16
1[
1O
1\
0Z!
0Y!
0X!
1W!
0d
0e
1b
0c
1`
1a
1]
0_
1n
0`
1^
0b
1d
1e
0f
1g
1h
1f
0g
0h
1i
0i
#24000000
0!
06
0[
0O
0\
#24500000
1!
16
1[
1O
1\
1Z!
0]
1_
0n
1`
0^
#25000000
0!
06
0[
0O
0\
#25500000
1!
16
1[
1O
1\
0Z!
1Y!
0`
0a
1]
0_
1`
1a
1^
1b
0b
#26000000
0!
06
0[
0O
0\
#26500000
1!
16
1[
1O
1\
1Z!
0]
1_
0`
0a
0^
1b
#27000000
0!
06
0[
0O
0\
#27500000
1!
16
1[
1O
1\
0Z!
0Y!
1X!
0b
1c
1`
1a
1]
0_
0`
1^
1b
0c
0d
0e
0f
1g
1d
1e
1f
0g
1h
1i
0h
0i
#28000000
0!
06
0[
0O
0\
#28500000
1!
16
1[
1O
1\
1Z!
0]
1_
1`
0^
#29000000
0!
06
0[
0O
0\
#29500000
1!
16
1[
1O
1\
0Z!
1Y!
0`
0a
1]
0_
1`
1a
1^
0b
1c
0d
0e
1b
0c
1d
1e
0f
1g
1h
1f
0g
0h
1i
0i
#30000000
0!
06
0[
0O
0\
#30500000
1!
16
1[
1O
1\
1Z!
0]
1_
0`
0a
0^
0b
1c
0d
0e
0f
1g
1h
1i
#31000000
0!
06
0[
0O
0\
#31500000
1!
16
1[
1O
1\
0Z!
0Y!
0X!
0W!
0V!
1U!
0h
0j
1f
0g
1d
1e
1o
1b
0c
1`
1a
1]
0_
1n
0`
1^
0b
0d
0f
1h
1j
1k
0i
0k
1i
#32000000
0!
06
0[
0O
0\
#32500000
1!
16
1[
1O
1\
1Z!
0]
1_
0n
1`
0^
#33000000
0!
06
0[
0O
0\
#33500000
1!
16
1[
1O
1\
0Z!
1Y!
0`
0a
1]
0_
1`
1a
1^
1b
0b
#34000000
0!
06
0[
0O
0\
#34500000
1!
16
1[
1O
1\
1Z!
0]
1_
0`
0a
0^
1b
#35000000
0!
06
0[
0O
0\
#35500000
1!
16
1[
1O
1\
0Z!
0Y!
1X!
0b
1c
1`
1a
1]
0_
0`
1^
1b
0c
1d
0d
#36000000
0!
06
0[
0O
0\
#36500000
1!
16
1[
1O
1\
1Z!
0]
1_
1`
0^
#37000000
0!
06
0[
0O
0\
#37500000
1!
16
1[
1O
1\
0Z!
1Y!
0`
0a
1]
0_
1`
1a
1^
0b
1c
1d
1b
0c
0d
#38000000
0!
06
0[
0O
0\
#38500000
1!
16
1[
1O
1\
1Z!
0]
1_
0`
0a
0^
0b
1c
1d
#39000000
0!
06
0[
0O
0\
#39500000
1!
16
1[
1O
1\
0Z!
0Y!
0X!
1W!
0d
0e
0o
1b
0c
1`
1a
1]
0_
1n
0`
1^
0b
1d
1e
1f
0f
#40000000
0!
06
0[
0O
0\
#40500000
1!
16
1[
1O
1\
1Z!
0]
1_
0n
1`
0^
#41000000
0!
06
0[
0O
0\
#41500000
1!
16
1[
1O
1\
0Z!
1Y!
0`
0a
1]
0_
1`
1a
1^
1b
0b
#42000000
0!
06
0[
0O
0\
#42500000
1!
16
1[
1O
1\
1Z!
0]
1_
0`
0a
0^
1b
#43000000
0!
06
0[
0O
0\
#43500000
1!
16
1[
1O
1\
0Z!
0Y!
1X!
0b
1c
1`
1a
1]
0_
0`
1^
1b
0c
0d
0e
1f
1d
1e
0f
#44000000
0!
06
0[
0O
0\
#44500000
1!
16
1[
1O
1\
1Z!
0]
1_
1`
0^
#45000000
0!
06
0[
0O
0\
#45500000
1!
16
1[
1O
1\
0Z!
1Y!
0`
0a
1]
0_
1`
1a
1^
0b
1c
0d
0e
1b
0c
1d
1e
1f
0f
#46000000
0!
06
0[
0O
0\
#46500000
1!
16
1[
1O
1\
1Z!
0]
1_
0`
0a
0^
0b
1c
0d
0e
1f
#47000000
0!
06
0[
0O
0\
#47500000
1!
16
1[
1O
1\
0Z!
0Y!
0X!
0W!
1V!
0f
1g
1d
1e
1b
0c
1`
1a
1]
0_
1n
0`
1^
0b
0d
1f
0g
0h
0j
1k
0i
1h
1j
0k
1i
#48000000
0!
06
0[
0O
0\
#48500000
1!
16
1[
1O
1\
1Z!
0]
1_
0n
1`
0^
#49000000
0!
06
0[
0O
0\
#49500000
1!
16
1[
1O
1\
0Z!
1Y!
0`
0a
1]
0_
1`
1a
1^
1b
0b
#50000000
0!
06
0[
0O
0\
#50500000
1!
16
1[
1O
1\
1Z!
0]
1_
0`
0a
0^
1b
#51000000
0!
06
0[
0O
0\
#51500000
1!
16
1[
1O
1\
0Z!
0Y!
1X!
0b
1c
1`
1a
1]
0_
0`
1^
1b
0c
1d
0d
#52000000
0!
06
0[
0O
0\
#52500000
1!
16
1[
1O
1\
1Z!
0]
1_
1`
0^
#53000000
0!
06
0[
0O
0\
#53500000
1!
16
1[
1O
1\
0Z!
1Y!
0`
0a
1]
0_
1`
1a
1^
0b
1c
1d
1b
0c
0d
#54000000
0!
06
0[
0O
0\
#54500000
1!
16
1[
1O
1\
1Z!
0]
1_
0`
0a
0^
0b
1c
1d
#55000000
0!
06
0[
0O
0\
#55500000
1!
16
1[
1O
1\
0Z!
0Y!
0X!
1W!
0d
0e
1b
0c
1`
1a
1]
0_
1n
0`
1^
0b
1d
1e
0f
1g
0h
0j
1f
0g
1h
1j
1k
0i
0k
1i
#56000000
0!
06
0[
0O
0\
#56500000
1!
16
1[
1O
1\
1Z!
0]
1_
0n
1`
0^
#57000000
0!
06
0[
0O
0\
#57500000
1!
16
1[
1O
1\
0Z!
1Y!
0`
0a
1]
0_
1`
1a
1^
1b
0b
#58000000
0!
06
0[
0O
0\
#58500000
1!
16
1[
1O
1\
1Z!
0]
1_
0`
0a
0^
1b
#59000000
0!
06
0[
0O
0\
#59500000
1!
16
1[
1O
1\
0Z!
0Y!
1X!
0b
1c
1`
1a
1]
0_
0`
1^
1b
0c
0d
0e
0f
1g
1d
1e
1f
0g
0h
0j
1k
0i
1h
1j
0k
1i
#60000000
0!
06
0[
0O
0\
#60500000
1!
16
1[
1O
1\
1Z!
0]
1_
1`
0^
#61000000
0!
06
0[
0O
0\
#61500000
1!
16
1[
1O
1\
0Z!
1Y!
0`
0a
1]
0_
1`
1a
1^
0b
1c
0d
0e
1b
0c
1d
1e
0f
1g
0h
0j
1f
0g
1h
1j
1k
0i
0k
1i
#62000000
0!
06
0[
0O
0\
#62500000
1!
16
1[
1O
1\
1Z!
0]
1_
0`
0a
0^
0b
1c
0d
0e
0f
1g
0h
0j
1k
0i
#63000000
0!
06
0[
0O
0\
#63500000
1!
16
1[
1O
1\
0Z!
0Y!
0X!
0W!
0V!
0U!
1T!
0k
1l
1h
1j
1f
0g
1d
1e
1b
0c
1`
1a
1]
0_
1n
0`
1^
0b
0d
0f
0h
1k
0l
1i
1m
0m
0i
#64000000
0!
06
0[
0O
0\
#64500000
1!
16
1[
1O
1\
1Z!
0]
1_
0n
1`
0^
#65000000
0!
06
0[
0O
0\
#65500000
1!
16
1[
1O
1\
0Z!
1Y!
0`
0a
1]
0_
1`
1a
1^
1b
0b
#66000000
0!
06
0[
0O
0\
#66500000
1!
16
1[
1O
1\
1Z!
0]
1_
0`
0a
0^
1b
#67000000
0!
06
0[
0O
0\
#67500000
1!
16
1[
1O
1\
0Z!
0Y!
1X!
0b
1c
1`
1a
1]
0_
0`
1^
1b
0c
1d
0d
#68000000
0!
06
0[
0O
0\
#68500000
1!
16
1[
1O
1\
1Z!
0]
1_
1`
0^
#69000000
0!
06
0[
0O
0\
#69500000
1!
16
1[
1O
1\
0Z!
1Y!
0`
0a
1]
0_
1`
1a
1^
0b
1c
1d
1b
0c
0d
#70000000
0!
06
0[
0O
0\
#70500000
1!
16
1[
1O
1\
1Z!
0]
1_
0`
0a
0^
0b
1c
1d
#71000000
0!
06
0[
0O
0\
#71500000
1!
16
1[
1O
1\
0Z!
0Y!
0X!
1W!
0d
0e
1b
0c
1`
1a
1]
0_
1n
0`
1^
0b
1d
1e
1f
0f
#72000000
0!
06
0[
0O
0\
#72500000
1!
16
1[
1O
1\
1Z!
0]
1_
0n
1`
0^
#73000000
0!
06
0[
0O
0\
#73500000
1!
16
1[
1O
1\
0Z!
1Y!
0`
0a
1]
0_
1`
1a
1^
1b
0b
#74000000
0!
06
0[
0O
0\
#74500000
1!
16
1[
1O
1\
1Z!
0]
1_
0`
0a
0^
1b
#75000000
0!
06
0[
0O
0\
#75500000
1!
16
1[
1O
1\
0Z!
0Y!
1X!
0b
1c
1`
1a
1]
0_
0`
1^
1b
0c
0d
0e
1f
1d
1e
0f
#76000000
0!
06
0[
0O
0\
#76500000
1!
16
1[
1O
1\
1Z!
0]
1_
1`
0^
#77000000
0!
06
0[
0O
0\
#77500000
1!
16
1[
1O
1\
0Z!
1Y!
0`
0a
1]
0_
1`
1a
1^
0b
1c
0d
0e
1b
0c
1d
1e
1f
0f
#78000000
0!
06
0[
0O
0\
#78500000
1!
16
1[
1O
1\
1Z!
0]
1_
0`
0a
0^
0b
1c
0d
0e
1f
#79000000
0!
06
0[
0O
0\
#79500000
1!
16
1[
1O
1\
0Z!
0Y!
0X!
0W!
1V!
0f
1g
1d
1e
1b
0c
1`
1a
1]
0_
1n
0`
1^
0b
0d
1f
0g
1h
1i
0h
0i
#80000000
0!
06
0[
0O
0\
#80500000
1!
16
1[
1O
1\
1Z!
0]
1_
0n
1`
0^
#81000000
0!
06
0[
0O
0\
#81500000
1!
16
1[
1O
1\
0Z!
1Y!
0`
0a
1]
0_
1`
1a
1^
1b
0b
#82000000
0!
06
0[
0O
0\
#82500000
1!
16
1[
1O
1\
1Z!
0]
1_
0`
0a
0^
1b
#83000000
0!
06
0[
0O
0\
#83500000
1!
16
1[
1O
1\
0Z!
0Y!
1X!
0b
1c
1`
1a
1]
0_
0`
1^
1b
0c
1d
0d
#84000000
0!
06
0[
0O
0\
#84500000
1!
16
1[
1O
1\
1Z!
0]
1_
1`
0^
#85000000
0!
06
0[
0O
0\
#85500000
1!
16
1[
1O
1\
0Z!
1Y!
0`
0a
1]
0_
1`
1a
1^
0b
1c
1d
1b
0c
0d
#86000000
0!
06
0[
0O
0\
#86500000
1!
16
1[
1O
1\
1Z!
0]
1_
0`
0a
0^
0b
1c
1d
#87000000
0!
06
0[
0O
0\
#87500000
1!
16
1[
1O
1\
0Z!
0Y!
0X!
1W!
0d
0e
1b
0c
1`
1a
1]
0_
1n
0`
1^
0b
1d
1e
0f
1g
1h
1f
0g
0h
1i
0i
#88000000
0!
06
0[
0O
0\
#88500000
1!
16
1[
1O
1\
1Z!
0]
1_
0n
1`
0^
#89000000
0!
06
0[
0O
0\
#89500000
1!
16
1[
1O
1\
0Z!
1Y!
0`
0a
1]
0_
1`
1a
1^
1b
0b
#90000000
0!
06
0[
0O
0\
#90500000
1!
16
1[
1O
1\
1Z!
0]
1_
0`
0a
0^
1b
#91000000
0!
06
0[
0O
0\
#91500000
1!
16
1[
1O
1\
0Z!
0Y!
1X!
0b
1c
1`
1a
1]
0_
0`
1^
1b
0c
0d
0e
0f
1g
1d
1e
1f
0g
1h
1i
0h
0i
#92000000
0!
06
0[
0O
0\
#92500000
1!
16
1[
1O
1\
1Z!
0]
1_
1`
0^
#93000000
0!
06
0[
0O
0\
#93500000
1!
16
1[
1O
1\
0Z!
1Y!
0`
0a
1]
0_
1`
1a
1^
0b
1c
0d
0e
1b
0c
1d
1e
0f
1g
1h
1f
0g
0h
1i
0i
#94000000
0!
06
0[
0O
0\
#94500000
1!
16
1[
1O
1\
1Z!
0]
1_
0`
0a
0^
0b
1c
0d
0e
0f
1g
1h
1i
#95000000
0!
06
0[
0O
0\
#95500000
1!
16
1[
1O
1\
0Z!
0Y!
0X!
0W!
0V!
1U!
0h
0j
1f
0g
1d
1e
1b
0c
1`
1a
1]
0_
1n
0`
1^
0b
0d
0f
1h
1j
0k
1l
0i
1m
1k
0l
1i
0m
#96000000
0!
06
0[
0O
0\
#96500000
1!
16
1[
1O
1\
1Z!
0]
1_
0n
1`
0^
#97000000
0!
06
0[
0O
0\
#97500000
1!
16
1[
1O
1\
0Z!
1Y!
0`
0a
1]
0_
1`
1a
1^
1b
0b
#98000000
0!
06
0[
0O
0\
#98500000
1!
16
1[
1O
1\
1Z!
0]
1_
0`
0a
0^
1b
#99000000
0!
06
0[
0O
0\
#99500000
1!
16
1[
1O
1\
0Z!
0Y!
1X!
0b
1c
1`
1a
1]
0_
0`
1^
1b
0c
1d
0d
