Tarea_1/simulation/qsim/Adder_4b.msim.vcd
$comment
	File created using the following command:
		vcd file Adder_4b.msim.vcd -direction
$end
$date
	Mon Mar 08 12:57:58 2021
$end
$version
	ModelSim Version 10.5b
$end
$timescale
	1ps
$end

$scope module adder_4b_vhd_vec_tst $end
$var wire 1 ! A [3] $end
$var wire 1 " A [2] $end
$var wire 1 # A [1] $end
$var wire 1 $ A [0] $end
$var wire 1 % Aa $end
$var wire 1 & Ab $end
$var wire 1 ' Ac $end
$var wire 1 ( Ad $end
$var wire 1 ) Ae $end
$var wire 1 * Af $end
$var wire 1 + Ag $end
$var wire 1 , B [3] $end
$var wire 1 - B [2] $end
$var wire 1 . B [1] $end
$var wire 1 / B [0] $end
$var wire 1 0 Ba $end
$var wire 1 1 Bb $end
$var wire 1 2 Bc $end
$var wire 1 3 Bd $end
$var wire 1 4 Be $end
$var wire 1 5 Bf $end
$var wire 1 6 Bg $end
$var wire 1 7 Cin $end
$var wire 1 8 Cout $end
$var wire 1 9 S [3] $end
$var wire 1 : S [2] $end
$var wire 1 ; S [1] $end
$var wire 1 < S [0] $end
$var wire 1 = Sa $end
$var wire 1 > Sb $end
$var wire 1 ? Sc $end
$var wire 1 @ Sd $end
$var wire 1 A Se $end
$var wire 1 B Sf $end
$var wire 1 C Sg $end

$scope module i1 $end
$var wire 1 D gnd $end
$var wire 1 E vcc $end
$var wire 1 F unknown $end
$var wire 1 G devoe $end
$var wire 1 H devclrn $end
$var wire 1 I devpor $end
$var wire 1 J ww_devoe $end
$var wire 1 K ww_devclrn $end
$var wire 1 L ww_devpor $end
$var wire 1 M ww_Cout $end
$var wire 1 N ww_Cin $end
$var wire 1 O ww_A [3] $end
$var wire 1 P ww_A [2] $end
$var wire 1 Q ww_A [1] $end
$var wire 1 R ww_A [0] $end
$var wire 1 S ww_B [3] $end
$var wire 1 T ww_B [2] $end
$var wire 1 U ww_B [1] $end
$var wire 1 V ww_B [0] $end
$var wire 1 W ww_Aa $end
$var wire 1 X ww_Ab $end
$var wire 1 Y ww_Ac $end
$var wire 1 Z ww_Ad $end
$var wire 1 [ ww_Ae $end
$var wire 1 \ ww_Af $end
$var wire 1 ] ww_Ag $end
$var wire 1 ^ ww_Ba $end
$var wire 1 _ ww_Bb $end
$var wire 1 ` ww_Bc $end
$var wire 1 a ww_Bd $end
$var wire 1 b ww_Be $end
$var wire 1 c ww_Bf $end
$var wire 1 d ww_Bg $end
$var wire 1 e ww_Sa $end
$var wire 1 f ww_S [3] $end
$var wire 1 g ww_S [2] $end
$var wire 1 h ww_S [1] $end
$var wire 1 i ww_S [0] $end
$var wire 1 j ww_Sb $end
$var wire 1 k ww_Sc $end
$var wire 1 l ww_Sd $end
$var wire 1 m ww_Se $end
$var wire 1 n ww_Sf $end
$var wire 1 o ww_Sg $end
$var wire 1 p \~QUARTUS_CREATED_ADC1~_CHSEL_bus\ [4] $end
$var wire 1 q \~QUARTUS_CREATED_ADC1~_CHSEL_bus\ [3] $end
$var wire 1 r \~QUARTUS_CREATED_ADC1~_CHSEL_bus\ [2] $end
$var wire 1 s \~QUARTUS_CREATED_ADC1~_CHSEL_bus\ [1] $end
$var wire 1 t \~QUARTUS_CREATED_ADC1~_CHSEL_bus\ [0] $end
$var wire 1 u \~QUARTUS_CREATED_ADC2~_CHSEL_bus\ [4] $end
$var wire 1 v \~QUARTUS_CREATED_ADC2~_CHSEL_bus\ [3] $end
$var wire 1 w \~QUARTUS_CREATED_ADC2~_CHSEL_bus\ [2] $end
$var wire 1 x \~QUARTUS_CREATED_ADC2~_CHSEL_bus\ [1] $end
$var wire 1 y \~QUARTUS_CREATED_ADC2~_CHSEL_bus\ [0] $end
$var wire 1 z \~QUARTUS_CREATED_GND~I_combout\ $end
$var wire 1 { \~QUARTUS_CREATED_UNVM~~busy\ $end
$var wire 1 | \~QUARTUS_CREATED_ADC1~~eoc\ $end
$var wire 1 } \~QUARTUS_CREATED_ADC2~~eoc\ $end
$var wire 1 ~ \Cout~output_o\ $end
$var wire 1 !! \Aa~output_o\ $end
$var wire 1 "! \Ab~output_o\ $end
$var wire 1 #! \Ac~output_o\ $end
$var wire 1 $! \Ad~output_o\ $end
$var wire 1 %! \Ae~output_o\ $end
$var wire 1 &! \Af~output_o\ $end
$var wire 1 '! \Ag~output_o\ $end
$var wire 1 (! \Ba~output_o\ $end
$var wire 1 )! \Bb~output_o\ $end
$var wire 1 *! \Bc~output_o\ $end
$var wire 1 +! \Bd~output_o\ $end
$var wire 1 ,! \Be~output_o\ $end
$var wire 1 -! \Bf~output_o\ $end
$var wire 1 .! \Bg~output_o\ $end
$var wire 1 /! \Sa~output_o\ $end
$var wire 1 0! \S[3]~output_o\ $end
$var wire 1 1! \S[2]~output_o\ $end
$var wire 1 2! \S[1]~output_o\ $end
$var wire 1 3! \S[0]~output_o\ $end
$var wire 1 4! \Sb~output_o\ $end
$var wire 1 5! \Sc~output_o\ $end
$var wire 1 6! \Sd~output_o\ $end
$var wire 1 7! \Se~output_o\ $end
$var wire 1 8! \Sf~output_o\ $end
$var wire 1 9! \Sg~output_o\ $end
$var wire 1 :! \A[3]~input_o\ $end
$var wire 1 ;! \B[2]~input_o\ $end
$var wire 1 <! \A[2]~input_o\ $end
$var wire 1 =! \inst|inst2|inst2~0_combout\ $end
$var wire 1 >! \B[0]~input_o\ $end
$var wire 1 ?! \Cin~input_o\ $end
$var wire 1 @! \A[0]~input_o\ $end
$var wire 1 A! \inst|inst|inst2~1_combout\ $end
$var wire 1 B! \A[1]~input_o\ $end
$var wire 1 C! \inst|inst|inst2~0_combout\ $end
$var wire 1 D! \B[1]~input_o\ $end
$var wire 1 E! \inst|inst1|inst2~0_combout\ $end
$var wire 1 F! \inst|inst2|inst2~1_combout\ $end
$var wire 1 G! \B[3]~input_o\ $end
$var wire 1 H! \inst|inst3|inst2~0_combout\ $end
$var wire 1 I! \inst1|81~combout\ $end
$var wire 1 J! \inst1|82~0_combout\ $end
$var wire 1 K! \inst1|83~combout\ $end
$var wire 1 L! \inst1|84~0_combout\ $end
$var wire 1 M! \inst1|85~combout\ $end
$var wire 1 N! \inst1|86~0_combout\ $end
$var wire 1 O! \inst1|87~combout\ $end
$var wire 1 P! \inst5|81~combout\ $end
$var wire 1 Q! \inst5|82~0_combout\ $end
$var wire 1 R! \inst5|83~combout\ $end
$var wire 1 S! \inst5|84~0_combout\ $end
$var wire 1 T! \inst5|85~combout\ $end
$var wire 1 U! \inst5|86~0_combout\ $end
$var wire 1 V! \inst5|87~combout\ $end
$var wire 1 W! \inst|inst1|inst1|inst~combout\ $end
$var wire 1 X! \inst|inst2|inst1|inst~0_combout\ $end
$var wire 1 Y! \inst|inst|inst1|inst~0_combout\ $end
$var wire 1 Z! \inst|inst3|inst1|inst~combout\ $end
$var wire 1 [! \inst6|81~0_combout\ $end
$var wire 1 \! \inst6|82~0_combout\ $end
$var wire 1 ]! \inst6|83~combout\ $end
$var wire 1 ^! \inst6|84~0_combout\ $end
$var wire 1 _! \inst6|85~combout\ $end
$var wire 1 `! \inst6|86~0_combout\ $end
$var wire 1 a! \inst6|87~combout\ $end
$upscope $end
$upscope $end
$enddefinitions $end
#0
$dumpvars
0%
0&
0'
0(
0)
0*
1+
00
01
02
03
04
05
16
07
08
0=
0>
0?
0@
0A
0B
1C
0D
1E
xF
1G
1H
1I
1J
1K
1L
0M
0N
0W
0X
0Y
0Z
0[
0\
1]
0^
0_
0`
0a
0b
0c
1d
0e
0j
0k
0l
0m
0n
1o
0z
z{
z|
z}
0~
0!!
0"!
0#!
0$!
0%!
0&!
1'!
0(!
0)!
0*!
0+!
0,!
0-!
1.!
0/!
00!
01!
02!
03!
04!
05!
06!
07!
08!
19!
0:!
0;!
0<!
0=!
0>!
0?!
0@!
0A!
0B!
0C!
0D!
0E!
0F!
0G!
0H!
0I!
0J!
0K!
0L!
0M!
0N!
1O!
0P!
0Q!
0R!
0S!
0T!
0U!
1V!
0W!
0X!
0Y!
0Z!
0[!
0\!
0]!
0^!
0_!
0`!
1a!
0!
0"
0#
0$
0,
0-
0.
0/
0O
0P
0Q
0R
0S
0T
0U
0V
0f
0g
0h
0i
0p
0q
0r
0s
0t
0u
0v
0w
0x
0y
09
0:
0;
0<
$end
#70000
1$
1/
1R
1V
1>!
1@!
1I!
1L!
1M!
1N!
1A!
1P!
1S!
1T!
1U!
1-!
1,!
1+!
1(!
1&!
1%!
1$!
1!!
1W!
1c
1b
1a
1^
1\
1[
1Z
1W
12!
1]!
1`!
0a!
15
14
13
10
1*
1)
1(
1%
1h
09!
18!
15!
1;
0o
1n
1k
0C
1B
1?
#110000
0$
1"
1.
0R
1P
1U
1D!
1<!
0@!
0A!
1Y!
0N!
0O!
1X!
1E!
0P!
0S!
0V!
0W!
02!
0.!
0+!
0(!
11!
0'!
0&!
13!
1F!
0X!
1\!
0]!
1_!
0`!
0E!
1W!
0h
0d
0a
0^
1g
0]
0\
1i
12!
08!
17!
05!
14!
01!
0F!
1X!
0\!
1`!
1Z!
1<
0;
1:
06
03
00
0+
0*
1h
0n
1m
0k
1j
0g
10!
18!
04!
11!
1[!
1\!
1]!
1^!
1a!
0Z!
1;
0:
0B
1A
0?
1>
1f
1n
0j
1g
00!
19!
16!
15!
14!
1/!
0[!
0\!
0]!
1:
19
1B
0>
0f
1o
1l
1k
1j
1e
05!
04!
0/!
09
1C
1@
1?
1>
1=
0k
0j
0e
0?
0>
0=
#170000
0"
0.
1#
1Q
0P
0U
0D!
0<!
1B!
0I!
1K!
0L!
0M!
1N!
0X!
1P!
1S!
1V!
1.!
1+!
1(!
01!
1&!
0%!
0$!
1#!
0!!
0^!
0a!
1d
1a
1^
0g
1\
0[
0Z
1Y
0W
09!
06!
16
13
10
0:
1*
0)
0(
1'
0%
0o
0l
0C
0@
#250000
1$
0/
1!
1-
1R
1O
0V
1T
1;!
0>!
1:!
1@!
1M!
1I!
1J!
0K!
1Z!
0U!
0V!
1X!
11!
0.!
0-!
10!
0#!
1"!
1!!
1%!
1^!
1[!
1\!
1]!
1a!
1g
0d
0c
1f
0Y
1X
1W
1[
19!
15!
14!
1/!
16!
1:
19
06
05
0'
1&
1%
1)
1o
1k
1j
1e
1l
1C
1?
1>
1=
1@
#350000
0$
0!
0-
1.
0R
0O
1U
0T
0;!
1D!
0:!
0@!
0M!
0Y!
0I!
0J!
1K!
0Z!
1E!
0W!
0P!
1R!
0S!
0T!
1U!
0X!
01!
1-!
0,!
0+!
1*!
0(!
02!
00!
1#!
0"!
0!!
03!
0%!
1X!
0[!
0\!
0]!
0^!
0_!
0`!
0g
1c
0b
0a
1`
0^
0h
0f
1Y
0X
0W
0i
0[
08!
07!
06!
05!
04!
0/!
11!
1[!
1^!
1_!
0a!
0<
0;
0:
09
15
04
03
12
00
1'
0&
0%
0)
0n
0m
0l
0k
0j
0e
1g
09!
17!
16!
1/!
0B
0A
0@
0?
0>
0=
1:
0o
1m
1l
1e
0C
1A
1@
1=
#450000
1$
1!
1-
1"
0#
1,
1R
0Q
1P
1O
1T
1S
1G!
1;!
1:!
1<!
0B!
1@!
1Y!
0E!
1W!
1M!
1J!
0N!
1=!
1F!
1H!
1P!
1Q!
0U!
0-!
1)!
1(!
1~
0&!
1"!
1%!
12!
13!
1Z!
0F!
0X!
0[!
1`!
1a!
0c
1_
1^
1M
0\
1X
1[
1h
1i
19!
18!
0/!
01!
10!
0^!
1[!
1\!
0a!
05
11
10
18
0*
1&
1)
1<
1;
1o
1n
0e
0g
1f
09!
14!
1/!
06!
1C
1B
0=
0:
19
0o
1j
1e
0l
0C
1>
1=
0@
#540000
1#
1/
1Q
1V
1>!
1B!
1E!
1I!
1L!
1N!
1O!
0W!
1A!
1S!
1T!
1U!
1V!
0Y!
03!
1.!
1-!
1,!
1+!
02!
1'!
1&!
1$!
1!!
1W!
0[!
0\!
0_!
0`!
1F!
1X!
0i
1d
1c
1b
1a
0h
1]
1\
1Z
1W
11!
08!
07!
04!
0/!
12!
1[!
1\!
1]!
0<
0;
16
15
14
13
1+
1*
1(
1%
1g
0n
0m
0j
0e
1h
15!
14!
1/!
1;
1:
0B
0A
0>
0=
1k
1j
1e
1?
1>
1=
#630000
0#
0!
0-
0"
0,
0.
0Q
0P
0O
0U
0T
0S
0G!
0;!
0D!
0:!
0<!
0B!
0J!
0K!
0E!
0=!
0F!
0H!
0Q!
0R!
0*!
0)!
0~
0#!
0"!
0Z!
0X!
0`
0_
0M
0Y
0X
01!
00!
0[!
0\!
1`!
02
01
08
0'
0&
0g
0f
18!
04!
0/!
0:
09
1n
0j
0e
1B
0>
0=
#760000
1#
1-
1.
0$
0R
1Q
1U
1T
1;!
1D!
1B!
0@!
0A!
1Y!
0I!
1K!
0L!
0M!
0O!
1E!
0P!
1X!
11!
0(!
0'!
0%!
0$!
1#!
0!!
13!
1F!
0X!
0]!
1^!
1_!
1a!
0W!
1g
0^
0]
0[
0Z
1Y
0W
1i
02!
19!
17!
16!
05!
01!
1[!
1Z!
1<
1:
00
0+
0)
0(
1'
0%
0h
1o
1m
1l
0k
0g
10!
1/!
0[!
0`!
0a!
0;
0:
1C
1A
1@
0?
1f
1e
09!
08!
0/!
19
1=
0o
0n
0e
0C
0B
0=
