Tarea_3/simulation/qsim/AntiRebotes.msim.vcd
$comment
	File created using the following command:
		vcd file AntiRebotes.msim.vcd -direction
$end
$date
	Thu Mar 11 18:26:25 2021
$end
$version
	ModelSim Version 10.5b
$end
$timescale
	1ps
$end

$scope module ejemplokeys_vhd_vec_tst $end
$var wire 1 ! a $end
$var wire 1 " a1 $end
$var wire 1 # b $end
$var wire 1 $ b1 $end
$var wire 1 % c $end
$var wire 1 & c1 $end
$var wire 1 ' Clock $end
$var wire 1 ( d $end
$var wire 1 ) d1 $end
$var wire 1 * e $end
$var wire 1 + e1 $end
$var wire 1 , EXT_KEY $end
$var wire 1 - f $end
$var wire 1 . f1 $end
$var wire 1 / g $end
$var wire 1 0 g1 $end
$var wire 1 1 Reset $end

$scope module i1 $end
$var wire 1 2 gnd $end
$var wire 1 3 vcc $end
$var wire 1 4 unknown $end
$var wire 1 5 devoe $end
$var wire 1 6 devclrn $end
$var wire 1 7 devpor $end
$var wire 1 8 ww_devoe $end
$var wire 1 9 ww_devclrn $end
$var wire 1 : ww_devpor $end
$var wire 1 ; ww_a $end
$var wire 1 < ww_Reset $end
$var wire 1 = ww_EXT_KEY $end
$var wire 1 > ww_Clock $end
$var wire 1 ? ww_b $end
$var wire 1 @ ww_c $end
$var wire 1 A ww_d $end
$var wire 1 B ww_e $end
$var wire 1 C ww_f $end
$var wire 1 D ww_g $end
$var wire 1 E ww_c1 $end
$var wire 1 F ww_d1 $end
$var wire 1 G ww_e1 $end
$var wire 1 H ww_f1 $end
$var wire 1 I ww_g1 $end
$var wire 1 J ww_a1 $end
$var wire 1 K ww_b1 $end
$var wire 1 L \~QUARTUS_CREATED_ADC1~_CHSEL_bus\ [4] $end
$var wire 1 M \~QUARTUS_CREATED_ADC1~_CHSEL_bus\ [3] $end
$var wire 1 N \~QUARTUS_CREATED_ADC1~_CHSEL_bus\ [2] $end
$var wire 1 O \~QUARTUS_CREATED_ADC1~_CHSEL_bus\ [1] $end
$var wire 1 P \~QUARTUS_CREATED_ADC1~_CHSEL_bus\ [0] $end
$var wire 1 Q \~QUARTUS_CREATED_ADC2~_CHSEL_bus\ [4] $end
$var wire 1 R \~QUARTUS_CREATED_ADC2~_CHSEL_bus\ [3] $end
$var wire 1 S \~QUARTUS_CREATED_ADC2~_CHSEL_bus\ [2] $end
$var wire 1 T \~QUARTUS_CREATED_ADC2~_CHSEL_bus\ [1] $end
$var wire 1 U \~QUARTUS_CREATED_ADC2~_CHSEL_bus\ [0] $end
$var wire 1 V \inst999|inst4~clkctrl_INCLK_bus\ [3] $end
$var wire 1 W \inst999|inst4~clkctrl_INCLK_bus\ [2] $end
$var wire 1 X \inst999|inst4~clkctrl_INCLK_bus\ [1] $end
$var wire 1 Y \inst999|inst4~clkctrl_INCLK_bus\ [0] $end
$var wire 1 Z \Clock~inputclkctrl_INCLK_bus\ [3] $end
$var wire 1 [ \Clock~inputclkctrl_INCLK_bus\ [2] $end
$var wire 1 \ \Clock~inputclkctrl_INCLK_bus\ [1] $end
$var wire 1 ] \Clock~inputclkctrl_INCLK_bus\ [0] $end
$var wire 1 ^ \~QUARTUS_CREATED_UNVM~~busy\ $end
$var wire 1 _ \~QUARTUS_CREATED_ADC1~~eoc\ $end
$var wire 1 ` \~QUARTUS_CREATED_ADC2~~eoc\ $end
$var wire 1 a \a~output_o\ $end
$var wire 1 b \b~output_o\ $end
$var wire 1 c \c~output_o\ $end
$var wire 1 d \d~output_o\ $end
$var wire 1 e \e~output_o\ $end
$var wire 1 f \f~output_o\ $end
$var wire 1 g \g~output_o\ $end
$var wire 1 h \c1~output_o\ $end
$var wire 1 i \d1~output_o\ $end
$var wire 1 j \e1~output_o\ $end
$var wire 1 k \f1~output_o\ $end
$var wire 1 l \g1~output_o\ $end
$var wire 1 m \a1~output_o\ $end
$var wire 1 n \b1~output_o\ $end
$var wire 1 o \Clock~input_o\ $end
$var wire 1 p \Reset~input_o\ $end
$var wire 1 q \Clock~inputclkctrl_outclk\ $end
$var wire 1 r \EXT_KEY~input_o\ $end
$var wire 1 s \inst999|inst|inst~feeder_combout\ $end
$var wire 1 t \inst999|inst|inst~q\ $end
$var wire 1 u \inst999|inst|inst1~feeder_combout\ $end
$var wire 1 v \inst999|inst|inst1~q\ $end
$var wire 1 w \inst999|inst10|reg_fstate.Q0~0_combout\ $end
$var wire 1 x \inst999|inst10|reg_fstate.Q2~0_combout\ $end
$var wire 1 y \inst999|inst10|reg_fstate.Q1~0_combout\ $end
$var wire 1 z \inst999|inst1|auto_generated|counter_comb_bita0~combout\ $end
$var wire 1 { \~GND~combout\ $end
$var wire 1 | \inst999|inst1|auto_generated|counter_reg_bit[10]~0_combout\ $end
$var wire 1 } \inst999|inst1|auto_generated|counter_comb_bita8~COUT\ $end
$var wire 1 ~ \inst999|inst1|auto_generated|counter_comb_bita9~combout\ $end
$var wire 1 !! \inst999|inst1|auto_generated|_~0_combout\ $end
$var wire 1 "! \inst999|inst1|auto_generated|counter_comb_bita9~COUT\ $end
$var wire 1 #! \inst999|inst1|auto_generated|counter_comb_bita10~combout\ $end
$var wire 1 $! \inst999|inst1|auto_generated|counter_comb_bita10~COUT\ $end
$var wire 1 %! \inst999|inst1|auto_generated|counter_comb_bita10~0_combout\ $end
$var wire 1 &! \inst999|inst1|auto_generated|cmpr1|aneb_result_wire[0]~1_combout\ $end
$var wire 1 '! \inst999|inst1|auto_generated|cmpr1|aneb_result_wire[0]~2_combout\ $end
$var wire 1 (! \inst999|inst1|auto_generated|counter_reg_bit[10]~1_combout\ $end
$var wire 1 )! \inst999|inst1|auto_generated|counter_comb_bita0~COUT\ $end
$var wire 1 *! \inst999|inst1|auto_generated|counter_comb_bita1~combout\ $end
$var wire 1 +! \inst999|inst1|auto_generated|counter_comb_bita1~COUT\ $end
$var wire 1 ,! \inst999|inst1|auto_generated|counter_comb_bita2~combout\ $end
$var wire 1 -! \inst999|inst1|auto_generated|counter_comb_bita2~COUT\ $end
$var wire 1 .! \inst999|inst1|auto_generated|counter_comb_bita3~combout\ $end
$var wire 1 /! \inst999|inst1|auto_generated|counter_comb_bita3~COUT\ $end
$var wire 1 0! \inst999|inst1|auto_generated|counter_comb_bita4~combout\ $end
$var wire 1 1! \inst999|inst1|auto_generated|counter_comb_bita4~COUT\ $end
$var wire 1 2! \inst999|inst1|auto_generated|counter_comb_bita5~combout\ $end
$var wire 1 3! \inst999|inst1|auto_generated|counter_comb_bita5~COUT\ $end
$var wire 1 4! \inst999|inst1|auto_generated|counter_comb_bita6~combout\ $end
$var wire 1 5! \inst999|inst1|auto_generated|counter_comb_bita6~COUT\ $end
$var wire 1 6! \inst999|inst1|auto_generated|counter_comb_bita7~combout\ $end
$var wire 1 7! \inst999|inst1|auto_generated|counter_comb_bita7~COUT\ $end
$var wire 1 8! \inst999|inst1|auto_generated|counter_comb_bita8~combout\ $end
$var wire 1 9! \inst999|inst1|auto_generated|cmpr1|aneb_result_wire[0]~0_combout\ $end
$var wire 1 :! \inst999|inst1|auto_generated|cout_actual~combout\ $end
$var wire 1 ;! \inst999|inst10|reg_fstate.Q1~1_combout\ $end
$var wire 1 <! \inst999|inst10|fstate.Q1~q\ $end
$var wire 1 =! \inst999|inst10|reg_fstate.Q2~1_combout\ $end
$var wire 1 >! \inst999|inst10|fstate.Q2~q\ $end
$var wire 1 ?! \inst999|inst10|reg_fstate.Q3~0_combout\ $end
$var wire 1 @! \inst999|inst10|reg_fstate.Q3~1_combout\ $end
$var wire 1 A! \inst999|inst10|fstate.Q3~q\ $end
$var wire 1 B! \inst999|inst10|reg_fstate.Q0~1_combout\ $end
$var wire 1 C! \inst999|inst10|fstate.Q0~q\ $end
$var wire 1 D! \inst999|inst10|xDeb_n~0_combout\ $end
$var wire 1 E! \inst999|inst3~feeder_combout\ $end
$var wire 1 F! \inst999|inst3~q\ $end
$var wire 1 G! \inst999|inst4~combout\ $end
$var wire 1 H! \inst999|inst4~clkctrl_outclk\ $end
$var wire 1 I! \inst2|sub|16~0_combout\ $end
$var wire 1 J! \inst2|sub|16~q\ $end
$var wire 1 K! \inst4|84~1_combout\ $end
$var wire 1 L! \inst2|sub|17~q\ $end
$var wire 1 M! \inst2|sub|18~0_combout\ $end
$var wire 1 N! \inst2|sub|18~q\ $end
$var wire 1 O! \inst2|sub|19~0_combout\ $end
$var wire 1 P! \inst2|sub|19~q\ $end
$var wire 1 Q! \inst4|81~combout\ $end
$var wire 1 R! \inst4|82~0_combout\ $end
$var wire 1 S! \inst4|83~combout\ $end
$var wire 1 T! \inst4|84~0_combout\ $end
$var wire 1 U! \inst4|85~combout\ $end
$var wire 1 V! \inst4|86~0_combout\ $end
$var wire 1 W! \inst4|87~combout\ $end
$var wire 1 X! \inst33|sub|16~0_combout\ $end
$var wire 1 Y! \inst33|sub|16~q\ $end
$var wire 1 Z! \inst555|84~1_combout\ $end
$var wire 1 [! \inst33|sub|17~q\ $end
$var wire 1 \! \inst33|sub|18~0_combout\ $end
$var wire 1 ]! \inst33|sub|18~q\ $end
$var wire 1 ^! \inst33|sub|19~0_combout\ $end
$var wire 1 _! \inst33|sub|19~q\ $end
$var wire 1 `! \inst555|83~combout\ $end
$var wire 1 a! \inst555|84~0_combout\ $end
$var wire 1 b! \inst555|85~combout\ $end
$var wire 1 c! \inst555|86~0_combout\ $end
$var wire 1 d! \inst555|87~combout\ $end
$var wire 1 e! \inst555|81~0_combout\ $end
$var wire 1 f! \inst555|82~0_combout\ $end
$var wire 1 g! \inst999|inst1|auto_generated|counter_reg_bit\ [10] $end
$var wire 1 h! \inst999|inst1|auto_generated|counter_reg_bit\ [9] $end
$var wire 1 i! \inst999|inst1|auto_generated|counter_reg_bit\ [8] $end
$var wire 1 j! \inst999|inst1|auto_generated|counter_reg_bit\ [7] $end
$var wire 1 k! \inst999|inst1|auto_generated|counter_reg_bit\ [6] $end
$var wire 1 l! \inst999|inst1|auto_generated|counter_reg_bit\ [5] $end
$var wire 1 m! \inst999|inst1|auto_generated|counter_reg_bit\ [4] $end
$var wire 1 n! \inst999|inst1|auto_generated|counter_reg_bit\ [3] $end
$var wire 1 o! \inst999|inst1|auto_generated|counter_reg_bit\ [2] $end
$var wire 1 p! \inst999|inst1|auto_generated|counter_reg_bit\ [1] $end
$var wire 1 q! \inst999|inst1|auto_generated|counter_reg_bit\ [0] $end
$upscope $end
$upscope $end
$enddefinitions $end
#0
$dumpvars
0!
0"
0#
0$
0%
0&
0'
0(
0)
0*
0+
1,
0-
0.
1/
10
01
02
13
x4
15
16
17
18
19
1:
0;
0<
1=
0>
0?
0@
0A
0B
0C
1D
0E
0F
0G
0H
1I
0J
0K
z^
z_
z`
0a
0b
0c
0d
0e
0f
1g
0h
0i
0j
0k
1l
0m
0n
0o
0p
0q
1r
1s
0t
0u
0v
0w
0x
1y
1z
0{
1|
0}
0~
1!!
1"!
0#!
0$!
0%!
0&!
0'!
1(!
0)!
0*!
1+!
0,!
0-!
0.!
1/!
00!
01!
02!
13!
04!
05!
06!
17!
08!
09!
0:!
1;!
0<!
0=!
0>!
0?!
0@!
0A!
1B!
0C!
1D!
1E!
0F!
0G!
0H!
1I!
0J!
0K!
0L!
0M!
0N!
0O!
0P!
0Q!
0R!
0S!
0T!
0U!
0V!
1W!
1X!
0Y!
0Z!
0[!
0\!
0]!
0^!
0_!
0`!
0a!
0b!
0c!
1d!
0e!
0f!
0g!
0h!
0i!
0j!
0k!
0l!
0m!
0n!
0o!
0p!
0q!
1Z
1[
1\
0]
1V
1W
1X
0Y
0L
0M
0N
0O
0P
0Q
0R
0S
0T
0U
$end
#10000
1'
1>
1o
1]
1C!
1F!
0y
0|
0D!
1G!
1q
1Y
0E!
0(!
0;!
1t
1<!
1H!
1;!
1u
1J!
0I!
1K!
1Q!
1T!
1U!
1V!
1f
1e
1d
1a
1C
1B
1A
1;
1-
1*
1(
1!
#20000
0'
0>
0o
0]
0q
#30000
1'
1>
1o
1]
0F!
0G!
1q
0Y
1v
1q!
0H!
0z
1)!
1*!
#40000
0'
0>
0o
0]
0q
#50000
1'
1>
1o
1]
1q
0q!
1p!
0*!
0+!
1z
0)!
1*!
1+!
1,!
0,!
#60000
0'
0>
0o
0]
0q
#70000
1'
1>
1o
1]
1q
1q!
0z
1)!
0*!
0+!
1,!
#80000
0'
0>
0o
0]
0q
#90000
1'
1>
1o
1]
1q
0q!
0p!
1o!
0,!
1-!
1*!
1+!
1z
0)!
0*!
1,!
0-!
1.!
0.!
#100000
0'
0>
0o
0]
0q
#110000
1'
1>
1o
1]
1q
1q!
0z
1)!
1*!
#120000
0'
0>
0o
0]
0q
#130000
1'
1>
1o
1]
1q
0q!
1p!
0*!
0+!
1z
0)!
1*!
1+!
0,!
1-!
1.!
1,!
0-!
0.!
#140000
0'
0>
0o
0]
0q
#150000
1'
1>
1o
1]
1q
1q!
0z
1)!
0*!
0+!
0,!
1-!
1.!
#160000
0'
0>
0o
0]
0q
#170000
1'
1>
1o
1]
1q
0q!
0p!
0o!
1n!
0.!
0/!
1,!
0-!
1*!
1+!
1z
0)!
0*!
0,!
1.!
1/!
10!
00!
#180000
0'
0>
0o
0]
0q
#190000
1'
1>
1o
1]
1q
1q!
0z
1)!
1*!
#200000
0'
0>
0o
0]
0q
#210000
1'
1>
1o
1]
1q
0q!
1p!
0*!
0+!
1z
0)!
1*!
1+!
1,!
0,!
#220000
0'
0>
0o
0]
0q
#230000
1'
1>
1o
1]
1q
1q!
0z
1)!
0*!
0+!
1,!
#240000
0'
0>
0o
0]
0q
#250000
1'
1>
1o
1]
1q
0q!
0p!
1o!
0,!
1-!
1*!
1+!
1z
0)!
0*!
1,!
0-!
0.!
0/!
10!
1.!
1/!
00!
#260000
0'
0>
0o
0]
0q
#270000
1'
1>
1o
1]
1q
1q!
0z
1)!
1*!
#280000
0'
0>
0o
0]
0q
#290000
1'
1>
1o
1]
1q
0q!
1p!
0*!
0+!
1z
0)!
1*!
1+!
0,!
1-!
0.!
0/!
1,!
0-!
1.!
1/!
10!
00!
#300000
0'
0>
0o
0]
0q
#310000
1'
1>
1o
1]
1q
1q!
0z
1)!
0*!
0+!
0,!
1-!
0.!
0/!
10!
#320000
0'
0>
0o
0]
0q
#330000
1'
1>
1o
1]
1q
0q!
0p!
0o!
0n!
1m!
00!
11!
1.!
1/!
1,!
0-!
1*!
1+!
1z
0)!
0*!
0,!
0.!
10!
01!
12!
02!
#340000
0'
0>
0o
0]
0q
#350000
1'
1>
1o
1]
1q
1q!
0z
1)!
1*!
#360000
0'
0>
0o
0]
0q
#370000
1'
1>
1o
1]
1q
0q!
1p!
0*!
0+!
1z
0)!
1*!
1+!
1,!
0,!
#380000
0'
0>
0o
0]
0q
#390000
1'
1>
1o
1]
1q
1q!
0z
1)!
0*!
0+!
1,!
#400000
0'
0>
0o
0]
0q
#410000
1'
1>
1o
1]
1q
0q!
0p!
1o!
0,!
1-!
1*!
1+!
1z
0)!
0*!
1,!
0-!
1.!
0.!
#420000
0'
0>
0o
0]
0q
#430000
1'
1>
1o
1]
1q
1q!
0z
1)!
1*!
#440000
0'
0>
0o
0]
0q
#450000
1'
1>
1o
1]
1q
0q!
1p!
0*!
0+!
1z
0)!
1*!
1+!
0,!
1-!
1.!
1,!
0-!
0.!
#460000
0'
0>
0o
0]
0q
#470000
1'
1>
1o
1]
1q
1q!
0z
1)!
0*!
0+!
0,!
1-!
1.!
#480000
0'
0>
0o
0]
0q
#490000
1'
1>
1o
1]
1q
0q!
0p!
0o!
1n!
0.!
0/!
1,!
0-!
1*!
1+!
1z
0)!
0*!
0,!
1.!
1/!
00!
11!
12!
10!
01!
02!
#500000
0'
0>
0o
0]
0q
#510000
1'
1>
1o
1]
1q
1q!
0z
1)!
1*!
#520000
0'
0>
0o
0]
0q
#530000
1'
1>
1o
1]
1q
0q!
1p!
0*!
0+!
1z
0)!
1*!
1+!
1,!
0,!
#540000
0'
0>
0o
0]
0q
#550000
1'
1>
1o
1]
1q
1q!
0z
1)!
0*!
0+!
1,!
#560000
0'
0>
0o
0]
0q
#570000
1'
1>
1o
1]
1q
0q!
0p!
1o!
0,!
1-!
1*!
1+!
1z
0)!
0*!
1,!
0-!
0.!
0/!
00!
11!
1.!
1/!
10!
01!
12!
02!
#580000
0'
0>
0o
0]
0q
#590000
1'
1>
1o
1]
1q
1q!
0z
1)!
1*!
#600000
0'
0>
0o
0]
0q
#610000
1'
1>
1o
1]
1q
0q!
1p!
0*!
0+!
1z
0)!
1*!
1+!
0,!
1-!
0.!
0/!
1,!
0-!
1.!
1/!
00!
11!
12!
10!
01!
02!
#620000
0'
0>
0o
0]
0q
#630000
1'
1>
1o
1]
1q
1q!
0z
1)!
0*!
0+!
0,!
1-!
0.!
0/!
00!
11!
12!
#640000
0'
0>
0o
0]
0q
#650000
1'
1>
1o
1]
1q
0q!
0p!
0o!
0n!
0m!
1l!
02!
03!
10!
01!
1.!
1/!
1,!
0-!
1*!
1+!
1z
0)!
0*!
0,!
0.!
00!
12!
13!
14!
04!
#660000
0'
0>
0o
0]
0q
#670000
1'
1>
1o
1]
1q
1q!
0z
1)!
1*!
#680000
0'
0>
0o
0]
0q
#690000
1'
1>
1o
1]
1q
0q!
1p!
0*!
0+!
1z
0)!
1*!
1+!
1,!
0,!
#700000
0'
0>
0o
0]
0q
#710000
1'
1>
1o
1]
1q
1q!
0z
1)!
0*!
0+!
1,!
#720000
0'
0>
0o
0]
0q
#730000
1'
1>
1o
1]
1q
0q!
0p!
1o!
0,!
1-!
1*!
1+!
1z
0)!
0*!
1,!
0-!
1.!
0.!
#740000
0'
0>
0o
0]
0q
#750000
1'
1>
1o
1]
1q
1q!
0z
1)!
1*!
#760000
0'
0>
0o
0]
0q
#770000
1'
1>
1o
1]
1q
0q!
1p!
0*!
0+!
1z
0)!
1*!
1+!
0,!
1-!
1.!
1,!
0-!
0.!
#780000
0'
0>
0o
0]
0q
#790000
1'
1>
1o
1]
1q
1q!
0z
1)!
0*!
0+!
0,!
1-!
1.!
#800000
0'
0>
0o
0]
0q
#810000
1'
1>
1o
1]
1q
0q!
0p!
0o!
1n!
0.!
0/!
1,!
0-!
1*!
1+!
1z
0)!
0*!
0,!
1.!
1/!
10!
00!
#820000
0'
0>
0o
0]
0q
#830000
1'
1>
1o
1]
1q
1q!
0z
1)!
1*!
#840000
0'
0>
0o
0]
0q
#850000
1'
1>
1o
1]
1q
0q!
1p!
0*!
0+!
1z
0)!
1*!
1+!
1,!
0,!
#860000
0'
0>
0o
0]
0q
#870000
1'
1>
1o
1]
1q
1q!
0z
1)!
0*!
0+!
1,!
#880000
0'
0>
0o
0]
0q
#890000
1'
1>
1o
1]
1q
0q!
0p!
1o!
0,!
1-!
1*!
1+!
1z
0)!
0*!
1,!
0-!
0.!
0/!
10!
1.!
1/!
00!
#900000
0'
0>
0o
0]
0q
#910000
1'
1>
1o
1]
1q
1q!
0z
1)!
1*!
#920000
0'
0>
0o
0]
0q
#930000
1'
1>
1o
1]
1q
0q!
1p!
0*!
0+!
1z
0)!
1*!
1+!
0,!
1-!
0.!
0/!
1,!
0-!
1.!
1/!
10!
00!
#940000
0'
0>
0o
0]
0q
#950000
1'
1>
1o
1]
1q
1q!
0z
1)!
0*!
0+!
0,!
1-!
0.!
0/!
10!
#960000
0'
0>
0o
0]
0q
#970000
1'
1>
1o
1]
1q
0q!
0p!
0o!
0n!
1m!
00!
11!
1.!
1/!
1,!
0-!
1*!
1+!
1z
0)!
0*!
0,!
0.!
10!
01!
02!
03!
14!
12!
13!
04!
#980000
0'
0>
0o
0]
0q
#990000
1'
1>
1o
1]
1q
1q!
0z
1)!
1*!
#1000000
0'
0,
0>
0=
0r
0o
0]
0s
0q
#1010000
1'
1>
1o
1]
1q
0t
0q!
1p!
0*!
0+!
1z
0)!
0u
1*!
1+!
1,!
0,!
#1020000
0'
0>
0o
0]
0q
#1030000
1'
1>
1o
1]
1q
0v
1q!
0z
1)!
0*!
0+!
1,!
#1040000
0'
0>
0o
0]
0q
#1050000
1'
1>
1o
1]
1q
0q!
0p!
1o!
0,!
1-!
1*!
1+!
1z
0)!
0*!
1,!
0-!
1.!
0.!
#1060000
0'
0>
0o
0]
0q
#1070000
1'
1>
1o
1]
1q
1q!
0z
1)!
1*!
#1080000
0'
0>
0o
0]
0q
#1090000
1'
1>
1o
1]
1q
0q!
1p!
0*!
0+!
1z
0)!
1*!
1+!
0,!
1-!
1.!
1,!
0-!
0.!
#1100000
0'
0>
0o
0]
0q
#1110000
1'
1>
1o
1]
1q
1q!
0z
1)!
0*!
0+!
0,!
1-!
1.!
#1120000
0'
0>
0o
0]
0q
#1130000
1'
1>
1o
1]
1q
0q!
0p!
0o!
1n!
0.!
0/!
1,!
0-!
1*!
1+!
1z
0)!
0*!
0,!
1.!
1/!
00!
11!
02!
03!
10!
01!
12!
13!
14!
04!
#1140000
0'
0>
0o
0]
0q
#1150000
1'
1>
1o
1]
1q
1q!
0z
1)!
1*!
#1160000
0'
0>
0o
0]
0q
#1170000
1'
1>
1o
1]
1q
0q!
1p!
0*!
0+!
1z
0)!
1*!
1+!
1,!
0,!
#1180000
0'
0>
0o
0]
0q
#1190000
1'
1>
1o
1]
1q
1q!
0z
1)!
0*!
0+!
1,!
#1200000
0'
0>
0o
0]
0q
#1210000
1'
1>
1o
1]
1q
0q!
0p!
1o!
0,!
1-!
1*!
1+!
1z
0)!
0*!
1,!
0-!
0.!
0/!
00!
11!
1.!
1/!
10!
01!
02!
03!
14!
12!
13!
04!
#1220000
0'
0>
0o
0]
0q
#1230000
1'
1>
1o
1]
1q
1q!
0z
1)!
1*!
#1240000
0'
0>
0o
0]
0q
#1250000
1'
1>
1o
1]
1q
0q!
1p!
0*!
0+!
1z
0)!
1*!
1+!
0,!
1-!
0.!
0/!
1,!
0-!
1.!
1/!
00!
11!
02!
03!
10!
01!
12!
13!
14!
04!
#1260000
0'
0>
0o
0]
0q
#1270000
1'
1>
1o
1]
1q
1q!
0z
1)!
0*!
0+!
0,!
1-!
0.!
0/!
00!
11!
02!
03!
14!
#1280000
0'
0>
0o
0]
0q
#1290000
1'
1>
1o
1]
1q
0q!
0p!
0o!
0n!
0m!
0l!
1k!
04!
15!
12!
13!
10!
01!
1.!
1/!
1,!
0-!
1*!
1+!
1z
0)!
0*!
0,!
0.!
00!
02!
14!
05!
16!
06!
#1300000
0'
0>
0o
0]
0q
#1310000
1'
1>
1o
1]
1q
1q!
0z
1)!
1*!
#1320000
0'
0>
0o
0]
0q
#1330000
1'
1>
1o
1]
1q
0q!
1p!
0*!
0+!
1z
0)!
1*!
1+!
1,!
0,!
#1340000
0'
0>
0o
0]
0q
#1350000
1'
1>
1o
1]
1q
1q!
0z
1)!
0*!
0+!
1,!
#1360000
0'
0>
0o
0]
0q
#1370000
1'
1>
1o
1]
1q
0q!
0p!
1o!
0,!
1-!
1*!
1+!
1z
0)!
0*!
1,!
0-!
1.!
0.!
#1380000
0'
0>
0o
0]
0q
#1390000
1'
1>
1o
1]
1q
1q!
0z
1)!
1*!
#1400000
0'
0>
0o
0]
0q
#1410000
1'
1>
1o
1]
1q
0q!
1p!
0*!
0+!
1z
0)!
1*!
1+!
0,!
1-!
1.!
1,!
0-!
0.!
#1420000
0'
0>
0o
0]
0q
#1430000
1'
1>
1o
1]
1q
1q!
0z
1)!
0*!
0+!
0,!
1-!
1.!
#1440000
0'
0>
0o
0]
0q
#1450000
1'
1>
1o
1]
1q
0q!
0p!
0o!
1n!
0.!
0/!
1,!
0-!
1*!
1+!
1z
0)!
0*!
0,!
1.!
1/!
10!
00!
#1460000
0'
0>
0o
0]
0q
#1470000
1'
1>
1o
1]
1q
1q!
0z
1)!
1*!
#1480000
0'
0>
0o
0]
0q
#1490000
1'
1>
1o
1]
1q
0q!
1p!
0*!
0+!
1z
0)!
1*!
1+!
1,!
0,!
#1500000
0'
0>
0o
0]
0q
#1510000
1'
1>
1o
1]
1q
1q!
0z
1)!
0*!
0+!
1,!
#1520000
0'
0>
0o
0]
0q
#1530000
1'
1>
1o
1]
1q
0q!
0p!
1o!
0,!
1-!
1*!
1+!
1z
0)!
0*!
1,!
0-!
0.!
0/!
10!
1.!
1/!
00!
#1540000
0'
0>
0o
0]
0q
#1550000
1'
1>
1o
1]
1q
1q!
0z
1)!
1*!
#1560000
0'
0>
0o
0]
0q
#1570000
1'
1>
1o
1]
1q
0q!
1p!
0*!
0+!
1z
0)!
1*!
1+!
0,!
1-!
0.!
0/!
1,!
0-!
1.!
1/!
10!
00!
#1580000
0'
0>
0o
0]
0q
#1590000
1'
1>
1o
1]
1q
1q!
0z
1)!
0*!
0+!
0,!
1-!
0.!
0/!
10!
#1600000
0'
0>
0o
0]
0q
#1610000
1'
1>
1o
1]
1q
0q!
0p!
0o!
0n!
1m!
00!
11!
1.!
1/!
1,!
0-!
1*!
1+!
1z
0)!
0*!
0,!
0.!
10!
01!
12!
02!
#1620000
0'
0>
0o
0]
0q
#1630000
1'
1>
1o
1]
1q
1q!
0z
1)!
1*!
#1640000
0'
0>
0o
0]
0q
#1650000
1'
1>
1o
1]
1q
0q!
1p!
0*!
0+!
1z
0)!
1*!
1+!
1,!
0,!
#1660000
0'
0>
0o
0]
0q
#1670000
1'
1>
1o
1]
1q
1q!
0z
1)!
0*!
0+!
1,!
#1680000
0'
0>
0o
0]
0q
#1690000
1'
1>
1o
1]
1q
0q!
0p!
1o!
0,!
1-!
1*!
1+!
1z
0)!
0*!
1,!
0-!
1.!
0.!
#1700000
0'
0>
0o
0]
0q
#1710000
1'
1>
1o
1]
1q
1q!
0z
1)!
1*!
#1720000
0'
0>
0o
0]
0q
#1730000
1'
1>
1o
1]
1q
0q!
1p!
0*!
0+!
1z
0)!
1*!
1+!
0,!
1-!
1.!
1,!
0-!
0.!
#1740000
0'
0>
0o
0]
0q
#1750000
1'
1>
1o
1]
1q
1q!
0z
1)!
0*!
0+!
0,!
1-!
1.!
#1760000
0'
0>
0o
0]
0q
#1770000
1'
1>
1o
1]
1q
0q!
0p!
0o!
1n!
0.!
0/!
1,!
0-!
1*!
1+!
1z
0)!
0*!
0,!
1.!
1/!
00!
11!
12!
10!
01!
02!
#1780000
0'
0>
0o
0]
0q
#1790000
1'
1>
1o
1]
1q
1q!
0z
1)!
1*!
#1800000
0'
0>
0o
0]
0q
#1810000
1'
1>
1o
1]
1q
0q!
1p!
0*!
0+!
1z
0)!
1*!
1+!
1,!
0,!
#1820000
0'
0>
0o
0]
0q
#1830000
1'
1>
1o
1]
1q
1q!
0z
1)!
0*!
0+!
1,!
#1840000
0'
0>
0o
0]
0q
#1850000
1'
1>
1o
1]
1q
0q!
0p!
1o!
0,!
1-!
1*!
1+!
1z
0)!
0*!
1,!
0-!
0.!
0/!
00!
11!
1.!
1/!
10!
01!
12!
02!
#1860000
0'
0>
0o
0]
0q
#1870000
1'
1>
1o
1]
1q
1q!
0z
1)!
1*!
#1880000
0'
0>
0o
0]
0q
#1890000
1'
1>
1o
1]
1q
0q!
1p!
0*!
0+!
1z
0)!
1*!
1+!
0,!
1-!
0.!
0/!
1,!
0-!
1.!
1/!
00!
11!
12!
10!
01!
02!
#1900000
0'
0>
0o
0]
0q
#1910000
1'
1>
1o
1]
1q
1q!
0z
1)!
0*!
0+!
0,!
1-!
0.!
0/!
00!
11!
12!
#1920000
0'
0>
0o
0]
0q
#1930000
1'
1>
1o
1]
1q
0q!
0p!
0o!
0n!
0m!
1l!
02!
03!
10!
01!
1&!
1.!
1/!
1,!
0-!
1*!
1+!
1z
0)!
0*!
0,!
0.!
00!
12!
13!
04!
15!
16!
14!
05!
06!
#1940000
0'
0>
0o
0]
0q
#1950000
1'
1>
1o
1]
1q
1q!
0z
1)!
1'!
1*!
#1960000
0'
0>
0o
0]
0q
#1970000
1'
1>
1o
1]
1q
0q!
1p!
0*!
0+!
1z
0)!
0'!
1*!
1+!
1,!
0,!
#1980000
0'
0>
0o
0]
0q
#1990000
1'
1>
1o
1]
1q
1q!
0z
1)!
0*!
0+!
1,!
#2000000
0'
1,
0>
1=
1r
0o
0]
1s
1Y!
0X!
1Z!
1a!
1b!
1c!
1e!
0q
1m
1k
1j
1i
1J
1H
1G
1F
1"
1.
1+
1)
#2010000
1'
1>
1o
1]
1q
1t
0q!
0p!
1o!
0,!
1-!
1*!
1+!
1z
0)!
1u
0*!
1,!
0-!
1.!
0.!
#2020000
0'
0>
0o
0]
0q
#2030000
1'
1>
1o
1]
1q
1v
1q!
0z
1)!
1*!
#2040000
0'
0>
0o
0]
0q
#2050000
1'
1>
1o
1]
1q
0q!
1p!
0*!
0+!
1z
0)!
1*!
1+!
0,!
1-!
1.!
1,!
0-!
0.!
#2060000
0'
0>
0o
0]
0q
#2070000
1'
1>
1o
1]
1q
1q!
0z
1)!
0*!
0+!
0,!
1-!
1.!
#2080000
0'
0>
0o
0]
0q
#2090000
1'
1>
1o
1]
1q
0q!
0p!
0o!
1n!
0&!
0.!
0/!
1,!
0-!
1*!
1+!
1z
0)!
0*!
0,!
1.!
1/!
10!
00!
#2100000
0'
0>
0o
0]
0q
#2110000
1'
1>
1o
1]
1q
1q!
0z
1)!
1*!
#2120000
0'
0>
0o
0]
0q
#2130000
1'
1>
1o
1]
1q
0q!
1p!
0*!
0+!
1z
0)!
1*!
1+!
1,!
0,!
#2140000
0'
0>
0o
0]
0q
#2150000
1'
1>
1o
1]
1q
1q!
0z
1)!
0*!
0+!
1,!
#2160000
0'
0>
0o
0]
0q
#2170000
1'
1>
1o
1]
1q
0q!
0p!
1o!
0,!
1-!
1*!
1+!
1z
0)!
0*!
1,!
0-!
0.!
0/!
10!
1.!
1/!
00!
#2180000
0'
0>
0o
0]
0q
