Tarea_3/simulation/qsim/AntiRebotes.msim.vcd
$comment
	File created using the following command:
		vcd file AntiRebotes.msim.vcd -direction
$end
$date
	Wed Mar 10 22:07:18 2021
$end
$version
	ModelSim Version 10.5b
$end
$timescale
	1ps
$end

$scope module ejemplokeys_vhd_vec_tst $end
$var wire 1 ! a $end
$var wire 1 " a1 $end
$var wire 1 # b $end
$var wire 1 $ b1 $end
$var wire 1 % c $end
$var wire 1 & c1 $end
$var wire 1 ' Clock $end
$var wire 1 ( d $end
$var wire 1 ) d1 $end
$var wire 1 * e $end
$var wire 1 + e1 $end
$var wire 1 , f $end
$var wire 1 - f1 $end
$var wire 1 . g $end
$var wire 1 / g1 $end
$var wire 1 0 Input_K0 $end
$var wire 1 1 Input_K1 $end
$var wire 1 2 Reset $end

$scope module i1 $end
$var wire 1 3 gnd $end
$var wire 1 4 vcc $end
$var wire 1 5 unknown $end
$var wire 1 6 devoe $end
$var wire 1 7 devclrn $end
$var wire 1 8 devpor $end
$var wire 1 9 ww_devoe $end
$var wire 1 : ww_devclrn $end
$var wire 1 ; ww_devpor $end
$var wire 1 < ww_a $end
$var wire 1 = ww_Reset $end
$var wire 1 > ww_Input_K0 $end
$var wire 1 ? ww_Clock $end
$var wire 1 @ ww_b $end
$var wire 1 A ww_c $end
$var wire 1 B ww_d $end
$var wire 1 C ww_e $end
$var wire 1 D ww_f $end
$var wire 1 E ww_g $end
$var wire 1 F ww_c1 $end
$var wire 1 G ww_Input_K1 $end
$var wire 1 H ww_d1 $end
$var wire 1 I ww_e1 $end
$var wire 1 J ww_f1 $end
$var wire 1 K ww_g1 $end
$var wire 1 L ww_a1 $end
$var wire 1 M ww_b1 $end
$var wire 1 N \~QUARTUS_CREATED_ADC1~_CHSEL_bus\ [4] $end
$var wire 1 O \~QUARTUS_CREATED_ADC1~_CHSEL_bus\ [3] $end
$var wire 1 P \~QUARTUS_CREATED_ADC1~_CHSEL_bus\ [2] $end
$var wire 1 Q \~QUARTUS_CREATED_ADC1~_CHSEL_bus\ [1] $end
$var wire 1 R \~QUARTUS_CREATED_ADC1~_CHSEL_bus\ [0] $end
$var wire 1 S \~QUARTUS_CREATED_ADC2~_CHSEL_bus\ [4] $end
$var wire 1 T \~QUARTUS_CREATED_ADC2~_CHSEL_bus\ [3] $end
$var wire 1 U \~QUARTUS_CREATED_ADC2~_CHSEL_bus\ [2] $end
$var wire 1 V \~QUARTUS_CREATED_ADC2~_CHSEL_bus\ [1] $end
$var wire 1 W \~QUARTUS_CREATED_ADC2~_CHSEL_bus\ [0] $end
$var wire 1 X \Input_K1~inputclkctrl_INCLK_bus\ [3] $end
$var wire 1 Y \Input_K1~inputclkctrl_INCLK_bus\ [2] $end
$var wire 1 Z \Input_K1~inputclkctrl_INCLK_bus\ [1] $end
$var wire 1 [ \Input_K1~inputclkctrl_INCLK_bus\ [0] $end
$var wire 1 \ \Clock~inputclkctrl_INCLK_bus\ [3] $end
$var wire 1 ] \Clock~inputclkctrl_INCLK_bus\ [2] $end
$var wire 1 ^ \Clock~inputclkctrl_INCLK_bus\ [1] $end
$var wire 1 _ \Clock~inputclkctrl_INCLK_bus\ [0] $end
$var wire 1 ` \~QUARTUS_CREATED_UNVM~~busy\ $end
$var wire 1 a \~QUARTUS_CREATED_ADC1~~eoc\ $end
$var wire 1 b \~QUARTUS_CREATED_ADC2~~eoc\ $end
$var wire 1 c \a~output_o\ $end
$var wire 1 d \b~output_o\ $end
$var wire 1 e \c~output_o\ $end
$var wire 1 f \d~output_o\ $end
$var wire 1 g \e~output_o\ $end
$var wire 1 h \f~output_o\ $end
$var wire 1 i \g~output_o\ $end
$var wire 1 j \c1~output_o\ $end
$var wire 1 k \d1~output_o\ $end
$var wire 1 l \e1~output_o\ $end
$var wire 1 m \f1~output_o\ $end
$var wire 1 n \g1~output_o\ $end
$var wire 1 o \a1~output_o\ $end
$var wire 1 p \b1~output_o\ $end
$var wire 1 q \Clock~input_o\ $end
$var wire 1 r \Clock~inputclkctrl_outclk\ $end
$var wire 1 s \inst2|sub|16~0_combout\ $end
$var wire 1 t \Reset~input_o\ $end
$var wire 1 u \Input_K0~input_o\ $end
$var wire 1 v \inst999|inst|inst~q\ $end
$var wire 1 w \inst999|inst|inst1~q\ $end
$var wire 1 x \inst999|inst10|reg_fstate.Q0~0_combout\ $end
$var wire 1 y \inst999|inst10|reg_fstate.Q2~0_combout\ $end
$var wire 1 z \inst999|inst10|reg_fstate.Q1~0_combout\ $end
$var wire 1 { \inst999|inst1|auto_generated|counter_comb_bita0~combout\ $end
$var wire 1 | \~GND~combout\ $end
$var wire 1 } \inst999|inst1|auto_generated|counter_reg_bit[10]~0_combout\ $end
$var wire 1 ~ \inst999|inst1|auto_generated|counter_comb_bita2~COUT\ $end
$var wire 1 !! \inst999|inst1|auto_generated|counter_comb_bita3~combout\ $end
$var wire 1 "! \inst999|inst1|auto_generated|_~0_combout\ $end
$var wire 1 #! \inst999|inst1|auto_generated|counter_comb_bita3~COUT\ $end
$var wire 1 $! \inst999|inst1|auto_generated|counter_comb_bita4~combout\ $end
$var wire 1 %! \inst999|inst1|auto_generated|counter_comb_bita4~COUT\ $end
$var wire 1 &! \inst999|inst1|auto_generated|counter_comb_bita5~combout\ $end
$var wire 1 '! \inst999|inst1|auto_generated|counter_comb_bita5~COUT\ $end
$var wire 1 (! \inst999|inst1|auto_generated|counter_comb_bita6~combout\ $end
$var wire 1 )! \inst999|inst1|auto_generated|counter_comb_bita6~COUT\ $end
$var wire 1 *! \inst999|inst1|auto_generated|counter_comb_bita7~combout\ $end
$var wire 1 +! \inst999|inst1|auto_generated|counter_comb_bita7~COUT\ $end
$var wire 1 ,! \inst999|inst1|auto_generated|counter_comb_bita8~combout\ $end
$var wire 1 -! \inst999|inst1|auto_generated|counter_comb_bita8~COUT\ $end
$var wire 1 .! \inst999|inst1|auto_generated|counter_comb_bita9~combout\ $end
$var wire 1 /! \inst999|inst1|auto_generated|counter_comb_bita9~COUT\ $end
$var wire 1 0! \inst999|inst1|auto_generated|counter_comb_bita10~combout\ $end
$var wire 1 1! \inst999|inst1|auto_generated|counter_comb_bita10~COUT\ $end
$var wire 1 2! \inst999|inst1|auto_generated|counter_comb_bita10~0_combout\ $end
$var wire 1 3! \inst999|inst1|auto_generated|cmpr1|aneb_result_wire[0]~0_combout\ $end
$var wire 1 4! \inst999|inst1|auto_generated|counter_reg_bit[10]~1_combout\ $end
$var wire 1 5! \inst999|inst1|auto_generated|counter_comb_bita0~COUT\ $end
$var wire 1 6! \inst999|inst1|auto_generated|counter_comb_bita1~combout\ $end
$var wire 1 7! \inst999|inst1|auto_generated|counter_comb_bita1~COUT\ $end
$var wire 1 8! \inst999|inst1|auto_generated|counter_comb_bita2~combout\ $end
$var wire 1 9! \inst999|inst1|auto_generated|cmpr1|aneb_result_wire[0]~1_combout\ $end
$var wire 1 :! \inst999|inst1|auto_generated|cmpr1|aneb_result_wire[0]~2_combout\ $end
$var wire 1 ;! \inst999|inst1|auto_generated|cout_actual~combout\ $end
$var wire 1 <! \inst999|inst10|reg_fstate.Q1~1_combout\ $end
$var wire 1 =! \inst999|inst10|fstate.Q1~q\ $end
$var wire 1 >! \inst999|inst10|reg_fstate.Q2~1_combout\ $end
$var wire 1 ?! \inst999|inst10|fstate.Q2~q\ $end
$var wire 1 @! \inst999|inst10|reg_fstate.Q3~0_combout\ $end
$var wire 1 A! \inst999|inst10|reg_fstate.Q3~1_combout\ $end
$var wire 1 B! \inst999|inst10|fstate.Q3~q\ $end
$var wire 1 C! \inst999|inst10|reg_fstate.Q0~1_combout\ $end
$var wire 1 D! \inst999|inst10|fstate.Q0~q\ $end
$var wire 1 E! \inst999|inst10|xDeb_n~0_combout\ $end
$var wire 1 F! \inst999|inst3~q\ $end
$var wire 1 G! \inst999|inst4~combout\ $end
$var wire 1 H! \inst2|sub|16~q\ $end
$var wire 1 I! \inst4|84~1_combout\ $end
$var wire 1 J! \inst2|sub|17~q\ $end
$var wire 1 K! \inst2|sub|18~0_combout\ $end
$var wire 1 L! \inst2|sub|18~q\ $end
$var wire 1 M! \inst2|sub|19~0_combout\ $end
$var wire 1 N! \inst2|sub|19~q\ $end
$var wire 1 O! \inst4|81~combout\ $end
$var wire 1 P! \inst4|82~0_combout\ $end
$var wire 1 Q! \inst4|83~combout\ $end
$var wire 1 R! \inst4|84~0_combout\ $end
$var wire 1 S! \inst4|85~combout\ $end
$var wire 1 T! \inst4|86~0_combout\ $end
$var wire 1 U! \inst4|87~combout\ $end
$var wire 1 V! \Input_K1~input_o\ $end
$var wire 1 W! \Input_K1~inputclkctrl_outclk\ $end
$var wire 1 X! \inst33|sub|16~0_combout\ $end
$var wire 1 Y! \inst33|sub|16~q\ $end
$var wire 1 Z! \inst555|84~1_combout\ $end
$var wire 1 [! \inst33|sub|17~q\ $end
$var wire 1 \! \inst33|sub|18~0_combout\ $end
$var wire 1 ]! \inst33|sub|18~q\ $end
$var wire 1 ^! \inst33|sub|19~0_combout\ $end
$var wire 1 _! \inst33|sub|19~q\ $end
$var wire 1 `! \inst555|83~combout\ $end
$var wire 1 a! \inst555|84~0_combout\ $end
$var wire 1 b! \inst555|85~combout\ $end
$var wire 1 c! \inst555|86~0_combout\ $end
$var wire 1 d! \inst555|87~combout\ $end
$var wire 1 e! \inst555|81~0_combout\ $end
$var wire 1 f! \inst555|82~0_combout\ $end
$var wire 1 g! \inst999|inst1|auto_generated|counter_reg_bit\ [10] $end
$var wire 1 h! \inst999|inst1|auto_generated|counter_reg_bit\ [9] $end
$var wire 1 i! \inst999|inst1|auto_generated|counter_reg_bit\ [8] $end
$var wire 1 j! \inst999|inst1|auto_generated|counter_reg_bit\ [7] $end
$var wire 1 k! \inst999|inst1|auto_generated|counter_reg_bit\ [6] $end
$var wire 1 l! \inst999|inst1|auto_generated|counter_reg_bit\ [5] $end
$var wire 1 m! \inst999|inst1|auto_generated|counter_reg_bit\ [4] $end
$var wire 1 n! \inst999|inst1|auto_generated|counter_reg_bit\ [3] $end
$var wire 1 o! \inst999|inst1|auto_generated|counter_reg_bit\ [2] $end
$var wire 1 p! \inst999|inst1|auto_generated|counter_reg_bit\ [1] $end
$var wire 1 q! \inst999|inst1|auto_generated|counter_reg_bit\ [0] $end
$var wire 1 r! \inst999|ALT_INV_inst4~combout\ $end
$upscope $end
$upscope $end
$enddefinitions $end
#0
$dumpvars
0!
0"
0#
0$
0%
0&
0'
0(
0)
0*
0+
0,
0-
1.
1/
00
01
12
03
14
x5
16
17
18
19
1:
1;
0<
1=
0>
0?
0@
0A
0B
0C
0D
1E
0F
0G
0H
0I
0J
1K
0L
0M
z`
za
zb
0c
0d
0e
0f
0g
0h
1i
0j
0k
0l
0m
1n
0o
0p
0q
0r
1s
1t
0u
0v
0w
1x
0y
0z
1{
0|
0}
0~
0!!
0"!
1#!
0$!
0%!
0&!
1'!
0(!
0)!
0*!
1+!
0,!
0-!
0.!
1/!
00!
01!
02!
03!
04!
05!
06!
17!
08!
09!
0:!
0;!
0<!
0=!
0>!
0?!
0@!
0A!
0B!
0C!
0D!
0E!
0F!
1G!
0H!
0I!
0J!
0K!
0L!
0M!
0N!
0O!
0P!
0Q!
0R!
0S!
0T!
1U!
0V!
0W!
1X!
0Y!
0Z!
0[!
0\!
0]!
0^!
0_!
0`!
0a!
0b!
0c!
1d!
0e!
0f!
0r!
0g!
0h!
0i!
0j!
0k!
0l!
0m!
0n!
0o!
0p!
0q!
1\
1]
1^
0_
1X
1Y
1Z
0[
0N
0O
0P
0Q
0R
0S
0T
0U
0V
0W
$end
#10000
1'
1?
1q
1_
1r
#20000
0'
0?
0q
0_
0r
#30000
1'
1?
1q
1_
1r
#40000
0'
0?
0q
0_
0r
#50000
1'
1?
1q
1_
1r
#60000
0'
0?
0q
0_
0r
#70000
1'
1?
1q
1_
1r
#80000
0'
0?
0q
0_
0r
#90000
1'
1?
1q
1_
1r
#100000
0'
0?
0q
0_
0r
#110000
1'
1?
1q
1_
1r
#120000
0'
0?
0q
0_
0r
#130000
1'
1?
1q
1_
1r
#140000
0'
0?
0q
0_
0r
#150000
1'
1?
1q
1_
1r
#160000
0'
0?
0q
0_
0r
#170000
1'
1?
1q
1_
1r
#180000
0'
0?
0q
0_
0r
#190000
1'
1?
1q
1_
1r
#200000
0'
0?
0q
0_
0r
#210000
1'
1?
1q
1_
1r
#220000
0'
0?
0q
0_
0r
#230000
1'
1?
1q
1_
1r
#240000
0'
0?
0q
0_
0r
#250000
1'
1?
1q
1_
1r
#260000
0'
0?
0q
0_
0r
#270000
1'
1?
1q
1_
1r
#280000
0'
0?
0q
0_
0r
#290000
1'
1?
1q
1_
1r
#300000
0'
0?
0q
0_
0r
#310000
1'
1?
1q
1_
1r
#320000
0'
0?
0q
0_
0r
#330000
1'
1?
1q
1_
1r
#340000
0'
0?
0q
0_
0r
#350000
1'
1?
1q
1_
1r
#360000
0'
0?
0q
0_
0r
#370000
1'
1?
1q
1_
1r
#380000
0'
0?
0q
0_
0r
#390000
1'
1?
1q
1_
1r
#400000
0'
0?
0q
0_
0r
#410000
1'
1?
1q
1_
1r
#420000
0'
0?
0q
0_
0r
#430000
1'
1?
1q
1_
1r
#440000
0'
0?
0q
0_
0r
#450000
1'
1?
1q
1_
1r
#460000
0'
0?
0q
0_
0r
#470000
1'
1?
1q
1_
1r
#480000
0'
0?
0q
0_
0r
#490000
1'
1?
1q
1_
1r
#500000
0'
0?
0q
0_
0r
#510000
1'
1?
1q
1_
1r
#520000
0'
0?
0q
0_
0r
#530000
1'
1?
1q
1_
1r
#540000
0'
0?
0q
0_
0r
#550000
1'
1?
1q
1_
1r
#560000
0'
0?
0q
0_
0r
#570000
1'
1?
1q
1_
1r
#580000
0'
0?
0q
0_
0r
#590000
1'
1?
1q
1_
1r
#600000
0'
0?
0q
0_
0r
#610000
1'
1?
1q
1_
1r
#620000
0'
0?
0q
0_
0r
#630000
1'
1?
1q
1_
1r
#640000
0'
0?
0q
0_
0r
#650000
1'
1?
1q
1_
1r
#660000
0'
0?
0q
0_
0r
#670000
1'
1?
1q
1_
1r
#680000
0'
0?
0q
0_
0r
#690000
1'
1?
1q
1_
1r
#700000
0'
0?
0q
0_
0r
#710000
1'
1?
1q
1_
1r
#720000
0'
0?
0q
0_
0r
#730000
1'
1?
1q
1_
1r
#740000
0'
0?
0q
0_
0r
#750000
1'
1?
1q
1_
1r
#760000
0'
0?
0q
0_
0r
#770000
1'
1?
1q
1_
1r
#780000
0'
0?
0q
0_
0r
#790000
1'
1?
1q
1_
1r
#800000
0'
0?
0q
0_
0r
#810000
1'
1?
1q
1_
1r
#820000
0'
0?
0q
0_
0r
#830000
1'
1?
1q
1_
1r
#840000
0'
0?
0q
0_
0r
#850000
1'
1?
1q
1_
1r
#860000
0'
0?
0q
0_
0r
#870000
1'
1?
1q
1_
1r
#880000
0'
0?
0q
0_
0r
#890000
1'
1?
1q
1_
1r
#900000
0'
0?
0q
0_
0r
#910000
1'
1?
1q
1_
1r
#920000
0'
0?
0q
0_
0r
#930000
1'
1?
1q
1_
1r
#940000
0'
0?
0q
0_
0r
#950000
1'
1?
1q
1_
1r
#960000
0'
0?
0q
0_
0r
#970000
1'
1?
1q
1_
1r
#980000
0'
0?
0q
0_
0r
#990000
1'
1?
1q
1_
1r
#1000000
0'
10
11
0?
1>
1G
1V!
1u
0q
1[
0_
0r
1W!
1Y!
0X!
1Z!
1a!
1b!
1c!
1e!
1o
1m
1l
1k
1L
1J
1I
1H
1"
1-
1+
1)
#1010000
1'
1?
1q
1_
1r
1v
#1020000
0'
0?
0q
0_
0r
#1030000
1'
1?
1q
1_
1r
1w
#1040000
0'
0?
0q
0_
0r
#1050000
1'
1?
1q
1_
1r
#1060000
0'
0?
0q
0_
0r
#1070000
1'
1?
1q
1_
1r
#1080000
0'
0?
0q
0_
0r
#1090000
1'
1?
1q
1_
1r
#1100000
0'
0?
0q
0_
0r
#1110000
1'
1?
1q
1_
1r
#1120000
0'
0?
0q
0_
0r
#1130000
1'
1?
1q
1_
1r
#1140000
0'
0?
0q
0_
0r
#1150000
1'
1?
1q
1_
1r
#1160000
0'
0?
0q
0_
0r
#1170000
1'
1?
1q
1_
1r
#1180000
0'
0?
0q
0_
0r
#1190000
1'
1?
1q
1_
1r
#1200000
0'
0?
0q
0_
0r
#1210000
1'
1?
1q
1_
1r
#1220000
0'
0?
0q
0_
0r
#1230000
1'
1?
1q
1_
1r
#1240000
0'
0?
0q
0_
0r
#1250000
1'
1?
1q
1_
1r
#1260000
0'
0?
0q
0_
0r
#1270000
1'
1?
1q
1_
1r
#1280000
0'
0?
0q
0_
0r
#1290000
1'
1?
1q
1_
1r
#1300000
0'
0?
0q
0_
0r
#1310000
1'
1?
1q
1_
1r
#1320000
0'
0?
0q
0_
0r
#1330000
1'
1?
1q
1_
1r
#1340000
0'
0?
0q
0_
0r
#1350000
1'
1?
1q
1_
1r
#1360000
0'
0?
0q
0_
0r
#1370000
1'
1?
1q
1_
1r
#1380000
0'
0?
0q
0_
0r
#1390000
1'
1?
1q
1_
1r
#1400000
0'
0?
0q
0_
0r
#1410000
1'
1?
1q
1_
1r
#1420000
0'
0?
0q
0_
0r
#1430000
1'
1?
1q
1_
1r
#1440000
0'
0?
0q
0_
0r
#1450000
1'
1?
1q
1_
1r
#1460000
0'
0?
0q
0_
0r
#1470000
1'
1?
1q
1_
1r
#1480000
0'
0?
0q
0_
0r
#1490000
1'
1?
1q
1_
1r
#1500000
0'
0?
0q
0_
0r
#1510000
1'
1?
1q
1_
1r
#1520000
0'
0?
0q
0_
0r
#1530000
1'
1?
1q
1_
1r
#1540000
0'
0?
0q
0_
0r
#1550000
1'
1?
1q
1_
1r
#1560000
0'
0?
0q
0_
0r
#1570000
1'
1?
1q
1_
1r
#1580000
0'
0?
0q
0_
0r
#1590000
1'
1?
1q
1_
1r
#1600000
0'
0?
0q
0_
0r
#1610000
1'
1?
1q
1_
1r
#1620000
0'
0?
0q
0_
0r
#1630000
1'
1?
1q
1_
1r
#1640000
0'
0?
0q
0_
0r
#1650000
1'
1?
1q
1_
1r
#1660000
0'
0?
0q
0_
0r
#1670000
1'
1?
1q
1_
1r
#1680000
0'
0?
0q
0_
0r
#1690000
1'
1?
1q
1_
1r
#1700000
0'
0?
0q
0_
0r
#1710000
1'
1?
1q
1_
1r
#1720000
0'
0?
0q
0_
0r
#1730000
1'
1?
1q
1_
1r
#1740000
0'
0?
0q
0_
0r
#1750000
1'
1?
1q
1_
1r
#1760000
0'
0?
0q
0_
0r
#1770000
1'
1?
1q
1_
1r
#1780000
0'
0?
0q
0_
0r
#1790000
1'
1?
1q
1_
1r
#1800000
0'
0?
0q
0_
0r
#1810000
1'
1?
1q
1_
1r
#1820000
0'
0?
0q
0_
0r
#1830000
1'
1?
1q
1_
1r
#1840000
0'
0?
0q
0_
0r
#1850000
1'
1?
1q
1_
1r
#1860000
0'
0?
0q
0_
0r
#1870000
1'
1?
1q
1_
1r
#1880000
0'
0?
0q
0_
0r
#1890000
1'
1?
1q
1_
1r
#1900000
0'
0?
0q
0_
0r
#1910000
1'
1?
1q
1_
1r
#1920000
0'
0?
0q
0_
0r
#1930000
1'
1?
1q
1_
1r
#1940000
0'
0?
0q
0_
0r
#1950000
1'
1?
1q
1_
1r
#1960000
0'
0?
0q
0_
0r
#1970000
1'
1?
1q
1_
1r
#1980000
0'
0?
0q
0_
0r
#1990000
1'
1?
1q
1_
1r
#2000000
0'
00
01
0?
0>
0G
0V!
0u
0q
0[
0_
0r
0W!
#2010000
1'
1?
1q
1_
1r
0v
#2020000
0'
0?
0q
0_
0r
#2030000
1'
1?
1q
1_
1r
0w
#2040000
0'
0?
0q
0_
0r
#2050000
1'
1?
1q
1_
1r
#2060000
0'
0?
0q
0_
0r
#2070000
1'
1?
1q
1_
1r
#2080000
0'
0?
0q
0_
0r
#2090000
1'
1?
1q
1_
1r
#2100000
0'
0?
0q
0_
0r
#2110000
1'
1?
1q
1_
1r
#2120000
0'
0?
0q
0_
0r
#2130000
1'
1?
1q
1_
1r
#2140000
0'
0?
0q
0_
0r
#2150000
1'
1?
1q
1_
1r
#2160000
0'
0?
0q
0_
0r
#2170000
1'
1?
1q
1_
1r
#2180000
0'
0?
0q
0_
0r
#2190000
1'
1?
1q
1_
1r
#2200000
0'
0?
0q
0_
0r
#2210000
1'
1?
1q
1_
1r
#2220000
0'
0?
0q
0_
0r
#2230000
1'
1?
1q
1_
1r
#2240000
0'
0?
0q
0_
0r
#2250000
1'
1?
1q
1_
1r
#2260000
0'
0?
0q
0_
0r
#2270000
1'
1?
1q
1_
1r
#2280000
0'
0?
0q
0_
0r
#2290000
1'
1?
1q
1_
1r
#2300000
0'
0?
0q
0_
0r
#2310000
1'
1?
1q
1_
1r
#2320000
0'
0?
0q
0_
0r
#2330000
1'
1?
1q
1_
1r
#2340000
0'
0?
0q
0_
0r
#2350000
1'
1?
1q
1_
1r
#2360000
0'
0?
0q
0_
0r
#2370000
1'
1?
1q
1_
1r
#2380000
0'
0?
0q
0_
0r
#2390000
1'
1?
1q
1_
1r
#2400000
0'
0?
0q
0_
0r
#2410000
1'
1?
1q
1_
1r
#2420000
0'
0?
0q
0_
0r
#2430000
1'
1?
1q
1_
1r
#2440000
0'
0?
0q
0_
0r
#2450000
1'
1?
1q
1_
1r
#2460000
0'
0?
0q
0_
0r
#2470000
1'
1?
1q
1_
1r
#2480000
0'
0?
0q
0_
0r
#2490000
1'
1?
1q
1_
1r
#2500000
0'
0?
0q
0_
0r
#2510000
1'
1?
1q
1_
1r
#2520000
0'
0?
0q
0_
0r
#2530000
1'
1?
1q
1_
1r
#2540000
0'
0?
0q
0_
0r
#2550000
1'
1?
1q
1_
1r
#2560000
0'
0?
0q
0_
0r
#2570000
1'
1?
1q
1_
1r
#2580000
0'
0?
0q
0_
0r
#2590000
1'
1?
1q
1_
1r
#2600000
0'
0?
0q
0_
0r
#2610000
1'
1?
1q
1_
1r
#2620000
0'
0?
0q
0_
0r
#2630000
1'
1?
1q
1_
1r
#2640000
0'
0?
0q
0_
0r
#2650000
1'
1?
1q
1_
1r
#2660000
0'
0?
0q
0_
0r
#2670000
1'
1?
1q
1_
1r
#2680000
0'
0?
0q
0_
0r
#2690000
1'
1?
1q
1_
1r
#2700000
0'
0?
0q
0_
0r
#2710000
1'
1?
1q
1_
1r
#2720000
0'
0?
0q
0_
0r
#2730000
1'
1?
1q
1_
1r
#2740000
0'
0?
0q
0_
0r
#2750000
1'
1?
1q
1_
1r
#2760000
0'
0?
0q
0_
0r
#2770000
1'
1?
1q
1_
1r
#2780000
0'
0?
0q
0_
0r
#2790000
1'
1?
1q
1_
1r
#2800000
0'
0?
0q
0_
0r
#2810000
1'
1?
1q
1_
1r
#2820000
0'
0?
0q
0_
0r
#2830000
1'
1?
1q
1_
1r
#2840000
0'
0?
0q
0_
0r
#2850000
1'
1?
1q
1_
1r
#2860000
0'
0?
0q
0_
0r
#2870000
1'
1?
1q
1_
1r
#2880000
0'
0?
0q
0_
0r
#2890000
1'
1?
1q
1_
1r
#2900000
0'
0?
0q
0_
0r
#2910000
1'
1?
1q
1_
1r
#2920000
0'
0?
0q
0_
0r
#2930000
1'
1?
1q
1_
1r
#2940000
0'
0?
0q
0_
0r
#2950000
1'
1?
1q
1_
1r
#2960000
0'
0?
0q
0_
0r
#2970000
1'
1?
1q
1_
1r
#2980000
0'
0?
0q
0_
0r
#2990000
1'
1?
1q
1_
1r
#3000000
0'
10
11
0?
1>
1G
1V!
1u
0q
1[
0_
0r
1W!
0Y!
1[!
1X!
1`!
0a!
0b!
0d!
0e!
0o
0n
0l
0k
1j
0L
0K
0I
0H
1F
0"
0/
0+
0)
1&
#3010000
1'
1?
1q
1_
1r
1v
#3020000
0'
0?
0q
0_
0r
#3030000
1'
1?
1q
1_
1r
1w
#3040000
0'
0?
0q
0_
0r
#3050000
1'
1?
1q
1_
1r
#3060000
0'
0?
0q
0_
0r
#3070000
1'
1?
1q
1_
1r
#3080000
0'
0?
0q
0_
0r
#3090000
1'
1?
1q
1_
1r
#3100000
0'
0?
0q
0_
0r
#3110000
1'
1?
1q
1_
1r
#3120000
0'
0?
0q
0_
0r
#3130000
1'
1?
1q
1_
1r
#3140000
0'
0?
0q
0_
0r
#3150000
1'
1?
1q
1_
1r
#3160000
0'
0?
0q
0_
0r
#3170000
1'
1?
1q
1_
1r
#3180000
0'
0?
0q
0_
0r
#3190000
1'
1?
1q
1_
1r
#3200000
0'
0?
0q
0_
0r
#3210000
1'
1?
1q
1_
1r
#3220000
0'
0?
0q
0_
0r
#3230000
1'
1?
1q
1_
1r
#3240000
0'
0?
0q
0_
0r
#3250000
1'
1?
1q
1_
1r
#3260000
0'
0?
0q
0_
0r
#3270000
1'
1?
1q
1_
1r
#3280000
0'
0?
0q
0_
0r
#3290000
1'
1?
1q
1_
1r
#3300000
0'
0?
0q
0_
0r
#3310000
1'
1?
1q
1_
1r
#3320000
0'
0?
0q
0_
0r
#3330000
1'
1?
1q
1_
1r
#3340000
0'
0?
0q
0_
0r
#3350000
1'
1?
1q
1_
1r
#3360000
0'
0?
0q
0_
0r
#3370000
1'
1?
1q
1_
1r
#3380000
0'
0?
0q
0_
0r
#3390000
1'
1?
1q
1_
1r
#3400000
0'
0?
0q
0_
0r
#3410000
1'
1?
1q
1_
1r
#3420000
0'
0?
0q
0_
0r
#3430000
1'
1?
1q
1_
1r
#3440000
0'
0?
0q
0_
0r
#3450000
1'
1?
1q
1_
1r
#3460000
0'
0?
0q
0_
0r
#3470000
1'
1?
1q
1_
1r
#3480000
0'
0?
0q
0_
0r
#3490000
1'
1?
1q
1_
1r
#3500000
0'
0?
0q
0_
0r
#3510000
1'
1?
1q
1_
1r
#3520000
0'
0?
0q
0_
0r
#3530000
1'
1?
1q
1_
1r
#3540000
0'
0?
0q
0_
0r
#3550000
1'
1?
1q
1_
1r
#3560000
0'
0?
0q
0_
0r
#3570000
1'
1?
1q
1_
1r
#3580000
0'
0?
0q
0_
0r
#3590000
1'
1?
1q
1_
1r
#3600000
0'
0?
0q
0_
0r
#3610000
1'
1?
1q
1_
1r
#3620000
0'
0?
0q
0_
0r
#3630000
1'
1?
1q
1_
1r
#3640000
0'
0?
0q
0_
0r
#3650000
1'
1?
1q
1_
1r
#3660000
0'
0?
0q
0_
0r
#3670000
1'
1?
1q
1_
1r
#3680000
0'
0?
0q
0_
0r
#3690000
1'
1?
1q
1_
1r
#3700000
0'
0?
0q
0_
0r
#3710000
1'
1?
1q
1_
1r
#3720000
0'
0?
0q
0_
0r
#3730000
1'
1?
1q
1_
1r
#3740000
0'
0?
0q
0_
0r
#3750000
1'
1?
1q
1_
1r
#3760000
0'
0?
0q
0_
0r
#3770000
1'
1?
1q
1_
1r
#3780000
0'
0?
0q
0_
0r
#3790000
1'
1?
1q
1_
1r
#3800000
0'
0?
0q
0_
0r
#3810000
1'
1?
1q
1_
1r
#3820000
0'
0?
0q
0_
0r
#3830000
1'
1?
1q
1_
1r
#3840000
0'
0?
0q
0_
0r
#3850000
1'
1?
1q
1_
1r
#3860000
0'
0?
0q
0_
0r
#3870000
1'
1?
1q
1_
1r
#3880000
0'
0?
0q
0_
0r
#3890000
1'
1?
1q
1_
1r
#3900000
0'
0?
0q
0_
0r
#3910000
1'
1?
1q
1_
1r
#3920000
0'
0?
0q
0_
0r
#3930000
1'
1?
1q
1_
1r
#3940000
0'
0?
0q
0_
0r
#3950000
1'
1?
1q
1_
1r
#3960000
0'
0?
0q
0_
0r
#3970000
1'
1?
1q
1_
1r
#3980000
0'
0?
0q
0_
0r
#3990000
1'
1?
1q
1_
1r
#4000000
0'
00
01
0?
0>
0G
0V!
0u
0q
0[
0_
0r
0W!
#4010000
1'
1?
1q
1_
1r
0v
#4020000
0'
0?
0q
0_
0r
#4030000
1'
1?
1q
1_
1r
0w
#4040000
0'
0?
0q
0_
0r
#4050000
1'
1?
1q
1_
1r
#4060000
0'
0?
0q
0_
0r
#4070000
1'
1?
1q
1_
1r
#4080000
0'
0?
0q
0_
0r
#4090000
1'
1?
1q
1_
1r
#4100000
0'
0?
0q
0_
0r
#4110000
1'
1?
1q
1_
1r
#4120000
0'
0?
0q
0_
0r
#4130000
1'
1?
1q
1_
1r
#4140000
0'
0?
0q
0_
0r
#4150000
1'
1?
1q
1_
1r
#4160000
0'
0?
0q
0_
0r
#4170000
1'
1?
1q
1_
1r
#4180000
0'
0?
0q
0_
0r
#4190000
1'
1?
1q
1_
1r
#4200000
0'
0?
0q
0_
0r
#4210000
1'
1?
1q
1_
1r
#4220000
0'
0?
0q
0_
0r
#4230000
1'
1?
1q
1_
1r
#4240000
0'
0?
0q
0_
0r
#4250000
1'
1?
1q
1_
1r
#4260000
0'
0?
0q
0_
0r
#4270000
1'
1?
1q
1_
1r
#4280000
0'
0?
0q
0_
0r
#4290000
1'
1?
1q
1_
1r
#4300000
0'
0?
0q
0_
0r
#4310000
1'
1?
1q
1_
1r
#4320000
0'
0?
0q
0_
0r
#4330000
1'
1?
1q
1_
1r
#4340000
0'
0?
0q
0_
0r
#4350000
1'
1?
1q
1_
1r
#4360000
0'
0?
0q
0_
0r
#4370000
1'
1?
1q
1_
1r
#4380000
0'
0?
0q
0_
0r
#4390000
1'
1?
1q
1_
1r
#4400000
0'
0?
0q
0_
0r
#4410000
1'
1?
1q
1_
1r
#4420000
0'
0?
0q
0_
0r
#4430000
1'
1?
1q
1_
1r
#4440000
0'
0?
0q
0_
0r
#4450000
1'
1?
1q
1_
1r
#4460000
0'
0?
0q
0_
0r
#4470000
1'
1?
1q
1_
1r
#4480000
0'
0?
0q
0_
0r
#4490000
1'
1?
1q
1_
1r
