Tarea_3/simulation/qsim/AntiRebotes.msim.vcd
$comment
	File created using the following command:
		vcd file AntiRebotes.msim.vcd -direction
$end
$date
	Tue Mar 09 11:37:24 2021
$end
$version
	ModelSim Version 10.5b
$end
$timescale
	1ps
$end

$scope module antirebotes_vhd_vec_tst $end
$var wire 1 ! CLK $end
$var wire 1 " OUT_Sin $end
$var wire 1 # Pulse_KEY0 $end
$var wire 1 $ q [0] $end
$var wire 1 % q [1] $end
$var wire 1 & q [2] $end
$var wire 1 ' q [3] $end
$var wire 1 ( q [4] $end
$var wire 1 ) q [5] $end
$var wire 1 * q [6] $end
$var wire 1 + q [7] $end
$var wire 1 , q [8] $end
$var wire 1 - q [9] $end
$var wire 1 . q [10] $end
$var wire 1 / Reset_KEY1 $end
$var wire 1 0 StartTIM $end
$var wire 1 1 TimeEnd $end
$var wire 1 2 xDev_n $end

$scope module i1 $end
$var wire 1 3 gnd $end
$var wire 1 4 vcc $end
$var wire 1 5 unknown $end
$var wire 1 6 devoe $end
$var wire 1 7 devclrn $end
$var wire 1 8 devpor $end
$var wire 1 9 ww_devoe $end
$var wire 1 : ww_devclrn $end
$var wire 1 ; ww_devpor $end
$var wire 1 < ww_OUT_Sin $end
$var wire 1 = ww_CLK $end
$var wire 1 > ww_Reset_KEY1 $end
$var wire 1 ? ww_Pulse_KEY0 $end
$var wire 1 @ ww_TimeEnd $end
$var wire 1 A ww_StartTIM $end
$var wire 1 B ww_xDev_n $end
$var wire 1 C ww_q [0] $end
$var wire 1 D ww_q [1] $end
$var wire 1 E ww_q [2] $end
$var wire 1 F ww_q [3] $end
$var wire 1 G ww_q [4] $end
$var wire 1 H ww_q [5] $end
$var wire 1 I ww_q [6] $end
$var wire 1 J ww_q [7] $end
$var wire 1 K ww_q [8] $end
$var wire 1 L ww_q [9] $end
$var wire 1 M ww_q [10] $end
$var wire 1 N \~QUARTUS_CREATED_ADC1~_CHSEL_bus\ [4] $end
$var wire 1 O \~QUARTUS_CREATED_ADC1~_CHSEL_bus\ [3] $end
$var wire 1 P \~QUARTUS_CREATED_ADC1~_CHSEL_bus\ [2] $end
$var wire 1 Q \~QUARTUS_CREATED_ADC1~_CHSEL_bus\ [1] $end
$var wire 1 R \~QUARTUS_CREATED_ADC1~_CHSEL_bus\ [0] $end
$var wire 1 S \~QUARTUS_CREATED_ADC2~_CHSEL_bus\ [4] $end
$var wire 1 T \~QUARTUS_CREATED_ADC2~_CHSEL_bus\ [3] $end
$var wire 1 U \~QUARTUS_CREATED_ADC2~_CHSEL_bus\ [2] $end
$var wire 1 V \~QUARTUS_CREATED_ADC2~_CHSEL_bus\ [1] $end
$var wire 1 W \~QUARTUS_CREATED_ADC2~_CHSEL_bus\ [0] $end
$var wire 1 X \CLK~inputclkctrl_INCLK_bus\ [3] $end
$var wire 1 Y \CLK~inputclkctrl_INCLK_bus\ [2] $end
$var wire 1 Z \CLK~inputclkctrl_INCLK_bus\ [1] $end
$var wire 1 [ \CLK~inputclkctrl_INCLK_bus\ [0] $end
$var wire 1 \ \~QUARTUS_CREATED_UNVM~~busy\ $end
$var wire 1 ] \~QUARTUS_CREATED_ADC1~~eoc\ $end
$var wire 1 ^ \~QUARTUS_CREATED_ADC2~~eoc\ $end
$var wire 1 _ \OUT_Sin~output_o\ $end
$var wire 1 ` \TimeEnd~output_o\ $end
$var wire 1 a \StartTIM~output_o\ $end
$var wire 1 b \xDev_n~output_o\ $end
$var wire 1 c \q[0]~output_o\ $end
$var wire 1 d \q[1]~output_o\ $end
$var wire 1 e \q[2]~output_o\ $end
$var wire 1 f \q[3]~output_o\ $end
$var wire 1 g \q[4]~output_o\ $end
$var wire 1 h \q[5]~output_o\ $end
$var wire 1 i \q[6]~output_o\ $end
$var wire 1 j \q[7]~output_o\ $end
$var wire 1 k \q[8]~output_o\ $end
$var wire 1 l \q[9]~output_o\ $end
$var wire 1 m \q[10]~output_o\ $end
$var wire 1 n \CLK~input_o\ $end
$var wire 1 o \CLK~inputclkctrl_outclk\ $end
$var wire 1 p \Reset_KEY1~input_o\ $end
$var wire 1 q \Pulse_KEY0~input_o\ $end
$var wire 1 r \inst|inst~feeder_combout\ $end
$var wire 1 s \inst|inst~q\ $end
$var wire 1 t \inst|inst1~q\ $end
$var wire 1 u \inst10|reg_fstate.Q2~0_combout\ $end
$var wire 1 v \inst10|reg_fstate.Q1~0_combout\ $end
$var wire 1 w \inst1|auto_generated|counter_comb_bita0~combout\ $end
$var wire 1 x \~GND~combout\ $end
$var wire 1 y \inst10|StartTimer~0_combout\ $end
$var wire 1 z \inst1|auto_generated|counter_comb_bita0~COUT\ $end
$var wire 1 { \inst1|auto_generated|counter_comb_bita1~combout\ $end
$var wire 1 | \inst10|StartTimer~1_combout\ $end
$var wire 1 } \inst1|auto_generated|_~0_combout\ $end
$var wire 1 ~ \inst1|auto_generated|counter_comb_bita1~COUT\ $end
$var wire 1 !! \inst1|auto_generated|counter_comb_bita2~combout\ $end
$var wire 1 "! \inst1|auto_generated|counter_comb_bita2~COUT\ $end
$var wire 1 #! \inst1|auto_generated|counter_comb_bita3~combout\ $end
$var wire 1 $! \inst1|auto_generated|counter_comb_bita3~COUT\ $end
$var wire 1 %! \inst1|auto_generated|counter_comb_bita4~combout\ $end
$var wire 1 &! \inst1|auto_generated|counter_comb_bita4~COUT\ $end
$var wire 1 '! \inst1|auto_generated|counter_comb_bita5~combout\ $end
$var wire 1 (! \inst1|auto_generated|counter_comb_bita5~COUT\ $end
$var wire 1 )! \inst1|auto_generated|counter_comb_bita6~combout\ $end
$var wire 1 *! \inst1|auto_generated|counter_comb_bita6~COUT\ $end
$var wire 1 +! \inst1|auto_generated|counter_comb_bita7~combout\ $end
$var wire 1 ,! \inst1|auto_generated|counter_comb_bita7~COUT\ $end
$var wire 1 -! \inst1|auto_generated|counter_comb_bita8~combout\ $end
$var wire 1 .! \inst1|auto_generated|counter_comb_bita8~COUT\ $end
$var wire 1 /! \inst1|auto_generated|counter_comb_bita9~combout\ $end
$var wire 1 0! \inst1|auto_generated|counter_comb_bita9~COUT\ $end
$var wire 1 1! \inst1|auto_generated|counter_comb_bita10~combout\ $end
$var wire 1 2! \inst1|auto_generated|cmpr1|aneb_result_wire[0]~0_combout\ $end
$var wire 1 3! \inst1|auto_generated|counter_comb_bita10~COUT\ $end
$var wire 1 4! \inst1|auto_generated|counter_comb_bita10~0_combout\ $end
$var wire 1 5! \inst1|auto_generated|counter_reg_bit[10]~0_combout\ $end
$var wire 1 6! \inst1|auto_generated|cmpr1|aneb_result_wire[0]~1_combout\ $end
$var wire 1 7! \inst1|auto_generated|cmpr1|aneb_result_wire[0]~2_combout\ $end
$var wire 1 8! \inst1|auto_generated|cout_actual~combout\ $end
$var wire 1 9! \inst10|reg_fstate.Q1~1_combout\ $end
$var wire 1 :! \inst10|fstate.Q1~q\ $end
$var wire 1 ;! \inst10|reg_fstate.Q2~1_combout\ $end
$var wire 1 <! \inst10|fstate.Q2~q\ $end
$var wire 1 =! \inst10|reg_fstate.Q3~0_combout\ $end
$var wire 1 >! \inst10|reg_fstate.Q3~1_combout\ $end
$var wire 1 ?! \inst10|fstate.Q3~q\ $end
$var wire 1 @! \inst10|reg_fstate.Q0~0_combout\ $end
$var wire 1 A! \inst10|reg_fstate.Q0~1_combout\ $end
$var wire 1 B! \inst10|fstate.Q0~q\ $end
$var wire 1 C! \inst10|xDeb_n~0_combout\ $end
$var wire 1 D! \inst3~q\ $end
$var wire 1 E! \inst4~combout\ $end
$var wire 1 F! \inst1|auto_generated|counter_reg_bit\ [10] $end
$var wire 1 G! \inst1|auto_generated|counter_reg_bit\ [9] $end
$var wire 1 H! \inst1|auto_generated|counter_reg_bit\ [8] $end
$var wire 1 I! \inst1|auto_generated|counter_reg_bit\ [7] $end
$var wire 1 J! \inst1|auto_generated|counter_reg_bit\ [6] $end
$var wire 1 K! \inst1|auto_generated|counter_reg_bit\ [5] $end
$var wire 1 L! \inst1|auto_generated|counter_reg_bit\ [4] $end
$var wire 1 M! \inst1|auto_generated|counter_reg_bit\ [3] $end
$var wire 1 N! \inst1|auto_generated|counter_reg_bit\ [2] $end
$var wire 1 O! \inst1|auto_generated|counter_reg_bit\ [1] $end
$var wire 1 P! \inst1|auto_generated|counter_reg_bit\ [0] $end
$upscope $end
$upscope $end
$enddefinitions $end
#0
$dumpvars
0!
0"
1#
1/
00
01
02
03
14
x5
16
17
18
19
1:
1;
0<
0=
1>
1?
0@
0A
0B
z\
z]
z^
0_
0`
0a
0b
0c
0d
0e
0f
0g
0h
0i
0j
0k
0l
0m
0n
0o
1p
1q
1r
0s
0t
0u
0v
1w
0x
0y
0z
0{
1|
0}
1~
0!!
0"!
0#!
1$!
0%!
0&!
0'!
1(!
0)!
0*!
0+!
1,!
0-!
0.!
0/!
10!
01!
02!
03!
04!
05!
06!
07!
08!
09!
0:!
0;!
0<!
0=!
0>!
0?!
1@!
0A!
0B!
0C!
0D!
0E!
0C
0D
0E
0F
0G
0H
0I
0J
0K
0L
0M
0F!
0G!
0H!
0I!
0J!
0K!
0L!
0M!
0N!
0O!
0P!
1X
1Y
1Z
0[
0N
0O
0P
0Q
0R
0S
0T
0U
0V
0W
0$
0%
0&
0'
0(
0)
0*
0+
0,
0-
0.
$end
#10000
1!
1=
1n
1[
1o
1s
#20000
0!
0=
0n
0[
0o
#30000
1!
1=
1n
1[
1o
1t
#40000
0!
0=
0n
0[
0o
#50000
1!
1=
1n
1[
1o
#60000
0!
0=
0n
0[
0o
#70000
1!
1=
1n
1[
1o
#80000
0!
0=
0n
0[
0o
#90000
1!
1=
1n
1[
1o
#100000
0!
0=
0n
0[
0o
#110000
1!
1=
1n
1[
1o
#120000
0!
0=
0n
0[
0o
#130000
1!
1=
1n
1[
1o
#140000
0!
0=
0n
0[
0o
#150000
1!
1=
1n
1[
1o
#160000
0!
0=
0n
0[
0o
#170000
1!
1=
1n
1[
1o
#180000
0!
0=
0n
0[
0o
#190000
1!
1=
1n
1[
1o
#200000
0!
0=
0n
0[
0o
#210000
1!
1=
1n
1[
1o
#220000
0!
0=
0n
0[
0o
#230000
1!
1=
1n
1[
1o
#240000
0!
0=
0n
0[
0o
#250000
1!
1=
1n
1[
1o
#260000
0!
0=
0n
0[
0o
#270000
1!
1=
1n
1[
1o
#280000
0!
0=
0n
0[
0o
#290000
1!
1=
1n
1[
1o
#300000
0!
0=
0n
0[
0o
#310000
1!
1=
1n
1[
1o
#320000
0!
0=
0n
0[
0o
#330000
1!
1=
1n
1[
1o
#340000
0!
0=
0n
0[
0o
#350000
1!
1=
1n
1[
1o
#360000
0!
0=
0n
0[
0o
#370000
1!
1=
1n
1[
1o
#380000
0!
0=
0n
0[
0o
#390000
1!
1=
1n
1[
1o
#400000
0!
0=
0n
0[
0o
#410000
1!
1=
1n
1[
1o
#420000
0!
0=
0n
0[
0o
#430000
1!
1=
1n
1[
1o
#440000
0!
0=
0n
0[
0o
#450000
1!
1=
1n
1[
1o
#460000
0!
0=
0n
0[
0o
#470000
1!
1=
1n
1[
1o
#480000
0!
0=
0n
0[
0o
#490000
1!
1=
1n
1[
1o
#500000
0!
0=
0n
0[
0o
#510000
1!
1=
1n
1[
1o
#520000
0!
0=
0n
0[
0o
#530000
1!
1=
1n
1[
1o
#540000
0!
0=
0n
0[
0o
#550000
1!
1=
1n
1[
1o
#560000
0!
0=
0n
0[
0o
#570000
1!
1=
1n
1[
1o
#580000
0!
0=
0n
0[
0o
#590000
1!
1=
1n
1[
1o
#600000
0!
0=
0n
0[
0o
#610000
1!
1=
1n
1[
1o
#620000
0!
0=
0n
0[
0o
#630000
1!
1=
1n
1[
1o
#640000
0!
0=
0n
0[
0o
#650000
1!
1=
1n
1[
1o
#660000
0!
0=
0n
0[
0o
#670000
1!
1=
1n
1[
1o
#680000
0!
0=
0n
0[
0o
#690000
1!
1=
1n
1[
1o
#700000
0!
0=
0n
0[
0o
#710000
1!
1=
1n
1[
1o
#720000
0!
0=
0n
0[
0o
#730000
1!
1=
1n
1[
1o
#740000
0!
0=
0n
0[
0o
#750000
1!
1=
1n
1[
1o
#760000
0!
0=
0n
0[
0o
#770000
1!
1=
1n
1[
1o
#780000
0!
0=
0n
0[
0o
#790000
1!
1=
1n
1[
1o
#800000
0!
0=
0n
0[
0o
#810000
1!
1=
1n
1[
1o
#820000
0!
0=
0n
0[
0o
#830000
1!
1=
1n
1[
1o
#840000
0!
0=
0n
0[
0o
#850000
1!
1=
1n
1[
1o
#860000
0!
0=
0n
0[
0o
#870000
1!
1=
1n
1[
1o
#880000
0!
0=
0n
0[
0o
#890000
1!
1=
1n
1[
1o
#900000
0!
0=
0n
0[
0o
#910000
1!
1=
1n
1[
1o
#920000
0!
0=
0n
0[
0o
#930000
1!
1=
1n
1[
1o
#940000
0!
0=
0n
0[
0o
#950000
1!
1=
1n
1[
1o
#960000
0!
0=
0n
0[
0o
#970000
1!
1=
1n
1[
1o
#980000
0!
0=
0n
0[
0o
#990000
1!
1=
1n
1[
1o
#1000000
0!
0=
0n
0[
0o
#1010000
1!
1=
1n
1[
1o
#1020000
0!
0=
0n
0[
0o
#1030000
1!
1=
1n
1[
1o
#1040000
0!
0=
0n
0[
0o
#1050000
1!
1=
1n
1[
1o
#1060000
0!
0=
0n
0[
0o
#1070000
1!
1=
1n
1[
1o
#1080000
0!
0=
0n
0[
0o
#1090000
1!
1=
1n
1[
1o
#1100000
0!
0=
0n
0[
0o
#1110000
1!
1=
1n
1[
1o
#1120000
0!
0=
0n
0[
0o
#1130000
1!
1=
1n
1[
1o
#1140000
0!
0=
0n
0[
0o
#1150000
1!
1=
1n
1[
1o
#1160000
0!
0=
0n
0[
0o
#1170000
1!
1=
1n
1[
1o
#1180000
0!
0=
0n
0[
0o
#1190000
1!
1=
1n
1[
1o
#1200000
0!
0=
0n
0[
0o
#1210000
1!
1=
1n
1[
1o
#1220000
0!
0=
0n
0[
0o
#1230000
1!
1=
1n
1[
1o
#1240000
0!
0=
0n
0[
0o
#1250000
1!
1=
1n
1[
1o
#1260000
0!
0=
0n
0[
0o
#1270000
1!
1=
1n
1[
1o
#1280000
0!
0=
0n
0[
0o
#1290000
1!
1=
1n
1[
1o
#1300000
0!
0=
0n
0[
0o
#1310000
1!
1=
1n
1[
1o
#1320000
0!
0=
0n
0[
0o
#1330000
1!
1=
1n
1[
1o
#1340000
0!
0=
0n
0[
0o
#1350000
1!
1=
1n
1[
1o
#1360000
0!
0=
0n
0[
0o
#1370000
1!
1=
1n
1[
1o
#1380000
0!
0=
0n
0[
0o
#1390000
1!
1=
1n
1[
1o
#1400000
0!
0=
0n
0[
0o
#1410000
1!
1=
1n
1[
1o
#1420000
0!
0=
0n
0[
0o
#1430000
1!
1=
1n
1[
1o
#1440000
0!
0=
0n
0[
0o
#1450000
1!
1=
1n
1[
1o
#1460000
0!
0=
0n
0[
0o
#1470000
1!
1=
1n
1[
1o
#1480000
0!
0=
0n
0[
0o
#1490000
1!
1=
1n
1[
1o
#1500000
0!
0=
0n
0[
0o
#1510000
1!
1=
1n
1[
1o
#1520000
0!
0=
0n
0[
0o
#1530000
1!
1=
1n
1[
1o
#1540000
0!
0=
0n
0[
0o
#1550000
1!
1=
1n
1[
1o
#1560000
0!
0=
0n
0[
0o
#1570000
1!
1=
1n
1[
1o
#1580000
0!
0=
0n
0[
0o
#1590000
1!
1=
1n
1[
1o
#1600000
0!
0=
0n
0[
0o
#1610000
1!
1=
1n
1[
1o
#1620000
0!
0=
0n
0[
0o
#1630000
1!
1=
1n
1[
1o
#1640000
0!
0=
0n
0[
0o
#1650000
1!
1=
1n
1[
1o
#1660000
0!
0=
0n
0[
0o
#1670000
1!
1=
1n
1[
1o
#1680000
0!
0=
0n
0[
0o
#1690000
1!
1=
1n
1[
1o
#1700000
0!
0=
0n
0[
0o
#1710000
1!
1=
1n
1[
1o
#1720000
0!
0=
0n
0[
0o
#1730000
1!
1=
1n
1[
1o
#1740000
0!
0=
0n
0[
0o
#1750000
1!
1=
1n
1[
1o
#1760000
0!
0=
0n
0[
0o
#1770000
1!
1=
1n
1[
1o
#1780000
0!
0=
0n
0[
0o
#1790000
1!
1=
1n
1[
1o
#1800000
0!
0=
0n
0[
0o
#1810000
1!
1=
1n
1[
1o
#1820000
0!
0=
0n
0[
0o
#1830000
1!
1=
1n
1[
1o
#1840000
0!
0=
0n
0[
0o
#1850000
1!
1=
1n
1[
1o
#1860000
0!
0=
0n
0[
0o
#1870000
1!
1=
1n
1[
1o
#1880000
0!
0=
0n
0[
0o
#1890000
1!
1=
1n
1[
1o
#1900000
0!
0=
0n
0[
0o
#1910000
1!
1=
1n
1[
1o
#1920000
0!
0=
0n
0[
0o
#1930000
1!
1=
1n
1[
1o
#1940000
0!
0=
0n
0[
0o
#1950000
1!
1=
1n
1[
1o
#1960000
0!
0=
0n
0[
0o
#1970000
1!
1=
1n
1[
1o
#1980000
0!
0=
0n
0[
0o
#1990000
1!
1=
1n
1[
1o
#2000000
0!
0/
0=
0>
0p
0n
0[
1C!
1b
0o
1B
12
#2010000
1!
1=
1n
1[
1o
1D!
#2020000
0!
0=
0n
0[
0o
#2030000
1!
1=
1n
1[
1o
#2040000
0!
0=
0n
0[
0o
#2050000
1!
1=
1n
1[
1o
#2060000
0!
0=
0n
0[
0o
#2070000
1!
1=
1n
1[
1o
#2080000
0!
0=
0n
0[
0o
#2090000
1!
1=
1n
1[
1o
#2100000
0!
0=
0n
0[
0o
#2110000
1!
1=
1n
1[
1o
#2120000
0!
0=
0n
0[
0o
#2130000
1!
1=
1n
1[
1o
#2140000
0!
0=
0n
0[
0o
#2150000
1!
1=
1n
1[
1o
#2160000
0!
0=
0n
0[
0o
#2170000
1!
1=
1n
1[
1o
#2180000
0!
0=
0n
0[
0o
#2190000
1!
1=
1n
1[
1o
#2200000
0!
0=
0n
0[
0o
#2210000
1!
1=
1n
1[
1o
#2220000
0!
0=
0n
0[
0o
#2230000
1!
1=
1n
1[
1o
#2240000
0!
0=
0n
0[
0o
#2250000
1!
1=
1n
1[
1o
#2260000
0!
0=
0n
0[
0o
#2270000
1!
1=
1n
1[
1o
#2280000
0!
0=
0n
0[
0o
#2290000
1!
1=
1n
1[
1o
#2300000
0!
0=
0n
0[
0o
#2310000
1!
1=
1n
1[
1o
#2320000
0!
0=
0n
0[
0o
#2330000
1!
1=
1n
1[
1o
#2340000
0!
0=
0n
0[
0o
#2350000
1!
1=
1n
1[
1o
#2360000
0!
0=
0n
0[
0o
#2370000
1!
1=
1n
1[
1o
#2380000
0!
0=
0n
0[
0o
#2390000
1!
1=
1n
1[
1o
#2400000
0!
0=
0n
0[
0o
#2410000
1!
1=
1n
1[
1o
#2420000
0!
0=
0n
0[
0o
#2430000
1!
1=
1n
1[
1o
#2440000
0!
0=
0n
0[
0o
#2450000
1!
1=
1n
1[
1o
#2460000
0!
0=
0n
0[
0o
#2470000
1!
1=
1n
1[
1o
#2480000
0!
0=
0n
0[
0o
#2490000
1!
1=
1n
1[
1o
#2500000
0!
0=
0n
0[
0o
#2510000
1!
1=
1n
1[
1o
#2520000
0!
0=
0n
0[
0o
#2530000
1!
1=
1n
1[
1o
#2540000
0!
0=
0n
0[
0o
#2550000
1!
1=
1n
1[
1o
#2560000
0!
0=
0n
0[
0o
#2570000
1!
1=
1n
1[
1o
#2580000
0!
0=
0n
0[
0o
#2590000
1!
1=
1n
1[
1o
#2600000
0!
0=
0n
0[
0o
#2610000
1!
1=
1n
1[
1o
#2620000
0!
0=
0n
0[
0o
#2630000
1!
1=
1n
1[
1o
#2640000
0!
0=
0n
0[
0o
#2650000
1!
1=
1n
1[
1o
#2660000
0!
0=
0n
0[
0o
#2670000
1!
1=
1n
1[
1o
#2680000
0!
0=
0n
0[
0o
#2690000
1!
1=
1n
1[
1o
#2700000
0!
0=
0n
0[
0o
#2710000
1!
1=
1n
1[
1o
#2720000
0!
0=
0n
0[
0o
#2730000
1!
1=
1n
1[
1o
#2740000
0!
0=
0n
0[
0o
#2750000
1!
1=
1n
1[
1o
#2760000
0!
0=
0n
0[
0o
#2770000
1!
1=
1n
1[
1o
#2780000
0!
0=
0n
0[
0o
#2790000
1!
1=
1n
1[
1o
#2800000
0!
0=
0n
0[
0o
#2810000
1!
1=
1n
1[
1o
#2820000
0!
0=
0n
0[
0o
#2830000
1!
1=
1n
1[
1o
#2840000
0!
0=
0n
0[
0o
#2850000
1!
1=
1n
1[
1o
#2860000
0!
0=
0n
0[
0o
#2870000
1!
1=
1n
1[
1o
#2880000
0!
0=
0n
0[
0o
#2890000
1!
1=
1n
1[
1o
#2900000
0!
0=
0n
0[
0o
#2910000
1!
1=
1n
1[
1o
#2920000
0!
0=
0n
0[
0o
#2930000
1!
1=
1n
1[
1o
#2940000
0!
0=
0n
0[
0o
#2950000
1!
1=
1n
1[
1o
#2960000
0!
0=
0n
0[
0o
#2970000
1!
1=
1n
1[
1o
#2980000
0!
0=
0n
0[
0o
#2990000
1!
1=
1n
1[
1o
#3000000
0!
0=
0n
0[
0o
#3010000
1!
1=
1n
1[
1o
#3020000
0!
0=
0n
0[
0o
#3030000
1!
1=
1n
1[
1o
#3040000
0!
0=
0n
0[
0o
#3050000
1!
1=
1n
1[
1o
#3060000
0!
0=
0n
0[
0o
#3070000
1!
1=
1n
1[
1o
#3080000
0!
0=
0n
0[
0o
#3090000
1!
1=
1n
1[
1o
#3100000
0!
0=
0n
0[
0o
#3110000
1!
1=
1n
1[
1o
#3120000
0!
0=
0n
0[
0o
#3130000
1!
1=
1n
1[
1o
#3140000
0!
0=
0n
0[
0o
#3150000
1!
1=
1n
1[
1o
#3160000
0!
0=
0n
0[
0o
#3170000
1!
1=
1n
1[
1o
#3180000
0!
0=
0n
0[
0o
#3190000
1!
1=
1n
1[
1o
#3200000
0!
0=
0n
0[
0o
#3210000
1!
1=
1n
1[
1o
#3220000
0!
0=
0n
0[
0o
#3230000
1!
1=
1n
1[
1o
#3240000
0!
0=
0n
0[
0o
#3250000
1!
1=
1n
1[
1o
#3260000
0!
0=
0n
0[
0o
#3270000
1!
1=
1n
1[
1o
#3280000
0!
0=
0n
0[
0o
#3290000
1!
1=
1n
1[
1o
#3300000
0!
0=
0n
0[
0o
#3310000
1!
1=
1n
1[
1o
#3320000
0!
0=
0n
0[
0o
#3330000
1!
1=
1n
1[
1o
#3340000
0!
0=
0n
0[
0o
#3350000
1!
1=
1n
1[
1o
#3360000
0!
0=
0n
0[
0o
#3370000
1!
1=
1n
1[
1o
#3380000
0!
0=
0n
0[
0o
#3390000
1!
1=
1n
1[
1o
#3400000
0!
0=
0n
0[
0o
#3410000
1!
1=
1n
1[
1o
#3420000
0!
0=
0n
0[
0o
#3430000
1!
1=
1n
1[
1o
#3440000
0!
0=
0n
0[
0o
#3450000
1!
1=
1n
1[
1o
#3460000
0!
0=
0n
0[
0o
#3470000
1!
1=
1n
1[
1o
#3480000
0!
0=
0n
0[
0o
#3490000
1!
1=
1n
1[
1o
#3500000
0!
0=
0n
0[
0o
#3510000
1!
1=
1n
1[
1o
#3520000
0!
0=
0n
0[
0o
#3530000
1!
1=
1n
1[
1o
#3540000
0!
0=
0n
0[
0o
#3550000
1!
1=
1n
1[
1o
#3560000
0!
0=
0n
0[
0o
#3570000
1!
1=
1n
1[
1o
#3580000
0!
0=
0n
0[
0o
#3590000
1!
1=
1n
1[
1o
#3600000
0!
0=
0n
0[
0o
#3610000
1!
1=
1n
1[
1o
#3620000
0!
0=
0n
0[
0o
#3630000
1!
1=
1n
1[
1o
#3640000
0!
0=
0n
0[
0o
#3650000
1!
1=
1n
1[
1o
#3660000
0!
0=
0n
0[
0o
#3670000
1!
1=
1n
1[
1o
#3680000
0!
0=
0n
0[
0o
#3690000
1!
1=
1n
1[
1o
#3700000
0!
0=
0n
0[
0o
#3710000
1!
1=
1n
1[
1o
#3720000
0!
0=
0n
0[
0o
#3730000
1!
1=
1n
1[
1o
#3740000
0!
0=
0n
0[
0o
#3750000
1!
1=
1n
1[
1o
#3760000
0!
0=
0n
0[
0o
#3770000
1!
1=
1n
1[
1o
#3780000
0!
0=
0n
0[
0o
#3790000
1!
1=
1n
1[
1o
#3800000
0!
0=
0n
0[
0o
#3810000
1!
1=
1n
1[
1o
#3820000
0!
0=
0n
0[
0o
#3830000
1!
1=
1n
1[
1o
#3840000
0!
0=
0n
0[
0o
#3850000
1!
1=
1n
1[
1o
#3860000
0!
0=
0n
0[
0o
#3870000
1!
1=
1n
1[
1o
#3880000
0!
0=
0n
0[
0o
#3890000
1!
1=
1n
1[
1o
#3900000
0!
0=
0n
0[
0o
#3910000
1!
1=
1n
1[
1o
#3920000
0!
0=
0n
0[
0o
#3930000
1!
1=
1n
1[
1o
#3940000
0!
0=
0n
0[
0o
#3950000
1!
1=
1n
1[
1o
#3960000
0!
0=
0n
0[
0o
#3970000
1!
1=
1n
1[
1o
#3980000
0!
0=
0n
0[
0o
#3990000
1!
1=
1n
1[
1o
#4000000
0!
0=
0n
0[
0o
#4010000
1!
1=
1n
1[
1o
#4020000
0!
0=
0n
0[
0o
#4030000
1!
1=
1n
1[
1o
#4040000
0!
0=
0n
0[
0o
#4050000
1!
1=
1n
1[
1o
#4060000
0!
0=
0n
0[
0o
#4070000
1!
1=
1n
1[
1o
#4080000
0!
0=
0n
0[
0o
#4090000
1!
1=
1n
1[
1o
#4100000
0!
0=
0n
0[
0o
#4110000
1!
1=
1n
1[
1o
#4120000
0!
0=
0n
0[
0o
#4130000
1!
1=
1n
1[
1o
#4140000
0!
0=
0n
0[
0o
#4150000
1!
1=
1n
1[
1o
#4160000
0!
0=
0n
0[
0o
#4170000
1!
1=
1n
1[
1o
#4180000
0!
0=
0n
0[
0o
#4190000
1!
1=
1n
1[
1o
#4200000
0!
0=
0n
0[
0o
#4210000
1!
1=
1n
1[
1o
#4220000
0!
0=
0n
0[
0o
#4230000
1!
1=
1n
1[
1o
#4240000
0!
0=
0n
0[
0o
#4250000
1!
1=
1n
1[
1o
#4260000
0!
0=
0n
0[
0o
#4270000
1!
1=
1n
1[
1o
#4280000
0!
0=
0n
0[
0o
#4290000
1!
1=
1n
1[
1o
#4300000
0!
0=
0n
0[
0o
#4310000
1!
1=
1n
1[
1o
#4320000
0!
0=
0n
0[
0o
#4330000
1!
1=
1n
1[
1o
#4340000
0!
0=
0n
0[
0o
#4350000
1!
1=
1n
1[
1o
#4360000
0!
0=
0n
0[
0o
#4370000
1!
1=
1n
1[
1o
#4380000
0!
0=
0n
0[
0o
#4390000
1!
1=
1n
1[
1o
#4400000
0!
0=
0n
0[
0o
#4410000
1!
1=
1n
1[
1o
#4420000
0!
0=
0n
0[
0o
#4430000
1!
1=
1n
1[
1o
#4440000
0!
0=
0n
0[
0o
#4450000
1!
1=
1n
1[
1o
#4460000
0!
0=
0n
0[
0o
#4470000
1!
1=
1n
1[
1o
#4480000
0!
0=
0n
0[
0o
#4490000
1!
1=
1n
1[
1o
#4500000
0!
0=
0n
0[
0o
#4510000
1!
1=
1n
1[
1o
#4520000
0!
0=
0n
0[
0o
#4530000
1!
1=
1n
1[
1o
#4540000
0!
0=
0n
0[
0o
#4550000
1!
1=
1n
1[
1o
#4560000
0!
0=
0n
0[
0o
#4570000
1!
1=
1n
1[
1o
#4580000
0!
0=
0n
0[
0o
#4590000
1!
1=
1n
1[
1o
#4600000
0!
0=
0n
0[
0o
#4610000
1!
1=
1n
1[
1o
#4620000
0!
0=
0n
0[
0o
#4630000
1!
1=
1n
1[
1o
#4640000
0!
0=
0n
0[
0o
#4650000
1!
1=
1n
1[
1o
#4660000
0!
0=
0n
0[
0o
#4670000
1!
1=
1n
1[
1o
#4680000
0!
0=
0n
0[
0o
#4690000
1!
1=
1n
1[
1o
#4700000
0!
0=
0n
0[
0o
#4710000
1!
1=
1n
1[
1o
#4720000
0!
0=
0n
0[
0o
#4730000
1!
1=
1n
1[
1o
#4740000
0!
0=
0n
0[
0o
#4750000
1!
1=
1n
1[
1o
#4760000
0!
0=
0n
0[
0o
#4770000
1!
1=
1n
1[
1o
#4780000
0!
0=
0n
0[
0o
#4790000
1!
1=
1n
1[
1o
#4800000
0!
0=
0n
0[
0o
#4810000
1!
1=
1n
1[
1o
#4820000
0!
0=
0n
0[
0o
#4830000
1!
1=
1n
1[
1o
#4840000
0!
0=
0n
0[
0o
#4850000
1!
1=
1n
1[
1o
#4860000
0!
0=
0n
0[
0o
#4870000
1!
1=
1n
1[
1o
#4880000
0!
0=
0n
0[
0o
#4890000
1!
1=
1n
1[
1o
#4900000
0!
0=
0n
0[
0o
#4910000
1!
1=
1n
1[
1o
#4920000
0!
0=
0n
0[
0o
#4930000
1!
1=
1n
1[
1o
#4940000
0!
0=
0n
0[
0o
#4950000
1!
1=
1n
1[
1o
#4960000
0!
0=
0n
0[
0o
#4970000
1!
1=
1n
1[
1o
#4980000
0!
0=
0n
0[
0o
#4990000
1!
1=
1n
1[
1o
#5000000
0!
0=
0n
0[
0o
#5010000
1!
1=
1n
1[
1o
#5020000
0!
0=
0n
0[
0o
#5030000
1!
1=
1n
1[
1o
#5040000
0!
0=
0n
0[
0o
#5050000
1!
1=
1n
1[
1o
#5060000
0!
0=
0n
0[
0o
#5070000
1!
1=
1n
1[
1o
#5080000
0!
0=
0n
0[
0o
#5090000
1!
1=
1n
1[
1o
#5100000
0!
0=
0n
0[
0o
#5110000
1!
1=
1n
1[
1o
#5120000
0!
0=
0n
0[
0o
#5130000
1!
1=
1n
1[
1o
#5140000
0!
0=
0n
0[
0o
#5150000
1!
1=
1n
1[
1o
#5160000
0!
0=
0n
0[
0o
#5170000
1!
1=
1n
1[
1o
#5180000
0!
0=
0n
0[
0o
#5190000
1!
1=
1n
1[
1o
