Tarea_3/simulation/qsim/AntiRebotes.msim.vcd
$comment
	File created using the following command:
		vcd file AntiRebotes.msim.vcd -direction
$end
$date
	Thu Mar 11 09:16:15 2021
$end
$version
	ModelSim Version 10.5b
$end
$timescale
	1ps
$end

$scope module ejemplokeys_vhd_vec_tst $end
$var wire 1 ! a $end
$var wire 1 " a1 $end
$var wire 1 # b $end
$var wire 1 $ b1 $end
$var wire 1 % c $end
$var wire 1 & c1 $end
$var wire 1 ' Clock $end
$var wire 1 ( d $end
$var wire 1 ) d1 $end
$var wire 1 * e $end
$var wire 1 + e1 $end
$var wire 1 , f $end
$var wire 1 - f1 $end
$var wire 1 . g $end
$var wire 1 / g1 $end
$var wire 1 0 KEY0 $end
$var wire 1 1 KEY1 $end
$var wire 1 2 Reset $end

$scope module i1 $end
$var wire 1 3 gnd $end
$var wire 1 4 vcc $end
$var wire 1 5 unknown $end
$var wire 1 6 devoe $end
$var wire 1 7 devclrn $end
$var wire 1 8 devpor $end
$var wire 1 9 ww_devoe $end
$var wire 1 : ww_devclrn $end
$var wire 1 ; ww_devpor $end
$var wire 1 < ww_a $end
$var wire 1 = ww_Reset $end
$var wire 1 > ww_KEY0 $end
$var wire 1 ? ww_Clock $end
$var wire 1 @ ww_b $end
$var wire 1 A ww_c $end
$var wire 1 B ww_d $end
$var wire 1 C ww_e $end
$var wire 1 D ww_f $end
$var wire 1 E ww_g $end
$var wire 1 F ww_c1 $end
$var wire 1 G ww_KEY1 $end
$var wire 1 H ww_d1 $end
$var wire 1 I ww_e1 $end
$var wire 1 J ww_f1 $end
$var wire 1 K ww_g1 $end
$var wire 1 L ww_a1 $end
$var wire 1 M ww_b1 $end
$var wire 1 N \~QUARTUS_CREATED_ADC1~_CHSEL_bus\ [4] $end
$var wire 1 O \~QUARTUS_CREATED_ADC1~_CHSEL_bus\ [3] $end
$var wire 1 P \~QUARTUS_CREATED_ADC1~_CHSEL_bus\ [2] $end
$var wire 1 Q \~QUARTUS_CREATED_ADC1~_CHSEL_bus\ [1] $end
$var wire 1 R \~QUARTUS_CREATED_ADC1~_CHSEL_bus\ [0] $end
$var wire 1 S \~QUARTUS_CREATED_ADC2~_CHSEL_bus\ [4] $end
$var wire 1 T \~QUARTUS_CREATED_ADC2~_CHSEL_bus\ [3] $end
$var wire 1 U \~QUARTUS_CREATED_ADC2~_CHSEL_bus\ [2] $end
$var wire 1 V \~QUARTUS_CREATED_ADC2~_CHSEL_bus\ [1] $end
$var wire 1 W \~QUARTUS_CREATED_ADC2~_CHSEL_bus\ [0] $end
$var wire 1 X \inst999|inst4~clkctrl_INCLK_bus\ [3] $end
$var wire 1 Y \inst999|inst4~clkctrl_INCLK_bus\ [2] $end
$var wire 1 Z \inst999|inst4~clkctrl_INCLK_bus\ [1] $end
$var wire 1 [ \inst999|inst4~clkctrl_INCLK_bus\ [0] $end
$var wire 1 \ \Clock~inputclkctrl_INCLK_bus\ [3] $end
$var wire 1 ] \Clock~inputclkctrl_INCLK_bus\ [2] $end
$var wire 1 ^ \Clock~inputclkctrl_INCLK_bus\ [1] $end
$var wire 1 _ \Clock~inputclkctrl_INCLK_bus\ [0] $end
$var wire 1 ` \~QUARTUS_CREATED_UNVM~~busy\ $end
$var wire 1 a \~QUARTUS_CREATED_ADC1~~eoc\ $end
$var wire 1 b \~QUARTUS_CREATED_ADC2~~eoc\ $end
$var wire 1 c \a~output_o\ $end
$var wire 1 d \b~output_o\ $end
$var wire 1 e \c~output_o\ $end
$var wire 1 f \d~output_o\ $end
$var wire 1 g \e~output_o\ $end
$var wire 1 h \f~output_o\ $end
$var wire 1 i \g~output_o\ $end
$var wire 1 j \c1~output_o\ $end
$var wire 1 k \d1~output_o\ $end
$var wire 1 l \e1~output_o\ $end
$var wire 1 m \f1~output_o\ $end
$var wire 1 n \g1~output_o\ $end
$var wire 1 o \a1~output_o\ $end
$var wire 1 p \b1~output_o\ $end
$var wire 1 q \Clock~input_o\ $end
$var wire 1 r \Clock~inputclkctrl_outclk\ $end
$var wire 1 s \KEY0~input_o\ $end
$var wire 1 t \inst999|inst|inst~feeder_combout\ $end
$var wire 1 u \inst999|inst|inst~q\ $end
$var wire 1 v \inst999|inst|inst1~feeder_combout\ $end
$var wire 1 w \inst999|inst|inst1~q\ $end
$var wire 1 x \Reset~input_o\ $end
$var wire 1 y \inst999|inst10|reg_fstate.Q0~0_combout\ $end
$var wire 1 z \inst999|inst10|reg_fstate.Q2~0_combout\ $end
$var wire 1 { \inst999|inst10|reg_fstate.Q1~0_combout\ $end
$var wire 1 | \inst999|inst1|auto_generated|counter_comb_bita0~combout\ $end
$var wire 1 } \~GND~combout\ $end
$var wire 1 ~ \inst999|inst1|auto_generated|cmpr1|aneb_result_wire[0]~1_combout\ $end
$var wire 1 !! \inst999|inst1|auto_generated|cmpr1|aneb_result_wire[0]~2_combout\ $end
$var wire 1 "! \inst999|inst1|auto_generated|counter_comb_bita8~COUT\ $end
$var wire 1 #! \inst999|inst1|auto_generated|counter_comb_bita9~combout\ $end
$var wire 1 $! \inst999|inst1|auto_generated|_~0_combout\ $end
$var wire 1 %! \inst999|inst1|auto_generated|counter_comb_bita9~COUT\ $end
$var wire 1 &! \inst999|inst1|auto_generated|counter_comb_bita10~combout\ $end
$var wire 1 '! \inst999|inst1|auto_generated|counter_comb_bita10~COUT\ $end
$var wire 1 (! \inst999|inst1|auto_generated|counter_comb_bita10~0_combout\ $end
$var wire 1 )! \inst999|inst1|auto_generated|counter_reg_bit[10]~0_combout\ $end
$var wire 1 *! \inst999|inst1|auto_generated|counter_reg_bit[10]~1_combout\ $end
$var wire 1 +! \inst999|inst1|auto_generated|counter_comb_bita0~COUT\ $end
$var wire 1 ,! \inst999|inst1|auto_generated|counter_comb_bita1~combout\ $end
$var wire 1 -! \inst999|inst1|auto_generated|counter_comb_bita1~COUT\ $end
$var wire 1 .! \inst999|inst1|auto_generated|counter_comb_bita2~combout\ $end
$var wire 1 /! \inst999|inst1|auto_generated|counter_comb_bita2~COUT\ $end
$var wire 1 0! \inst999|inst1|auto_generated|counter_comb_bita3~combout\ $end
$var wire 1 1! \inst999|inst1|auto_generated|counter_comb_bita3~COUT\ $end
$var wire 1 2! \inst999|inst1|auto_generated|counter_comb_bita4~combout\ $end
$var wire 1 3! \inst999|inst1|auto_generated|counter_comb_bita4~COUT\ $end
$var wire 1 4! \inst999|inst1|auto_generated|counter_comb_bita5~combout\ $end
$var wire 1 5! \inst999|inst1|auto_generated|counter_comb_bita5~COUT\ $end
$var wire 1 6! \inst999|inst1|auto_generated|counter_comb_bita6~combout\ $end
$var wire 1 7! \inst999|inst1|auto_generated|counter_comb_bita6~COUT\ $end
$var wire 1 8! \inst999|inst1|auto_generated|counter_comb_bita7~combout\ $end
$var wire 1 9! \inst999|inst1|auto_generated|counter_comb_bita7~COUT\ $end
$var wire 1 :! \inst999|inst1|auto_generated|counter_comb_bita8~combout\ $end
$var wire 1 ;! \inst999|inst1|auto_generated|cmpr1|aneb_result_wire[0]~0_combout\ $end
$var wire 1 <! \inst999|inst1|auto_generated|cout_actual~combout\ $end
$var wire 1 =! \inst999|inst10|reg_fstate.Q1~1_combout\ $end
$var wire 1 >! \inst999|inst10|fstate.Q1~q\ $end
$var wire 1 ?! \inst999|inst10|reg_fstate.Q2~1_combout\ $end
$var wire 1 @! \inst999|inst10|fstate.Q2~q\ $end
$var wire 1 A! \inst999|inst10|reg_fstate.Q3~0_combout\ $end
$var wire 1 B! \inst999|inst10|reg_fstate.Q3~1_combout\ $end
$var wire 1 C! \inst999|inst10|fstate.Q3~q\ $end
$var wire 1 D! \inst999|inst10|reg_fstate.Q0~1_combout\ $end
$var wire 1 E! \inst999|inst10|fstate.Q0~q\ $end
$var wire 1 F! \inst999|inst10|xDeb_n~0_combout\ $end
$var wire 1 G! \inst999|inst3~q\ $end
$var wire 1 H! \inst999|inst4~combout\ $end
$var wire 1 I! \inst999|inst4~clkctrl_outclk\ $end
$var wire 1 J! \inst2|sub|16~0_combout\ $end
$var wire 1 K! \inst2|sub|16~q\ $end
$var wire 1 L! \inst4|84~1_combout\ $end
$var wire 1 M! \inst2|sub|17~q\ $end
$var wire 1 N! \inst2|sub|18~0_combout\ $end
$var wire 1 O! \inst2|sub|18~q\ $end
$var wire 1 P! \inst2|sub|19~0_combout\ $end
$var wire 1 Q! \inst2|sub|19~q\ $end
$var wire 1 R! \inst4|81~combout\ $end
$var wire 1 S! \inst4|82~0_combout\ $end
$var wire 1 T! \inst4|83~combout\ $end
$var wire 1 U! \inst4|84~0_combout\ $end
$var wire 1 V! \inst4|85~combout\ $end
$var wire 1 W! \inst4|86~0_combout\ $end
$var wire 1 X! \inst4|87~combout\ $end
$var wire 1 Y! \KEY1~input_o\ $end
$var wire 1 Z! \inst33|sub|16~0_combout\ $end
$var wire 1 [! \inst33|sub|16~q\ $end
$var wire 1 \! \inst555|84~1_combout\ $end
$var wire 1 ]! \inst33|sub|17~q\ $end
$var wire 1 ^! \inst33|sub|18~0_combout\ $end
$var wire 1 _! \inst33|sub|18~q\ $end
$var wire 1 `! \inst33|sub|19~0_combout\ $end
$var wire 1 a! \inst33|sub|19~q\ $end
$var wire 1 b! \inst555|83~combout\ $end
$var wire 1 c! \inst555|84~0_combout\ $end
$var wire 1 d! \inst555|85~combout\ $end
$var wire 1 e! \inst555|86~0_combout\ $end
$var wire 1 f! \inst555|87~combout\ $end
$var wire 1 g! \inst555|81~0_combout\ $end
$var wire 1 h! \inst555|82~0_combout\ $end
$var wire 1 i! \inst999|inst1|auto_generated|counter_reg_bit\ [10] $end
$var wire 1 j! \inst999|inst1|auto_generated|counter_reg_bit\ [9] $end
$var wire 1 k! \inst999|inst1|auto_generated|counter_reg_bit\ [8] $end
$var wire 1 l! \inst999|inst1|auto_generated|counter_reg_bit\ [7] $end
$var wire 1 m! \inst999|inst1|auto_generated|counter_reg_bit\ [6] $end
$var wire 1 n! \inst999|inst1|auto_generated|counter_reg_bit\ [5] $end
$var wire 1 o! \inst999|inst1|auto_generated|counter_reg_bit\ [4] $end
$var wire 1 p! \inst999|inst1|auto_generated|counter_reg_bit\ [3] $end
$var wire 1 q! \inst999|inst1|auto_generated|counter_reg_bit\ [2] $end
$var wire 1 r! \inst999|inst1|auto_generated|counter_reg_bit\ [1] $end
$var wire 1 s! \inst999|inst1|auto_generated|counter_reg_bit\ [0] $end
$upscope $end
$upscope $end
$enddefinitions $end
#0
$dumpvars
0!
0"
0#
0$
0%
0&
0'
0(
0)
0*
0+
0,
0-
1.
1/
10
11
02
03
14
x5
16
17
18
19
1:
1;
0<
0=
1>
0?
0@
0A
0B
0C
0D
1E
0F
1G
0H
0I
0J
1K
0L
0M
z`
za
zb
0c
0d
0e
0f
0g
0h
1i
0j
0k
0l
0m
1n
0o
0p
0q
0r
1s
1t
0u
0v
0w
0x
0y
0z
1{
1|
0}
0~
0!!
0"!
0#!
1$!
1%!
0&!
0'!
0(!
1)!
1*!
0+!
0,!
1-!
0.!
0/!
00!
11!
02!
03!
04!
15!
06!
07!
08!
19!
0:!
0;!
0<!
1=!
0>!
0?!
0@!
0A!
0B!
0C!
1D!
0E!
1F!
0G!
0H!
0I!
1J!
0K!
0L!
0M!
0N!
0O!
0P!
0Q!
0R!
0S!
0T!
0U!
0V!
0W!
1X!
1Y!
1Z!
0[!
0\!
0]!
0^!
0_!
0`!
0a!
0b!
0c!
0d!
0e!
1f!
0g!
0h!
0i!
0j!
0k!
0l!
0m!
0n!
0o!
0p!
0q!
0r!
0s!
1\
1]
1^
0_
1X
1Y
1Z
0[
0N
0O
0P
0Q
0R
0S
0T
0U
0V
0W
$end
#10000
1'
1?
1q
1_
1E!
1G!
0{
0)!
0F!
1H!
1r
1[
0*!
0=!
1u
1>!
1I!
1=!
1v
1K!
0J!
1L!
1R!
1U!
1V!
1W!
1h
1g
1f
1c
1D
1C
1B
1<
1,
1*
1(
1!
#20000
0'
0?
0q
0_
0r
#30000
1'
1?
1q
1_
0G!
0H!
1r
0[
1w
1s!
0I!
0|
1+!
1,!
#40000
0'
0?
0q
0_
0r
#50000
1'
1?
1q
1_
1r
0s!
1r!
0,!
0-!
1|
0+!
1,!
1-!
1.!
0.!
#60000
0'
0?
0q
0_
0r
#70000
1'
1?
1q
1_
1r
1s!
0|
1+!
0,!
0-!
1.!
#80000
0'
0?
0q
0_
0r
#90000
1'
1?
1q
1_
1r
0s!
0r!
1q!
0.!
1/!
1,!
1-!
1|
0+!
0,!
1.!
0/!
10!
00!
#100000
0'
0?
0q
0_
0r
#110000
1'
1?
1q
1_
1r
1s!
0|
1+!
1,!
#120000
0'
0?
0q
0_
0r
#130000
1'
1?
1q
1_
1r
0s!
1r!
0,!
0-!
1|
0+!
1,!
1-!
0.!
1/!
10!
1.!
0/!
00!
#140000
0'
0?
0q
0_
0r
#150000
1'
1?
1q
1_
1r
1s!
0|
1+!
0,!
0-!
0.!
1/!
10!
#160000
0'
0?
0q
0_
0r
#170000
1'
1?
1q
1_
1r
0s!
0r!
0q!
1p!
00!
01!
1.!
0/!
1,!
1-!
1|
0+!
0,!
0.!
10!
11!
12!
02!
#180000
0'
0?
0q
0_
0r
#190000
1'
1?
1q
1_
1r
1s!
0|
1+!
1,!
#200000
0'
0?
0q
0_
0r
#210000
1'
1?
1q
1_
1r
0s!
1r!
0,!
0-!
1|
0+!
1,!
1-!
1.!
0.!
#220000
0'
0?
0q
0_
0r
#230000
1'
1?
1q
1_
1r
1s!
0|
1+!
0,!
0-!
1.!
#240000
0'
0?
0q
0_
0r
#250000
1'
1?
1q
1_
1r
0s!
0r!
1q!
0.!
1/!
1,!
1-!
1|
0+!
0,!
1.!
0/!
00!
01!
12!
10!
11!
02!
#260000
0'
0?
0q
0_
0r
#270000
1'
1?
1q
1_
1r
1s!
0|
1+!
1,!
#280000
0'
0?
0q
0_
0r
#290000
1'
1?
1q
1_
1r
0s!
1r!
0,!
0-!
1|
0+!
1,!
1-!
0.!
1/!
00!
01!
1.!
0/!
10!
11!
12!
02!
#300000
0'
0?
0q
0_
0r
#310000
1'
1?
1q
1_
1r
1s!
0|
1+!
0,!
0-!
0.!
1/!
00!
01!
12!
#320000
0'
0?
0q
0_
0r
#330000
1'
1?
1q
1_
1r
0s!
0r!
0q!
0p!
1o!
02!
13!
10!
11!
1.!
0/!
1,!
1-!
1|
0+!
0,!
0.!
00!
12!
03!
14!
04!
#340000
0'
0?
0q
0_
0r
#350000
1'
1?
1q
1_
1r
1s!
0|
1+!
1,!
#360000
0'
0?
0q
0_
0r
#370000
1'
1?
1q
1_
1r
0s!
1r!
0,!
0-!
1|
0+!
1,!
1-!
1.!
0.!
#380000
0'
0?
0q
0_
0r
#390000
1'
1?
1q
1_
1r
1s!
0|
1+!
0,!
0-!
1.!
#400000
0'
0?
0q
0_
0r
#410000
1'
1?
1q
1_
1r
0s!
0r!
1q!
0.!
1/!
1,!
1-!
1|
0+!
0,!
1.!
0/!
10!
00!
#420000
0'
0?
0q
0_
0r
#430000
1'
1?
1q
1_
1r
1s!
0|
1+!
1,!
#440000
0'
0?
0q
0_
0r
#450000
1'
1?
1q
1_
1r
0s!
1r!
0,!
0-!
1|
0+!
1,!
1-!
0.!
1/!
10!
1.!
0/!
00!
#460000
0'
0?
0q
0_
0r
#470000
1'
1?
1q
1_
1r
1s!
0|
1+!
0,!
0-!
0.!
1/!
10!
#480000
0'
0?
0q
0_
0r
#490000
1'
1?
1q
1_
1r
0s!
0r!
0q!
1p!
00!
01!
1.!
0/!
1,!
1-!
1|
0+!
0,!
0.!
10!
11!
02!
13!
14!
12!
03!
04!
#500000
0'
0?
0q
0_
0r
#510000
1'
1?
1q
1_
1r
1s!
0|
1+!
1,!
#520000
0'
0?
0q
0_
0r
#530000
1'
1?
1q
1_
1r
0s!
1r!
0,!
0-!
1|
0+!
1,!
1-!
1.!
0.!
#540000
0'
0?
0q
0_
0r
#550000
1'
1?
1q
1_
1r
1s!
0|
1+!
0,!
0-!
1.!
#560000
0'
0?
0q
0_
0r
#570000
1'
1?
1q
1_
1r
0s!
0r!
1q!
0.!
1/!
1,!
1-!
1|
0+!
0,!
1.!
0/!
00!
01!
02!
13!
10!
11!
12!
03!
14!
04!
#580000
0'
0?
0q
0_
0r
#590000
1'
1?
1q
1_
1r
1s!
0|
1+!
1,!
#600000
0'
0?
0q
0_
0r
#610000
1'
1?
1q
1_
1r
0s!
1r!
0,!
0-!
1|
0+!
1,!
1-!
0.!
1/!
00!
01!
1.!
0/!
10!
11!
02!
13!
14!
12!
03!
04!
#620000
0'
0?
0q
0_
0r
#630000
1'
1?
1q
1_
1r
1s!
0|
1+!
0,!
0-!
0.!
1/!
00!
01!
02!
13!
14!
#640000
0'
0?
0q
0_
0r
#650000
1'
1?
1q
1_
1r
0s!
0r!
0q!
0p!
0o!
1n!
04!
05!
12!
03!
10!
11!
1.!
0/!
1,!
1-!
1|
0+!
0,!
0.!
00!
02!
14!
15!
16!
06!
#660000
0'
0?
0q
0_
0r
#670000
1'
1?
1q
1_
1r
1s!
0|
1+!
1,!
#680000
0'
0?
0q
0_
0r
#690000
1'
1?
1q
1_
1r
0s!
1r!
0,!
0-!
1|
0+!
1,!
1-!
1.!
0.!
#700000
0'
0?
0q
0_
0r
#710000
1'
1?
1q
1_
1r
1s!
0|
1+!
0,!
0-!
1.!
#720000
0'
0?
0q
0_
0r
#730000
1'
1?
1q
1_
1r
0s!
0r!
1q!
0.!
1/!
1,!
1-!
1|
0+!
0,!
1.!
0/!
10!
00!
#740000
0'
0?
0q
0_
0r
#750000
1'
1?
1q
1_
1r
1s!
0|
1+!
1,!
#760000
0'
0?
0q
0_
0r
#770000
1'
1?
1q
1_
1r
0s!
1r!
0,!
0-!
1|
0+!
1,!
1-!
0.!
1/!
10!
1.!
0/!
00!
#780000
0'
0?
0q
0_
0r
#790000
1'
1?
1q
1_
1r
1s!
0|
1+!
0,!
0-!
0.!
1/!
10!
#800000
0'
0?
0q
0_
0r
#810000
1'
1?
1q
1_
1r
0s!
0r!
0q!
1p!
00!
01!
1.!
0/!
1,!
1-!
1|
0+!
0,!
0.!
10!
11!
12!
02!
#820000
0'
0?
0q
0_
0r
#830000
1'
1?
1q
1_
1r
1s!
0|
1+!
1,!
#840000
0'
0?
0q
0_
0r
#850000
1'
1?
1q
1_
1r
0s!
1r!
0,!
0-!
1|
0+!
1,!
1-!
1.!
0.!
#860000
0'
0?
0q
0_
0r
#870000
1'
1?
1q
1_
1r
1s!
0|
1+!
0,!
0-!
1.!
#880000
0'
0?
0q
0_
0r
#890000
1'
1?
1q
1_
1r
0s!
0r!
1q!
0.!
1/!
1,!
1-!
1|
0+!
0,!
1.!
0/!
00!
01!
12!
10!
11!
02!
#900000
0'
0?
0q
0_
0r
#910000
1'
1?
1q
1_
1r
1s!
0|
1+!
1,!
#920000
0'
0?
0q
0_
0r
#930000
1'
1?
1q
1_
1r
0s!
1r!
0,!
0-!
1|
0+!
1,!
1-!
0.!
1/!
00!
01!
1.!
0/!
10!
11!
12!
02!
#940000
0'
0?
0q
0_
0r
#950000
1'
1?
1q
1_
1r
1s!
0|
1+!
0,!
0-!
0.!
1/!
00!
01!
12!
#960000
0'
0?
0q
0_
0r
#970000
1'
1?
1q
1_
1r
0s!
0r!
0q!
0p!
1o!
02!
13!
10!
11!
1.!
0/!
1,!
1-!
1|
0+!
0,!
0.!
00!
12!
03!
04!
05!
16!
14!
15!
06!
#980000
0'
0?
0q
0_
0r
#990000
1'
1?
1q
1_
1r
1s!
0|
1+!
1,!
#1000000
0'
0?
0q
0_
0r
#1010000
1'
1?
1q
1_
1r
0s!
1r!
0,!
0-!
1|
0+!
1,!
1-!
1.!
0.!
#1020000
0'
0?
0q
0_
0r
#1030000
1'
1?
1q
1_
1r
1s!
0|
1+!
0,!
0-!
1.!
#1040000
0'
0?
0q
0_
0r
#1050000
1'
1?
1q
1_
1r
0s!
0r!
1q!
0.!
1/!
1,!
1-!
1|
0+!
0,!
1.!
0/!
10!
00!
#1060000
0'
0?
0q
0_
0r
#1070000
1'
1?
1q
1_
1r
1s!
0|
1+!
1,!
#1080000
0'
0?
0q
0_
0r
#1090000
1'
1?
1q
1_
1r
0s!
1r!
0,!
0-!
1|
0+!
1,!
1-!
0.!
1/!
10!
1.!
0/!
00!
#1100000
0'
0?
0q
0_
0r
#1110000
1'
1?
1q
1_
1r
1s!
0|
1+!
0,!
0-!
0.!
1/!
10!
#1120000
0'
0?
0q
0_
0r
#1130000
1'
1?
1q
1_
1r
0s!
0r!
0q!
1p!
00!
01!
1.!
0/!
1,!
1-!
1|
0+!
0,!
0.!
10!
11!
02!
13!
04!
05!
12!
03!
14!
15!
16!
06!
#1140000
0'
0?
0q
0_
0r
#1150000
1'
1?
1q
1_
1r
1s!
0|
1+!
1,!
#1160000
0'
0?
0q
0_
0r
#1170000
1'
1?
1q
1_
1r
0s!
1r!
0,!
0-!
1|
0+!
1,!
1-!
1.!
0.!
#1180000
0'
0?
0q
0_
0r
#1190000
1'
1?
1q
1_
1r
1s!
0|
1+!
0,!
0-!
1.!
#1200000
0'
0?
0q
0_
0r
#1210000
1'
1?
1q
1_
1r
0s!
0r!
1q!
0.!
1/!
1,!
1-!
1|
0+!
0,!
1.!
0/!
00!
01!
02!
13!
10!
11!
12!
03!
04!
05!
16!
14!
15!
06!
#1220000
0'
0?
0q
0_
0r
#1230000
1'
1?
1q
1_
1r
1s!
0|
1+!
1,!
#1240000
0'
0?
0q
0_
0r
#1250000
1'
1?
1q
1_
1r
0s!
1r!
0,!
0-!
1|
0+!
1,!
1-!
0.!
1/!
00!
01!
1.!
0/!
10!
11!
02!
13!
04!
05!
12!
03!
14!
15!
16!
06!
#1260000
0'
0?
0q
0_
0r
#1270000
1'
1?
1q
1_
1r
1s!
0|
1+!
0,!
0-!
0.!
1/!
00!
01!
02!
13!
04!
05!
16!
#1280000
0'
0?
0q
0_
0r
#1290000
1'
1?
1q
1_
1r
0s!
0r!
0q!
0p!
0o!
0n!
1m!
06!
17!
14!
15!
12!
03!
10!
11!
1.!
0/!
1,!
1-!
1|
0+!
0,!
0.!
00!
02!
04!
16!
07!
18!
08!
#1300000
0'
0?
0q
0_
0r
#1310000
1'
1?
1q
1_
1r
1s!
0|
1+!
1,!
#1320000
0'
0?
0q
0_
0r
#1330000
1'
1?
1q
1_
1r
0s!
1r!
0,!
0-!
1|
0+!
1,!
1-!
1.!
0.!
#1340000
0'
0?
0q
0_
0r
#1350000
1'
1?
1q
1_
1r
1s!
0|
1+!
0,!
0-!
1.!
#1360000
0'
0?
0q
0_
0r
#1370000
1'
1?
1q
1_
1r
0s!
0r!
1q!
0.!
1/!
1,!
1-!
1|
0+!
0,!
1.!
0/!
10!
00!
#1380000
0'
0?
0q
0_
0r
#1390000
1'
1?
1q
1_
1r
1s!
0|
1+!
1,!
#1400000
0'
0?
0q
0_
0r
#1410000
1'
1?
1q
1_
1r
0s!
1r!
0,!
0-!
1|
0+!
1,!
1-!
0.!
1/!
10!
1.!
0/!
00!
#1420000
0'
0?
0q
0_
0r
#1430000
1'
1?
1q
1_
1r
1s!
0|
1+!
0,!
0-!
0.!
1/!
10!
#1440000
0'
0?
0q
0_
0r
#1450000
1'
1?
1q
1_
1r
0s!
0r!
0q!
1p!
00!
01!
1.!
0/!
1,!
1-!
1|
0+!
0,!
0.!
10!
11!
12!
02!
#1460000
0'
0?
0q
0_
0r
#1470000
1'
1?
1q
1_
1r
1s!
0|
1+!
1,!
#1480000
0'
0?
0q
0_
0r
#1490000
1'
1?
1q
1_
1r
0s!
1r!
0,!
0-!
1|
0+!
1,!
1-!
1.!
0.!
#1500000
0'
0?
0q
0_
0r
#1510000
1'
1?
1q
1_
1r
1s!
0|
1+!
0,!
0-!
1.!
#1520000
0'
0?
0q
0_
0r
#1530000
1'
1?
1q
1_
1r
0s!
0r!
1q!
0.!
1/!
1,!
1-!
1|
0+!
0,!
1.!
0/!
00!
01!
12!
10!
11!
02!
#1540000
0'
0?
0q
0_
0r
#1550000
1'
1?
1q
1_
1r
1s!
0|
1+!
1,!
#1560000
0'
0?
0q
0_
0r
#1570000
1'
1?
1q
1_
1r
0s!
1r!
0,!
0-!
1|
0+!
1,!
1-!
0.!
1/!
00!
01!
1.!
0/!
10!
11!
12!
02!
#1580000
0'
0?
0q
0_
0r
#1590000
1'
1?
1q
1_
1r
1s!
0|
1+!
0,!
0-!
0.!
1/!
00!
01!
12!
#1600000
0'
0?
0q
0_
0r
#1610000
1'
1?
1q
1_
1r
0s!
0r!
0q!
0p!
1o!
02!
13!
10!
11!
1.!
0/!
1,!
1-!
1|
0+!
0,!
0.!
00!
12!
03!
14!
04!
#1620000
0'
0?
0q
0_
0r
#1630000
1'
1?
1q
1_
1r
1s!
0|
1+!
1,!
#1640000
0'
0?
0q
0_
0r
#1650000
1'
1?
1q
1_
1r
0s!
1r!
0,!
0-!
1|
0+!
1,!
1-!
1.!
0.!
#1660000
0'
0?
0q
0_
0r
#1670000
1'
1?
1q
1_
1r
1s!
0|
1+!
0,!
0-!
1.!
#1680000
0'
0?
0q
0_
0r
#1690000
1'
1?
1q
1_
1r
0s!
0r!
1q!
0.!
1/!
1,!
1-!
1|
0+!
0,!
1.!
0/!
10!
00!
#1700000
0'
0?
0q
0_
0r
#1710000
1'
1?
1q
1_
1r
1s!
0|
1+!
1,!
#1720000
0'
0?
0q
0_
0r
#1730000
1'
1?
1q
1_
1r
0s!
1r!
0,!
0-!
1|
0+!
1,!
1-!
0.!
1/!
10!
1.!
0/!
00!
#1740000
0'
0?
0q
0_
0r
#1750000
1'
1?
1q
1_
1r
1s!
0|
1+!
0,!
0-!
0.!
1/!
10!
#1760000
0'
0?
0q
0_
0r
#1770000
1'
1?
1q
1_
1r
0s!
0r!
0q!
1p!
00!
01!
1.!
0/!
1,!
1-!
1|
0+!
0,!
0.!
10!
11!
02!
13!
14!
12!
03!
04!
#1780000
0'
0?
0q
0_
0r
#1790000
1'
1?
1q
1_
1r
1s!
0|
1+!
1,!
#1800000
0'
0?
0q
0_
0r
#1810000
1'
1?
1q
1_
1r
0s!
1r!
0,!
0-!
1|
0+!
1,!
1-!
1.!
0.!
#1820000
0'
0?
0q
0_
0r
#1830000
1'
1?
1q
1_
1r
1s!
0|
1+!
0,!
0-!
1.!
#1840000
0'
0?
0q
0_
0r
#1850000
1'
1?
1q
1_
1r
0s!
0r!
1q!
0.!
1/!
1,!
1-!
1|
0+!
0,!
1.!
0/!
00!
01!
02!
13!
10!
11!
12!
03!
14!
04!
#1860000
0'
0?
0q
0_
0r
#1870000
1'
1?
1q
1_
1r
1s!
0|
1+!
1,!
#1880000
0'
0?
0q
0_
0r
#1890000
1'
1?
1q
1_
1r
0s!
1r!
0,!
0-!
1|
0+!
1,!
1-!
0.!
1/!
00!
01!
1.!
0/!
10!
11!
02!
13!
14!
12!
03!
04!
#1900000
0'
0?
0q
0_
0r
#1910000
1'
1?
1q
1_
1r
1s!
0|
1+!
0,!
0-!
0.!
1/!
00!
01!
02!
13!
14!
#1920000
0'
0?
0q
0_
0r
#1930000
1'
1?
1q
1_
1r
0s!
0r!
0q!
0p!
0o!
1n!
04!
05!
12!
03!
1~
10!
11!
1.!
0/!
1,!
1-!
1|
0+!
0,!
0.!
00!
02!
14!
15!
06!
17!
18!
16!
07!
08!
#1940000
0'
0?
0q
0_
0r
#1950000
1'
1?
1q
1_
1r
1s!
0|
1+!
1!!
1,!
#1960000
0'
0?
0q
0_
0r
#1970000
1'
1?
1q
1_
1r
0s!
1r!
0,!
0-!
1|
0+!
0!!
1,!
1-!
1.!
0.!
#1980000
0'
0?
0q
0_
0r
#1990000
1'
1?
1q
1_
1r
1s!
0|
1+!
0,!
0-!
1.!
#2000000
0'
00
01
0?
0>
0G
0Y!
0s
0q
0_
0t
0r
#2010000
1'
1?
1q
1_
1r
0u
0s!
0r!
1q!
0.!
1/!
1,!
1-!
1|
0+!
0v
0,!
1.!
0/!
10!
00!
#2020000
0'
0?
0q
0_
0r
#2030000
1'
1?
1q
1_
1r
0w
1s!
0|
1+!
1,!
#2040000
0'
0?
0q
0_
0r
#2050000
1'
1?
1q
1_
1r
0s!
1r!
0,!
0-!
1|
0+!
1,!
1-!
0.!
1/!
10!
1.!
0/!
00!
#2060000
0'
0?
0q
0_
0r
#2070000
1'
1?
1q
1_
1r
1s!
0|
1+!
0,!
0-!
0.!
1/!
10!
#2080000
0'
0?
0q
0_
0r
#2090000
1'
1?
1q
1_
1r
0s!
0r!
0q!
1p!
0~
00!
01!
1.!
0/!
1,!
1-!
1|
0+!
0,!
0.!
10!
11!
12!
02!
#2100000
0'
0?
0q
0_
0r
#2110000
1'
1?
1q
1_
1r
1s!
0|
1+!
1,!
#2120000
0'
0?
0q
0_
0r
#2130000
1'
1?
1q
1_
1r
0s!
1r!
0,!
0-!
1|
0+!
1,!
1-!
1.!
0.!
#2140000
0'
0?
0q
0_
0r
#2150000
1'
1?
1q
1_
1r
1s!
0|
1+!
0,!
0-!
1.!
#2160000
0'
0?
0q
0_
0r
#2170000
1'
1?
1q
1_
1r
0s!
0r!
1q!
0.!
1/!
1,!
1-!
1|
0+!
0,!
1.!
0/!
00!
01!
12!
10!
11!
02!
#2180000
0'
0?
0q
0_
0r
#2190000
1'
1?
1q
1_
1r
1s!
0|
1+!
1,!
#2200000
0'
0?
0q
0_
0r
#2210000
1'
1?
1q
1_
1r
0s!
1r!
0,!
0-!
1|
0+!
1,!
1-!
0.!
1/!
00!
01!
1.!
0/!
10!
11!
12!
02!
#2220000
0'
0?
0q
0_
0r
#2230000
1'
1?
1q
1_
1r
1s!
0|
1+!
0,!
0-!
0.!
1/!
00!
01!
12!
