Tarea_3/simulation/qsim/AntiRebotes.msim.vcd
$comment
	File created using the following command:
		vcd file AntiRebotes.msim.vcd -direction
$end
$date
	Sun Feb 28 19:08:36 2021
$end
$version
	ModelSim Version 10.5b
$end
$timescale
	1ps
$end

$scope module antirebotes_vhd_vec_tst $end
$var wire 1 ! CLK $end
$var wire 1 " L6 $end
$var wire 1 # L7 $end
$var wire 1 $ L8 $end
$var wire 1 % L9 $end
$var wire 1 & OUT_SIN $end
$var wire 1 ' Pulse_KEY0 $end
$var wire 1 ( Reset_KEY1 $end

$scope module i1 $end
$var wire 1 ) gnd $end
$var wire 1 * vcc $end
$var wire 1 + unknown $end
$var wire 1 , devoe $end
$var wire 1 - devclrn $end
$var wire 1 . devpor $end
$var wire 1 / ww_devoe $end
$var wire 1 0 ww_devclrn $end
$var wire 1 1 ww_devpor $end
$var wire 1 2 ww_L9 $end
$var wire 1 3 ww_CLK $end
$var wire 1 4 ww_Reset_KEY1 $end
$var wire 1 5 ww_Pulse_KEY0 $end
$var wire 1 6 ww_L8 $end
$var wire 1 7 ww_L7 $end
$var wire 1 8 ww_L6 $end
$var wire 1 9 ww_OUT_SIN $end
$var wire 1 : \~QUARTUS_CREATED_ADC1~_CHSEL_bus\ [4] $end
$var wire 1 ; \~QUARTUS_CREATED_ADC1~_CHSEL_bus\ [3] $end
$var wire 1 < \~QUARTUS_CREATED_ADC1~_CHSEL_bus\ [2] $end
$var wire 1 = \~QUARTUS_CREATED_ADC1~_CHSEL_bus\ [1] $end
$var wire 1 > \~QUARTUS_CREATED_ADC1~_CHSEL_bus\ [0] $end
$var wire 1 ? \~QUARTUS_CREATED_ADC2~_CHSEL_bus\ [4] $end
$var wire 1 @ \~QUARTUS_CREATED_ADC2~_CHSEL_bus\ [3] $end
$var wire 1 A \~QUARTUS_CREATED_ADC2~_CHSEL_bus\ [2] $end
$var wire 1 B \~QUARTUS_CREATED_ADC2~_CHSEL_bus\ [1] $end
$var wire 1 C \~QUARTUS_CREATED_ADC2~_CHSEL_bus\ [0] $end
$var wire 1 D \Reset_KEY1~inputclkctrl_INCLK_bus\ [3] $end
$var wire 1 E \Reset_KEY1~inputclkctrl_INCLK_bus\ [2] $end
$var wire 1 F \Reset_KEY1~inputclkctrl_INCLK_bus\ [1] $end
$var wire 1 G \Reset_KEY1~inputclkctrl_INCLK_bus\ [0] $end
$var wire 1 H \CLK~inputclkctrl_INCLK_bus\ [3] $end
$var wire 1 I \CLK~inputclkctrl_INCLK_bus\ [2] $end
$var wire 1 J \CLK~inputclkctrl_INCLK_bus\ [1] $end
$var wire 1 K \CLK~inputclkctrl_INCLK_bus\ [0] $end
$var wire 1 L \~QUARTUS_CREATED_GND~I_combout\ $end
$var wire 1 M \~QUARTUS_CREATED_UNVM~~busy\ $end
$var wire 1 N \~QUARTUS_CREATED_ADC1~~eoc\ $end
$var wire 1 O \~QUARTUS_CREATED_ADC2~~eoc\ $end
$var wire 1 P \L9~output_o\ $end
$var wire 1 Q \L8~output_o\ $end
$var wire 1 R \L7~output_o\ $end
$var wire 1 S \L6~output_o\ $end
$var wire 1 T \OUT_SIN~output_o\ $end
$var wire 1 U \Reset_KEY1~input_o\ $end
$var wire 1 V \CLK~input_o\ $end
$var wire 1 W \CLK~inputclkctrl_outclk\ $end
$var wire 1 X \Pulse_KEY0~input_o\ $end
$var wire 1 Y \inst|inst~feeder_combout\ $end
$var wire 1 Z \Reset_KEY1~inputclkctrl_outclk\ $end
$var wire 1 [ \inst|inst~q\ $end
$var wire 1 \ \inst|inst1~q\ $end
$var wire 1 ] \inst666|reg_fstate.Q0~0_combout\ $end
$var wire 1 ^ \inst666|fstate.Q2~q\ $end
$var wire 1 _ \inst666|Led_8~0_combout\ $end
$var wire 1 ` \inst666|fstate.Q3~q\ $end
$var wire 1 a \inst666|Led_7~0_combout\ $end
$var wire 1 b \inst666|fstate.Q4~q\ $end
$var wire 1 c \inst666|reg_fstate.Q0~1_combout\ $end
$var wire 1 d \inst666|fstate.Q0~q\ $end
$var wire 1 e \inst666|reg_fstate.Q1~0_combout\ $end
$var wire 1 f \inst666|fstate.Q1~q\ $end
$var wire 1 g \inst666|Led_9~0_combout\ $end
$var wire 1 h \inst666|Led_6~0_combout\ $end
$upscope $end
$upscope $end
$enddefinitions $end
#0
$dumpvars
0!
0"
0#
0$
0%
0&
0'
1(
0)
1*
x+
1,
1-
1.
1/
10
11
02
03
14
05
06
07
08
09
0L
zM
zN
zO
0P
0Q
0R
0S
0T
1U
0V
0W
0X
0Y
1Z
0[
0\
1]
0^
0_
0`
0a
0b
0c
0d
0e
0f
0g
0h
1H
1I
1J
0K
1D
1E
1F
1G
0:
0;
0<
0=
0>
0?
0@
0A
0B
0C
$end
#100000
1'
15
1X
1Y
#1000000
1!
13
1V
1K
1W
1[
#2000000
0!
03
0V
0K
0W
#3000000
1!
13
1V
1K
1W
1\
1T
19
1&
#4000000
0!
03
0V
0K
0W
#5000000
1!
13
1V
1K
1W
#6000000
0!
03
0V
0K
0W
#7000000
1!
13
1V
1K
1W
#8000000
0!
03
0V
0K
0W
#9000000
1!
13
1V
1K
1W
#10000000
0!
0'
03
05
0X
0V
0K
0Y
0W
#10100000
1'
15
1X
1Y
#11000000
1!
13
1V
1K
1W
#12000000
0!
03
0V
0K
0W
#13000000
1!
13
1V
1K
1W
#14000000
0!
03
0V
0K
0W
#15000000
1!
13
1V
1K
1W
#16000000
0!
03
0V
0K
0W
#17000000
1!
13
1V
1K
1W
#18000000
0!
03
0V
0K
0W
#19000000
1!
13
1V
1K
1W
#20000000
0!
0'
03
05
0X
0V
0K
0Y
0W
#20100000
1'
15
1X
1Y
#21000000
1!
13
1V
1K
1W
#22000000
0!
03
0V
0K
0W
#23000000
1!
13
1V
1K
1W
#24000000
0!
03
0V
0K
0W
#25000000
1!
13
1V
1K
1W
#26000000
0!
03
0V
0K
0W
#27000000
1!
13
1V
1K
1W
#28000000
0!
03
0V
0K
0W
#29000000
1!
13
1V
1K
1W
#30000000
0!
0'
03
05
0X
0V
0K
0Y
0W
#30100000
1'
15
1X
1Y
#31000000
1!
13
1V
1K
1W
#32000000
0!
03
0V
0K
0W
#33000000
1!
13
1V
1K
1W
#34000000
0!
03
0V
0K
0W
#35000000
1!
13
1V
1K
1W
#36000000
0!
03
0V
0K
0W
#37000000
1!
13
1V
1K
1W
#38000000
0!
03
0V
0K
0W
#39000000
1!
13
1V
1K
1W
#40000000
0!
0'
03
05
0X
0V
0K
0Y
0W
#40100000
1'
15
1X
1Y
#41000000
1!
13
1V
1K
1W
#42000000
0!
03
0V
0K
0W
#43000000
1!
13
1V
1K
1W
#44000000
0!
03
0V
0K
0W
#45000000
1!
13
1V
1K
1W
#46000000
0!
03
0V
0K
0W
#47000000
1!
13
1V
1K
1W
#48000000
0!
03
0V
0K
0W
#49000000
1!
13
1V
1K
1W
#50000000
0!
0'
03
05
0X
0V
0K
0Y
0W
#50100000
1'
15
1X
1Y
#51000000
1!
13
1V
1K
1W
#52000000
0!
03
0V
0K
0W
#53000000
1!
13
1V
1K
1W
#54000000
0!
03
0V
0K
0W
#55000000
1!
13
1V
1K
1W
#56000000
0!
03
0V
0K
0W
#57000000
1!
13
1V
1K
1W
#58000000
0!
03
0V
0K
0W
#59000000
1!
13
1V
1K
1W
#60000000
0!
0'
03
05
0X
0V
0K
0Y
0W
#60100000
1'
15
1X
1Y
#61000000
1!
13
1V
1K
1W
#62000000
0!
03
0V
0K
0W
#63000000
1!
13
1V
1K
1W
#64000000
0!
03
0V
0K
0W
#65000000
1!
13
1V
1K
1W
#66000000
0!
03
0V
0K
0W
#67000000
1!
13
1V
1K
1W
#68000000
0!
03
0V
0K
0W
#69000000
1!
13
1V
1K
1W
#70000000
0!
0'
03
05
0X
0V
0K
0Y
0W
#70100000
1'
15
1X
1Y
#71000000
1!
13
1V
1K
1W
#72000000
0!
03
0V
0K
0W
#73000000
1!
13
1V
1K
1W
#74000000
0!
03
0V
0K
0W
#75000000
1!
13
1V
1K
1W
#76000000
0!
03
0V
0K
0W
#77000000
1!
13
1V
1K
1W
#78000000
0!
03
0V
0K
0W
#79000000
1!
13
1V
1K
1W
#80000000
0!
0'
03
05
0X
0V
0K
0Y
0W
#80100000
1'
15
1X
1Y
#81000000
1!
13
1V
1K
1W
#82000000
0!
03
0V
0K
0W
#83000000
1!
13
1V
1K
1W
#84000000
0!
03
0V
0K
0W
#85000000
1!
13
1V
1K
1W
#86000000
0!
03
0V
0K
0W
#87000000
1!
13
1V
1K
1W
#88000000
0!
03
0V
0K
0W
#89000000
1!
13
1V
1K
1W
#90000000
0!
0'
03
05
0X
0V
0K
0Y
0W
#90100000
1'
15
1X
1Y
#91000000
1!
13
1V
1K
1W
#92000000
0!
03
0V
0K
0W
#93000000
1!
13
1V
1K
1W
#94000000
0!
03
0V
0K
0W
#95000000
1!
13
1V
1K
1W
#96000000
0!
03
0V
0K
0W
#97000000
1!
13
1V
1K
1W
#98000000
0!
03
0V
0K
0W
#99000000
1!
13
1V
1K
1W
